station,arrival_time,departure_time,stop_sequence
မႏၱၱေလး,1700,1700,1
ျမစ္သား,1822,1824,2
သဲေတာ,1912,1914,3
သာစည္,1946,1949,4
ေညာင္ရမ္း,2005,2007,5
ေပ်ာ္ဘြယ္,2034,2036,6
ရမည္းသင္း,2108,2111,7
တပ္ကုန္း,2159,2201,8
ေနျပည္ေတာ္,2248,2251,9
ပ်ဥ္းမနား,2315,2318,10
ဧလာ,2336,2338,11
ေတာင္ငူ,0117,0127,12
ျဖဴး, 0229, 0231,13
ကၫြတ္ကြင္း,0253,0255,14
ေက်ာက္တံခါး,0327,0329,15
ပိန္းဇလုတ္,0343,0346,16
ေညာင္ေလးပင္,0403,0405,17
ႁပြန္တံဆာ,0419,0421,18
ဒိုက္ဦး,0437,0439,19
ပဲခူး,0546,0549,20
တိုးေၾကာင္ကေလး,0704,0706,21
ရန္ကုန္,0745,0745,22
