stop_id,arrival_time,departure_time,stop_sequence
STR00868,0530,0530,1
STR01326,0537,0538,2
STR01324,0543,0544,3
STR01322,0552,0554,4
STR01320,0609,0611,5
STR01318,0615,0616,6
STR01316,0621,0623,7
STR01315,0634,0636,8
STR01314,0650,0655,9
STR01312,0707,0708,10
STR01310,0717,0719,11
STR01308,0731,0733,12
STR01307,0756,0757,13
STR01306,0813,0815,14
STR01304,0820,0822,15
STR01302,0830,0831,16
STR01302,0839,0841,17
STR01300,0851,0853,18
STR01116_RCHU,0905,0905,19
