stop_id,arrival_time,departure_time,stop_sequence
STR00794,2330,2330,1
STR00786,1,3,2
STR00782,21,24,3
STR00778,41,44,4
STR00772,104,107,5
STR00770,122,125,6
STR00768,148,151,7
STR00764,211,214,8
STR00760,234,237,9
STR00756,308,311,10
STR00746,350,355,11
STR00740,424,427,12
STR00724,539,542,13
STR00001_RRGN,750,750,14
