trip_id,arrival_time,departure_time,stop_id,stop_sequence,stop_headsign,pickup_type,drop_off_type,shape_dist_traveled,timepoint
TR0174Dn,04:00:00,04:00:00,STR00377,1,,,,,
TR0174Dn,04:20:00,04:21:00,STR00376,2,,,,,
TR0174Dn,04:42:00,04:43:00,STR00374,3,,,,,
TR0174Dn,04:58:00,04:59:00,STR00373,4,,,,,
TR0174Dn,05:21:00,05:22:00,STR00372,5,,,,,
TR0174Dn,05:42:00,05:43:00,STR00371,6,,,,,
TR0174Dn,06:08:00,06:09:00,STR00370,7,,,,,
TR0174Dn,06:29:00,06:30:00,STR00368,8,,,,,
TR0174Dn,07:00:00,07:22:00,STR00364,9,,,,,
TR0174Dn,07:32:00,07:33:00,STR00363,10,,,,,
TR0174Dn,07:54:00,07:55:00,STR00362,11,,,,,
TR0174Dn,08:30:00,08:31:00,STR00359,12,,,,,
TR0174Dn,09:00:00,09:01:00,STR00357,13,,,,,
TR0174Dn,09:14:00,09:15:00,STR00355,14,,,,,
TR0174Dn,09:33:00,09:34:00,STR00354,15,,,,,
TR0174Dn,09:54:00,09:55:00,STR00352,16,,,,,
TR0174Dn,10:20:00,10:20:00,STR00351_RMAW,17,,,,,
