stop_id,arrival_time,departure_time,stop_sequence
STR00001_RRGN,2100,2100,1
STR00013_RBGO,2247,2250,2
STR00315_RTZY,0023,0044,3
STR00323_RKHO,0142,0145,4
STR00327_RTSA,0215,0217,5
STR00329_RHPL,0236,0238,6
STR00337_RTHT,0337,0340,7
STR00351_RMAW,0600,0600,8
