trip_id,arrival_time,departure_time,stop_id,stop_sequence
TR0035_35 Up,21:00:00,21:00:00,STR00001_RRGN,1
TR0035_35 Up,22:47:00,22:50:00,STR00013_RBGO,2
TR0035_35 Up,24:23:00,24:44:00,STR00315_RTZY,3
TR0035_35 Up,25:42:00,25:45:00,STR00323_RKHO,4
TR0035_35 Up,26:15:00,26:17:00,STR00327_RTSA,5
TR0035_35 Up,26:36:00,26:38:00,STR00329_RHPL,6
TR0035_35 Up,27:37:00,27:40:00,STR00337_RTHT,7
TR0035_35 Up,30:00:00,30:00:00,STR00351_RMAW,8
