trip_id,arrival_time,departure_time,stop_id,stop_sequence
TR0086_86 Dn,09:00:00,09:00:00,STR00351_RMAW,1
TR0086_86 Dn,09:40:00,09:41:00,STR00349_RMTY,2
TR0086_86 Dn,10:01:00,10:11:00,STR00347_RTPK,3
TR0086_86 Dn,10:46:00,10:48:00,STR00345_RKCH,4
TR0086_86 Dn,11:02:00,11:07:00,STR00343_RPAU,5
TR0086_86 Dn,11:26:00,11:31:00,STR00341_RZIN,6
TR0086_86 Dn,11:56:00,12:31:00,STR00339_RYNY,7
TR0086_86 Dn,13:00:00,13:10:00,STR00337_RTHT,8
TR0086_86 Dn,13:27:00,13:52:00,STR00335_RNKL,9
TR0086_86 Dn,14:16:00,14:19:00,STR00333_RTZE,10
TR0086_86 Dn,14:38:00,14:40:00,STR00331_RDWN,11
TR0086_86 Dn,15:00:00,15:05:00,STR00329_RHPL,12
TR0086_86 Dn,15:29:00,15:32:00,STR00327_RTSA,13
TR0086_86 Dn,15:54:00,15:57:00,STR00325_RMYG,14
TR0086_86 Dn,16:15:00,16:21:00,STR00323_RKHO,15
TR0086_86 Dn,16:36:00,16:41:00,STR00321_RBYG,16
TR0086_86 Dn,17:00:00,17:21:00,STR00319_RKKT,17
TR0086_86 Dn,17:45:00,17:50:00,STR00317_RMPL,18
TR0086_86 Dn,18:20:00,18:30:00,STR00315_RTZY,19
TR0086_86 Dn,18:56:00,18:59:00,STR00313_RSTK,20
TR0086_86 Dn,19:11:00,19:16:00,STR00311_RABY,21
TR0086_86 Dn,19:38:00,19:43:00,STR00309_RWOR,22
TR0086_86 Dn,20:03:00,20:08:00,STR00307_RNPT,23
TR0086_86 Dn,20:27:00,20:34:00,STR00305_RKAL,24
TR0086_86 Dn,20:50:00,20:50:00,STR00013_RBGO,25
