service_id,monday,tuesday,wednesday,thursday,friday,saturday,sunday,start_date,end_date
YJ-201,1,1,0,1,0,0,0,20141001,20170430
YJ-202,1,1,0,1,0,0,0,20141001,20170430
YS-234,1,1,1,1,1,1,1,20141112,20170331
YS-233,1,1,1,1,1,1,1,20141112,20170331
YS-775,1,1,1,1,1,1,1,20141112,20170331
YS-776,1,1,1,1,1,1,1,20141112,20170331
YJ-761,1,1,0,1,0,0,0,20141001,20170430
YJ-762,1,1,0,1,0,0,0,20141001,20170430
YJ-233,0,0,0,0,0,1,0,20141001,20170430
YJ-234,0,0,0,0,0,1,0,20141001,20170430
YJ-811,0,0,1,0,0,0,0,20141001,20170430
YJ-801,0,0,0,0,0,1,0,20141001,20170430
YJ-751,0,0,1,0,0,0,0,20141001,20170430
YJ-752,0,0,1,0,0,0,0,20141001,20170430
YJ-881,1,1,0,1,1,0,1,20141001,20170430
YJ-891,1,1,1,1,1,1,1,20141001,20170430
YJ-751_,0,0,0,0,1,0,1,20141001,20170430
YJ-752_,0,0,0,0,1,0,1,20141001,20170430
YJ-601,0,0,0,0,0,1,0,20141001,20170430
YJ-602,0,0,0,0,0,1,0,20141001,20170430
YJ-211,0,0,0,0,1,0,1,20141001,20170430
YJ-212,0,0,0,0,1,0,1,20141001,20170430
YH-917,1,1,1,1,1,1,1,20141001,20170430
YH-909,1,1,1,1,1,1,1,20141001,20170430
YH-731,1,1,1,1,1,1,1,20141001,20170430
YH-727,1,0,0,0,0,0,0,20141001,20170430
YH-737,0,0,1,0,1,0,1,20141001,20170430
YH-729,0,1,0,1,0,1,0,20141001,20170430
YH-911,0,1,0,0,0,0,0,20141001,20170430
YH-831,0,0,0,1,0,1,0,20141001,20170430
YH-835,1,0,0,0,0,0,0,20141001,20170430
YH-835_,0,0,0,0,0,0,1,20141001,20170430
YH-913,0,0,0,0,1,0,0,20141001,20170430
YH-633,0,0,1,0,0,0,1,20141001,20170430
YH-633_,0,1,0,0,1,0,0,20141001,20170430
YH-505,1,1,1,1,1,1,0,20141001,20170430
YH-826,0,0,1,0,0,0,0,20141001,20170430
YH-910,1,1,1,1,1,1,1,20141001,20170430
YH-732,1,1,1,1,1,1,1,20141001,20170430
YH-738,0,0,1,0,1,0,1,20141001,20170430
YH-728,1,0,0,0,0,0,0,20141001,20170430
YH-730,0,1,0,1,0,1,0,20141001,20170430
YH-836,1,0,0,0,0,0,0,20141001,20170430
YH-506,1,1,1,1,1,1,0,20141001,20170430
YH-832,0,0,0,0,0,1,0,20141001,20170430
YH-832_,0,0,0,1,0,1,0,20141001,20170430
YH-831t,0,0,0,1,0,0,0,20141001,20170430
YH-831s,0,0,0,0,0,1,0,20141001,20170430
YH-914,0,0,0,0,1,0,0,20141001,20170430
YH-634,0,0,1,0,0,0,1,20141001,20170430
YH-634_,0,1,0,0,1,0,0,20141001,20170430
1 Up,1,1,1,1,1,1,1,20140601,20171231
3 Up,1,1,1,1,1,1,1,20140601,20171231
4 Dn,1,1,1,1,1,1,1,20140601,20171231
5 Up,1,1,1,1,1,1,1,20140601,20171231
6 Dn,1,1,1,1,1,1,1,20140601,20171231
7 Up,1,1,1,1,1,1,1,20140601,20171231
8 Dn,1,1,1,1,1,1,1,20140601,20171231
9 Up,1,1,1,1,1,1,1,20140601,20171231
10 Dn,1,1,1,1,1,1,1,20140601,20171231
11 Up,1,1,1,1,1,1,1,20140601,20171231
12 Dn,1,1,1,1,1,1,1,20140601,20171231
13 Up,1,1,1,1,1,1,1,20140601,20171231
14 Dn,1,1,1,1,1,1,1,20140601,20171231
31 Up,1,1,1,1,1,1,1,20140601,20171231
32 Dn,1,1,1,1,1,1,1,20140601,20171231
33 Up,1,1,1,1,1,1,1,20140601,20171231
34 Dn,1,1,1,1,1,1,1,20140601,20171231
35 Up,1,1,1,1,1,1,1,20140601,20171231
36 Dn,1,1,1,1,1,1,1,20140601,20171231
37 Up,1,1,1,1,1,1,1,20140601,20171231
38 Dn,1,1,1,1,1,1,1,20140601,20171231
43 Up,1,1,1,1,1,1,1,20140601,20171231
44 Dn,1,1,1,1,1,1,1,20140601,20171231
55 Up,1,1,1,1,1,1,1,20140601,20171231
56 Dn,1,1,1,1,1,1,1,20140601,20171231
57 Up,1,1,1,1,1,1,1,20140601,20171231
58 Dn,1,1,1,1,1,1,1,20140601,20171231
61 Up,1,1,1,1,1,1,1,20140601,20171231
62 Dn,1,1,1,1,1,1,1,20140601,20171231
71 Up,1,1,1,1,1,1,1,20140601,20171231
72 Dn,1,1,1,1,1,1,1,20140601,20171231
89 Dn,1,1,1,1,1,1,1,20140601,20171231
90 Up,1,1,1,1,1,1,1,20140601,20171231
119 Up,1,1,1,1,1,1,1,20140601,20171231
120 Dn,1,1,1,1,1,1,1,20140601,20171231
123 Up,1,1,1,1,1,1,1,20140601,20171231
124 Dn,1,1,1,1,1,1,1,20140601,20171231
131 Up,1,1,1,1,1,1,1,20140601,20171231
132 Dn,1,1,1,1,1,1,1,20140601,20171231
135 Up,1,1,1,1,1,1,1,20140601,20171231
136 Dn,1,1,1,1,1,1,1,20140601,20171231
143 Up,1,1,1,1,1,1,1,20140601,20171231
144 Dn,1,1,1,1,1,1,1,20140601,20171231
175 Dn,1,1,1,1,1,1,1,20140601,20171231
176 Up,1,1,1,1,1,1,1,20140601,20171231
YGN-Chaung Thar (SPL) 1,1,1,1,1,1,1,1,20140601,20171231
YGN-Chaung Thar (SPL) 2,1,1,1,1,1,1,1,20140601,20171231
YGN-Ngwe Saung  (SPL) 1,1,1,1,1,1,1,1,20140601,20171231
YGN-Ngwe Saung  (SPL) 2,1,1,1,1,1,1,1,20140601,20171231
Chaung Thar - YGN (SPL) 1,1,1,1,1,1,1,1,20140601,20171231
Chaung Thar - YGN (SPL) 2,1,1,1,1,1,1,1,20140601,20171231
Ngwe Saung - YGN (SPL) 1,1,1,1,1,1,1,1,20140601,20171231
Ngwe Saung - YGN  (SPL) 2,1,1,1,1,1,1,1,20140601,20171231
BBGN-BNSH,1,1,1,1,1,1,1,20140601,20171231
BNSH-BBGN,1,1,1,1,1,1,1,20140601,20171231
YGN-MDL (SM) 1,1,1,1,1,1,1,1,20140601,20171231
YGN-MDL (SM) 2,1,1,1,1,1,1,1,20140601,20171231
YGN-MDL (SM) 3,1,1,1,1,1,1,1,20140601,20171231
YGN-MDL (SM) 4,1,1,1,1,1,1,1,20140601,20171231
YGN-MDL (SM) 5,1,1,1,1,1,1,1,20140601,20171231
YGN-MDL (SM) 6,1,1,1,1,1,1,1,20140601,20171231
YGN-MDL (SM) 7,1,1,1,1,1,1,1,20140601,20171231
YGN-KHYO 6 am,1,1,1,1,1,1,1,20140601,20171231
YGN-KHYO 7 am,1,1,1,1,1,1,1,20140601,20171231
YGN-KHYO 8 am,1,1,1,1,1,1,1,20140601,20171231
YGN-KHYO 9 am,1,1,1,1,1,1,1,20140601,20171231
YGN-KHYO 10 am,1,1,1,1,1,1,1,20140601,20171231
YGN-KHYO 11 am,1,1,1,1,1,1,1,20140601,20171231
YGN-KHYO 12 pm,1,1,1,1,1,1,1,20140601,20171231
YGN-KHYO 1 pm,1,1,1,1,1,1,1,20140601,20171231
YGN-KHYO 2 pm,1,1,1,1,1,1,1,20140601,20171231
YGN-KHYO 3 pm,1,1,1,1,1,1,1,20140601,20171231
YGN-KHYO 4 pm,1,1,1,1,1,1,1,20140601,20171231
YGN-Bagan (JJ),1,1,1,1,1,1,1,20140601,20171231
YGN-Bagan (MM) 1,1,1,1,1,1,1,1,20140601,20171231
YGN-Bagan (MM) 2,1,1,1,1,1,1,1,20140601,20171231
YGN-Bagan (MM) 3,1,1,1,1,1,1,1,20140601,20171231
YGN-MDL (MM) 1,1,1,1,1,1,1,1,20140601,20171231
YGN-MDL (MM) 2,1,1,1,1,1,1,1,20140601,20171231
YGN-MDL (MM) 3,1,1,1,1,1,1,1,20140601,20171231
YGN-MDL (MM) 4,1,1,1,1,1,1,1,20140601,20171231
YGN-MDL (MM) 5,1,1,1,1,1,1,1,20140601,20171231
YGN-MDL (MM) 6,1,1,1,1,1,1,1,20140601,20171231
YGN-MDL (MM) 7,1,1,1,1,1,1,1,20140601,20171231
YGN-NPT (MM) 1,1,1,1,1,1,1,1,20140601,20171231
YGN-NPT (MM) 2,1,1,1,1,1,1,1,20140601,20171231
YGN-NPT (MM) 3,0,0,0,0,0,0,1,20140601,20171231
YGN-NPT (MM) 4,1,1,1,1,1,1,1,20140601,20171231
YGN-NPT (MM) 5,1,1,1,1,1,1,1,20140601,20171231
YGN-TAT KONE (MM) 1,1,1,1,1,1,1,1,20140601,20171231
YGN-TAT KONE (MM) 2,1,1,1,1,1,1,1,20140601,20171231
YGN-Pyin Oo Lwin (MM),1,1,1,1,1,1,1,20140601,20171231
YGN-Meikhtila (MM),1,1,1,1,1,1,1,20140601,20171231
YGN-Kyaukpadaung (MM) 1,1,1,1,1,1,1,1,20140601,20171231
YGN-Kyaukpadaung (MM) 2,1,1,1,1,1,1,1,20140601,20171231
YGN-Mawlamyine (MM) 1,1,1,1,1,1,1,1,20140601,20171231
YGN-Mawlamyine (MM) 2,1,1,1,1,1,1,1,20140601,20171231
YGN-Mawlamyine (MM) 3,1,1,1,1,1,1,1,20140601,20171231
YGN-Mawlamyine (MM) 4,1,1,1,1,1,1,1,20140601,20171231
YGN-Mudon (MM) 1,1,1,1,1,1,1,1,20140601,20171231
YGN-Mudon (MM) 2,1,1,1,1,1,1,1,20140601,20171231
YGN-Thanphyu Zayat (MM) 1,1,1,1,1,1,1,1,20140601,20171231
YGN-Thanphyu Zayat (MM) 2,1,1,1,1,1,1,1,20140601,20171231
MDL-YGN (MM) 1,1,1,1,1,1,1,1,20140601,20171231
MDL-YGN (MM) 2,1,1,1,1,1,1,1,20140601,20171231
MDL-YGN (MM) 3,1,1,1,1,1,1,1,20140601,20171231
MDL-YGN (MM) 4,1,1,1,1,1,1,1,20140601,20171231
MDL-YGN (MM) 5,1,1,1,1,1,1,1,20140601,20171231
MDL-NPT (MM) 1,1,1,1,1,1,1,1,20140601,20171231
MDL-NPT (MM) 2,1,1,1,1,1,1,1,20140601,20171231
MDL-NPT (MM) 3,1,1,1,1,1,1,1,20140601,20171231
MDL-Meikhtila,1,1,1,1,1,1,1,20140601,20171231
NPT-YGN (MM) 1,1,1,1,1,1,1,1,20140601,20171231
NPT-YGN (MM) 2,1,1,1,1,1,1,1,20140601,20171231
NPT-YGN (MM) 3,1,1,1,1,1,1,1,20140601,20171231
NPT-YGN (MM) 4,1,1,1,1,1,1,1,20140601,20171231
NPT-YGN (MM) 5,1,1,1,1,1,1,1,20140601,20171231
NPT-YGN (MM) 6,1,1,1,1,1,1,1,20140601,20171231
NPT-MDL (MM) 1,1,1,1,1,1,1,1,20140601,20171231
NPT-MDL (MM) 2,1,1,1,1,1,1,1,20140601,20171231
NPT-MDL (MM) 3,1,1,1,1,1,1,1,20140601,20171231
YGN-MDL (LBN) 1,1,1,1,1,1,1,1,20140601,20171231
YGN-MDL (LBN) 2,1,1,1,1,1,1,1,20140601,20171231
YGN-MDL (LBN) 3,1,1,1,1,1,1,1,20140601,20171231
YGN-MDL (JJ) 1,1,1,1,1,1,1,1,20140601,20171231
YGN-MDL (JJ) 2,1,1,1,1,1,1,1,20140601,20171231
YGN-MDL (JJ) 3,1,1,1,1,1,1,1,20140601,20171231
YGN-MDL (STM),1,1,1,1,1,1,1,20140601,20171231
YGN-TGI (LBN) 1,1,1,1,1,1,1,1,20140601,20171231
YGN-TGI (LBN) 2,1,1,1,1,1,1,1,20140601,20171231
YGN-TGI (JJ),1,1,1,1,1,1,1,20140601,20171231
BGN-MDL (SMT) 1,1,1,1,1,1,1,1,20140601,20171231
BGN-MDL (SMT) 2,1,1,1,1,1,1,1,20140601,20171231
BGN-MDL (SMT) 3,1,1,1,1,1,1,1,20140601,20171231
BGN-INL (SMT),1,1,1,1,1,1,1,20140601,20171231
MDL-TGI (JJ),1,1,1,1,1,1,1,20140601,20171231
RMDL-INL (SMT),1,1,1,1,1,1,1,20140601,20171231
MDL-BGN (SMT) 1,1,1,1,1,1,1,1,20140601,20171231
MDL-BGN (SMT) 2,1,1,1,1,1,1,1,20140601,20171231
MDL-BGN (SMT) 3,1,1,1,1,1,1,1,20140601,20171231
MDL-YGN (JJ) 1,1,1,1,1,1,1,1,20140601,20171231
MDL-YGN (JJ) 2,1,1,1,1,1,1,1,20140601,20171231
MDL-YGN (JJ) 3,1,1,1,1,1,1,1,20140601,20171231
MDL-YGN (STM),1,1,1,1,1,1,1,20140601,20171231
YGN-MDL (E) 1,1,1,1,1,1,1,1,20140601,20171231
YGN-MDL (E) 2,1,1,1,1,1,1,1,20140601,20171231
YGN-MDL (E) 3,1,1,1,1,1,1,1,20140601,20171231
YGN-MDL (E) 4,1,1,1,1,1,1,1,20140601,20171231
YGN-MDL (E) 5,1,1,1,1,1,1,1,20140601,20171231
YGN-MDL (E) 6,1,1,1,1,1,1,1,20140601,20171231
YGN-MDL (SND) 1,1,1,1,1,1,1,1,20140601,20171231
YGN-MDL (SND) 2,1,1,1,1,1,1,1,20140601,20171231
K7-224,0,0,1,1,1,1,1,20141001,20170430
K7-225,0,0,1,1,1,1,1,20141001,20170430
K7-224/225,0,0,1,1,1,1,1,20141001,20170430
K7-226,0,1,0,1,0,1,0,20141001,20170430
K7-227,0,1,0,1,0,1,0,20141001,20170430
K7-242,1,1,1,1,1,1,1,20141001,20170430
K7-243,1,1,1,1,1,1,1,20141001,20170430
K7-244,1,0,0,0,0,0,0,20141001,20170430
K7-245,1,0,0,0,0,0,0,20141001,20170430
K7-244/245,1,0,0,0,0,0,0,20141001,20170430
K7-262,1,1,0,0,0,0,0,20141001,20170430
K7-263,1,1,0,0,0,0,0,20141001,20170430
K7-264,1,1,0,0,0,0,0,20141001,20170430
K7-265,1,1,0,0,0,0,0,20141001,20170430
K7-264/265,1,1,0,0,0,0,0,20141001,20170430
K7-266,1,1,1,1,1,1,1,20141001,20170430
K7-267,1,1,1,1,1,1,1,20141001,20170430
K7-282,0,0,1,1,1,1,1,20141001,20170430
K7-283,0,0,1,1,1,1,1,20141001,20170430
K7-319,0,1,1,1,1,1,1,20141001,20170430
K7-320,0,1,1,1,1,1,1,20141001,20170430
K7-422,1,1,1,1,1,1,1,20141001,20170430
K7-423,1,1,1,1,1,1,1,20141001,20170430
K7-622,1,0,1,0,1,0,1,20141001,20170430
K7-623,1,0,1,0,1,0,1,20141001,20170430
K7-822,0,1,0,1,0,0,1,20141001,20170430
K7-823,0,1,0,1,0,0,1,20141001,20170430
K7-828,1,0,1,0,1,0,0,20141001,20170430
K7-829,1,0,1,0,1,0,0,20141001,20170430
K7-844,1,0,1,0,1,0,1,20141001,20170430
K7-845,1,0,1,0,1,0,1,20141001,20170430
W9-201,1,1,1,1,1,1,1,20141001,20170430
W9-141,1,1,1,1,1,1,1,20141001,20170430
W9-211,0,0,0,1,0,0,1,20141001,20170430
W9-129,1,1,1,0,1,1,0,20141001,20170430
W9-311,0,1,0,1,0,0,1,20141001,20170430
W9-309,1,0,1,0,1,1,0,20141001,20170430
W9-251,0,1,0,0,1,0,0,20141001,20170430
W9-252,0,1,0,0,1,0,0,20141001,20170430
W9-425,1,0,1,0,0,1,0,20141001,20170430
W9-426,1,0,1,0,0,1,0,20141001,20170430
W9-405,1,1,1,1,1,1,1,20141001,20170430
W9-407,1,1,1,1,1,1,1,20141001,20170430
W9-406,1,1,1,1,1,1,1,20141001,20170430
W9-408,1,1,1,1,1,1,1,20141001,20170430
YS-649,1,1,1,1,1,1,1,20141001,20170331
YS-650,1,1,1,1,1,1,1,20141001,20170331
YS-785,1,0,1,0,1,0,1,20141001,20170331
YS-786,1,0,1,0,1,0,1,20141001,20170331
YS-773,1,0,1,0,0,0,0,20141001,20170331
YS-774,1,0,1,0,0,0,0,20141001,20170331
YS-621,0,1,0,1,0,1,0,20141001,20170331
YS-625,0,1,0,1,0,1,0,20141001,20170331
YS-626,0,1,0,1,0,1,0,20141001,20170331
YS-623,0,1,0,1,0,1,0,20141001,20170331
YS-624,0,1,0,1,0,1,0,20141001,20170331
YS-622,0,1,0,1,0,1,0,20141001,20170331
YS-421,1,0,1,1,0,1,0,20141005,20170331
YS-422,1,0,1,1,0,1,0,20141005,20170331
YS-325,1,0,0,0,1,0,0,20141031,20170331
YS-325_,0,1,0,0,0,0,0,20141031,20170331
YS-326,1,0,0,0,1,0,0,20141031,20170331
YS-326_,0,1,0,0,0,0,0,20141031,20170331
YS-647,1,1,1,1,1,1,1,20141010,20170331
YS-642,1,1,1,1,1,1,1,20141010,20170331
6T-401,1,1,1,1,1,1,1,20141215,20170430
6T-402,1,1,1,1,1,1,1,20141215,20170430
6T-351,1,1,1,1,1,1,1,20141215,20170430
6T-352,1,1,1,1,1,1,1,20141215,20170430
6T-611,1,1,1,1,1,1,1,20141215,20170430
6T-612,1,1,1,1,1,1,1,20141215,20170430
6T-803,1,0,1,0,1,0,0,20141215,20170430
6T-804,1,0,1,0,1,0,0,20141215,20170430
6T-707,0,1,0,0,0,1,0,20141215,20170430
6T-708,0,1,0,0,0,1,0,20141215,20170430
6T-705,0,0,0,1,0,0,1,20141215,20170430
6T-706,0,0,0,1,0,0,1,20141215,20170430
6T-605,1,1,1,1,1,1,1,20141215,20170430
6T-606,1,1,1,1,1,1,1,20141215,20170430
6T-805,1,0,1,0,1,0,0,20141215,20170430
6T-806,1,0,1,0,1,0,0,20141215,20170430
6T-807,0,1,0,1,0,1,1,20141215,20170430
6T-808,0,1,0,1,0,1,1,20141215,20170430
6T-333,0,1,0,1,1,0,1,20141215,20170430
6T-334,0,1,0,1,1,0,1,20141215,20170430
6T-333_,1,0,1,0,0,1,0,20141215,20170430
6T-334_,1,0,1,0,0,1,0,20141215,20170430
6T-501,1,1,1,1,1,1,1,20141215,20170430
6T-502,1,1,1,1,1,1,1,20141215,20170430
7Y-131,1,1,1,1,1,1,1,20141224,20170430
7Y-132,1,1,1,1,1,1,1,20141224,20170430
7Y-431,1,0,1,1,0,1,0,20141224,20170430
7Y-121,0,1,0,0,1,0,1,20141224,20170430
7Y-122,0,1,0,0,1,0,1,20141224,20170430
7Y-941,1,0,1,1,0,1,0,20141224,20170430
7Y-942,1,0,1,1,0,1,0,20141224,20170430
7Y-943,0,1,0,0,1,0,1,20141224,20170430
7Y-944,0,1,0,0,1,0,1,20141224,20170430
7Y-621,1,1,1,1,1,1,1,20141224,20170430
7Y-611,1,1,1,1,1,1,1,20141224,20170430
7Y-241,1,0,1,1,0,1,0,20141224,20170430
7Y-241_,0,1,0,0,1,0,1,20141224,20170430
7Y-242,1,0,1,1,0,1,0,20141224,20170430
7Y-242_,0,1,0,0,1,0,1,20141224,20170430
7Y-411,0,1,0,0,1,0,1,20141224,20170430
7Y-412,0,1,0,0,1,0,1,20141224,20170430
