route_id,agency_id,route_short_name,route_long_name,route_desc,route_type,route_url,route_color,route_text_color
RR0001,R0001,1 Up,Yangon-Mandalay,,100,,E14040,
RR0002,R0001,2 Dn,Mandalay-Yangon,,100,,E14040,
RR0003,R0001,3 Up,Yangon-Mandalay,,100,,E14040,
RR0004,R0001,4 Dn,Mandalay-Yangon,,100,,E14040,
RR0005,R0001,5 Up,Yangon-Mandalay,,100,,E14040,
RR0006,R0001,6 Dn,Mandalay-Yangon,,100,,E14040,
RR0007,R0001,7 Up,Yangon-Nay Pyi Taw,,100,,E14040,
RR0008,R0001,8 Dn,Naypyitaw-Yangon,,100,,E14040,
RR0009,R0001,9 Up,Yangon-Thazi,,100,,E14040,
RR0010,R0001,10 Dn,Thazi-Yangon,,100,,E14040,
RR0011,R0001,11 Up,Yangon-Mandalay,,100,,E14040,
RR0012,R0001,12 Dn,Mandalay-Yangon,,100,,E14040,
RR0013,R0001,13 Up,Yangon-Bago,,100,,E14040,
RR0014,R0001,14 Dn,Bago-Yangon,,100,,E14040,
RR0019,R0001,19 Up,Taungoo-Thazi,,100,,E14040,
RR0020,R0001,20 Dn,Thazi-Taungoo,,100,,E14040,
RR0021,R0001,21 Up,Taungoo-Thazi,,100,,E14040,
RR0022,R0001,22 Dn,Thazi-Taungoo,,100,,E14040,
RR0023,R0001,23 Up,Thazi-Myohaung,,100,,E14040,
RR0024,R0001,24 Dn,Myohaung-Thazi,,100,,E14040,
RR0031,R0001,31 Up,Yangon-Nay Pyi Taw,,100,,E14040,
RR0032,R0001,32 Dn,Naypyitaw-Yangon,,100,,E14040,
RR0033,R0001,33 Up,Mandalay-Myitkyina,,100,,E14040,
RR0034,R0001,34 Dn,Myitkyina-Mandalay,,100,,E14040,
RR0035,R0001,35 Up,Yangon-Mawlamyine,,100,,E14040,
RR0036,R0001,36 Dn,Mawlamyine-Yangon,,100,,E14040,
RR0037,R0001,37 Up,Mandalay-Myitkyina,,100,,E14040,
RR0038,R0001,38 Dn,Myitkyina-Mandalay,,100,,E14040,
RR0043,R0001,43 Up,Mandalay-Myitkyina,,100,,E14040,
RR0044,R0001,44 Dn,Myitkyina-Mandalay,,100,,E14040,
RR0055,R0001,55 Up,Mandalay-Myitkyina,,100,,E14040,
RR0056,R0001,56 Dn,Myitkyina-Mandalay,,100,,E14040,
RR0057,R0001,57 Up,Mandalay-Myitkyina,,100,,E14040,
RR0058,R0001,58 Dn,Myitkyina-Mandalay,,100,,E14040,
RR0061,R0001,61 Up,Yangon-Pakokku,,100,,E14040,
RR0062,R0001,62 Dn,Pakkokku-Yangon,,100,,E14040,
RR0071,R0001,71 Up,Yangon-Pyay,,100,,E14040,
RR0072,R0001,72 Dn,Pyay-Yangon,,100,,E14040,
RR0085,R0001,85 Up,Mawlamyine-Bago,,100,,E14040,
RR0086,R0001,86 Dn,Bago-Mawlamyine,,100,,E14040,
RR0089,R0001,89 Dn,Yangon-Mawlamyine,,100,,E14040,
RR0090,R0001,90 Up,Mawlamyine-Yangon,,100,,E14040,
RR0119,R0001,119 Up,Bagan-Mandalay,,100,,E14040,
RR0120,R0001,120 Dn,Mandalay-Bagan,,100,,E14040,
RR0123,R0001,123 Up,Mandalay-Monywa,,100,,E14040,
RR0124,R0001,124 Dn,Monywa-Mandalay,,100,,E14040,
RR0131,R0001,131 Up,Mandalay-Lashio,,100,,E14040,
RR0132,R0001,132 Dn,Lashio-Mandalay,,100,,E14040,
RR0135,R0001,135 Up,Mandalay-Pakkokku,,100,,E14040,
RR0136,R0001,136 Dn,Pakkokku-Mandalay,,100,,E14040,
RR0143,R0001,143 Up,Thazi-Yauksauk,,100,,E14040,
RR0142,R0001,142 Dn,Yauksauk-Thazi,,100,,E14040,
RR0171,R0001,171 Up,Mawlamyine-Ye,,100,,E14040,
RR0172,R0001,172 Dn,Ye-Mawlamyine,,100,,E14040,
RR0173,R0001,173 Up,Mawlamyine-Ye,,100,,E14040,
RR0174,R0001,174 Dn,Ye-Mawlamyine,,100,,E14040,
RR0175,R0001,175 Up,Yangon-Dawei,,100,,E14040,
RR0176,R0001,176 Dn,Dawei-Yangon,,100,,E14040,
RR0063,R0001,63 Up,Kemmedine-Pyay,,100,,E14040,
RR0064,R0001,64 Dn,Pyay-Kemmedine,,100,,E14040,
RR0069,R0001,69 Up,Kemmedine-Thayawor,,100,,E14040,
RR0070,R0001,70 Dn,Thayawor-Kemmedine,,100,,E14040,
RR0121,R0001,121 Dn,Pakkokku-Chaung-U,,100,,E14040,
RR0122,R0001,122 Up,Chaung-U-Pakkokku,,100,,E14040,
