trip_id,arrival_time,departure_time,stop_id,stop_sequence,stop_headsign,pickup_type,drop_off_type,shape_dist_traveled,timepoint
TR0191Up,14:00:00,14:00:00,STR00830,1,,,,,
TR0191Up,14:17:00,14:19:00,STR01410,2,,,,,
TR0191Up,14:37:00,14:39:00,STR01414,3,,,,,
TR0191Up,14:53:00,14:55:00,STR01418,4,,,,,
TR0191Up,15:07:00,15:09:00,STR01420,5,,,,,
TR0191Up,15:20:00,15:22:00,STR01422,6,,,,,
TR0191Up,15:35:00,15:37:00,STR01424,7,,,,,
TR0191Up,15:49:00,15:51:00,STR01426,8,,,,,
TR0191Up,16:05:00,16:07:00,STR01428,9,,,,,
TR0191Up,16:26:00,16:28:00,STR01430,10,,,,,
TR0191Up,16:45:00,16:47:00,STR01432,11,,,,,
TR0191Up,16:56:00,16:58:00,STR01434,12,,,,,
TR0191Up,17:07:00,17:09:00,STR01436,13,,,,,
TR0191Up,17:26:00,17:28:00,STR01438,14,,,,,
TR0191Up,17:50:00,17:50:00,STR01440,15,,,,,
