trip_id,arrival_time,departure_time,stop_id,stop_sequence,stop_headsign,pickup_type,drop_off_type,shape_dist_traveled,timepoint
TR0192Dn,05:00:00,05:00:00,STR01440,1,,,,,
TR0192Dn,05:19:00,05:20:00,STR01438,2,,,,,
TR0192Dn,05:37:00,05:39:00,STR01436,3,,,,,
TR0192Dn,05:47:00,05:49:00,STR01434,4,,,,,
TR0192Dn,05:57:00,05:59:00,STR01432,5,,,,,
TR0192Dn,06:15:00,06:17:00,STR01430,6,,,,,
TR0192Dn,06:35:00,06:37:00,STR01428,7,,,,,
TR0192Dn,06:50:00,06:52:00,STR01426,8,,,,,
TR0192Dn,07:05:00,07:07:00,STR01424,9,,,,,
TR0192Dn,07:21:00,07:23:00,STR01422,10,,,,,
TR0192Dn,07:35:00,07:37:00,STR01420,11,,,,,
TR0192Dn,07:50:00,07:52:00,STR01418,12,,,,,
TR0192Dn,08:07:00,08:09:00,STR01414,13,,,,,
TR0192Dn,08:29:00,08:30:00,STR01410,14,,,,,
TR0192Dn,08:50:00,08:50:00,STR00830,15,,,,,
