stop_id,arrival_time,departure_time,stop_sequence
STR00056_RMDL,0400,0400,1
STR00055_RMYH,0412,0415,2
STR00502,0425,0427,3
STR00504,0452,0457,4
STR00506,0510,0525,5
STR00508,0557,0600,6
STR00510,0633,0638,7
STR00512,0708,0713,8
STR00514,0727,0729,9
STR00516,0752,0822,10
STR00518,0839,0841,11
STR00520,0904,0906,12
STR00522,0921,0923,13
STR00524,0941,0943,14
STR00526,1023,1033,15
STR00528,1103,1108,16
STR00530,1158,1225,17
STR00532,1251,1253,18
STR00534,1319,1339,19
STR00536,1358,1400,20
STR00538,1433,1435,21
STR00540,1455,1515,22
STR00542,1605,1607,23
STR00544,1647,1649,24
STR00546,1739,1741,25
STR00548,1806,1808,26
STR00550,1832,1835,27
STR00552,1935,1935,28
