trip_id,arrival_time,departure_time,stop_id,stop_sequence
TR0001_1 Up,4:00:00,4:00:00,STR00001_RRGN,1
TR0001_1 Up,5:03:00,5:05:00,STR00008_RDAP,2
TR0001_1 Up,5:22:00,5:24:00,STR00009_RHTG,3
TR0001_1 Up,6:07:00,6:22:00,STR00013_RBGO,4
TR0001_1 Up,7:07:00,7:09:00,STR00014_RPPG,5
TR0001_1 Up,7:38:00,7:41:00,STR00015_RHTT,6
TR0001_1 Up,7:58:00,8:13:00,STR00016_RDIU,7
TR0001_1 Up,8:35:00,8:42:00,STR00017_RPTH,8
TR0001_1 Up,9:01:00,9:06:00,STR00018_RNLP,9
TR0001_1 Up,9:31:00,9:36:00,STR00019_RPZL,10
TR0001_1 Up,10:00:00,10:29:00,STR00020_RKTG,11
TR0001_1 Up,10:45:00,10:50:00,STR00021_RPNG,12
TR0001_1 Up,11:16:00,11:19:00,STR00022_RKNK,13
TR0001_1 Up,11:48:00,11:58:00,STR00023_RPHU,14
TR0001_1 Up,12:13:00,12:18:00,STR00024_RZYW,15
TR0001_1 Up,13:14:00,13:16:00,STR00025_ROKT,16
TR0001_1 Up,13:43:00,14:26:00,STR00026_RTGO,17
TR0001_1 Up,15:10:00,15:13:00,STR00027_RYTS,18
TR0001_1 Up,15:36:00,15:38:00,STR00028_RSWA,19
TR0001_1 Up,16:03:00,16:05:00,STR00029_RMHL,20
TR0001_1 Up,16:20:00,16:22:00,STR00030_RYAN,21
TR0001_1 Up,16:35:00,16:37:00,STR00031_RTWH,22
TR0001_1 Up,16:54:00,16:59:00,STR00032_RAYL,23
TR0001_1 Up,17:26:00,17:36:00,STR00033_RPMN,24
TR0001_1 Up,18:09:00,18:14:00,STR00034_RNPT,25
TR0001_1 Up,18:25:00,18:30:00,STR00035_RKDG,26
TR0001_1 Up,19:23:00,19:33:00,STR00036_RTKO,27
TR0001_1 Up,20:30:00,20:40:00,STR00037_RYMT,28
TR0001_1 Up,21:06:00,21:09:00,STR00057_RSHD,29
TR0001_1 Up,21:24:00,21:34:00,STR00038_RPBW,30
TR0001_1 Up,22:08:00,22:13:00,STR00039_RNYA,31
TR0001_1 Up,22:38:00,22:43:00,STR00040_RTHZ,32
TR0001_1 Up,23:13:00,23:16:00,STR00042_RHZA,33
TR0001_1 Up,23:33:00,23:38:00,STR00043_RTDA,34
TR0001_1 Up,23:55:00,23:57:00,STR00044_RSMH,35
TR0001_1 Up,24:15:00,24:18:00,STR00045_RTPT,36
TR0001_1 Up,24:35:00,24:38:00,STR00046_RKML,37
TR0001_1 Up,24:55:00,25:00:00,STR00047_RMTH,38
TR0001_1 Up,25:17:00,25:19:00,STR00048_RMSU,39
TR0001_1 Up,25:38:00,25:48:00,STR00049_RKYS,40
TR0001_1 Up,26:17:00,26:52:00,STR00053_RMNG,41
TR0001_1 Up,27:30:00,27:30:00,STR00056_RMDL,42
TR0002_2 Dn,8:30:00,8:30:00,STR00056_RMDL,1
TR0002_2 Dn,9:00:00,9:10:00,STR00053_RMNG,2
TR0002_2 Dn,10:00:00,10:10:00,STR00049_RKYS,3
TR0002_2 Dn,10:28:00,10:33:00,STR00048_RMSU,4
TR0002_2 Dn,10:48:00,10:55:00,STR00047_RMTH,5
TR0002_2 Dn,11:00:00,11:15:00,STR00046_RKML,6
TR0002_2 Dn,11:31:00,11:36:00,STR00045_RTPT,7
TR0002_2 Dn,11:55:00,11:57:00,STR00044_RSMH,8
TR0002_2 Dn,12:14:00,12:24:00,STR00043_RTDA,9
TR0002_2 Dn,12:45:00,12:50:00,STR00042_RHZA,10
TR0002_2 Dn,13:19:00,13:24:00,STR00040_RTHZ,11
TR0002_2 Dn,13:50:00,14:05:00,STR00039_RNYA,12
TR0002_2 Dn,14:45:00,14:55:00,STR00038_RPBW,13
TR0002_2 Dn,15:10:00,15:15:00,STR00057_RSHD,14
TR0002_2 Dn,15:37:00,15:47:00,STR00037_RYMT,15
TR0002_2 Dn,16:46:00,16:56:00,STR00036_RTKO,16
TR0002_2 Dn,17:49:00,17:54:00,STR00035_RKDG,17
TR0002_2 Dn,18:05:00,18:10:00,STR00034_RNPT,18
TR0002_2 Dn,18:45:00,18:55:00,STR00033_RPMN,19
TR0002_2 Dn,19:20:00,19:25:00,STR00032_RAYL,20
TR0002_2 Dn,19:45:00,19:47:00,STR00031_RTWH,21
TR0002_2 Dn,19:58:00,20:00:00,STR00030_RYAN,22
TR0002_2 Dn,20:15:00,20:17:00,STR00029_RMHL,23
TR0002_2 Dn,20:42:00,20:44:00,STR00028_RSWA,24
TR0002_2 Dn,21:06:00,21:09:00,STR00027_RYTS,25
TR0002_2 Dn,21:55:00,22:05:00,STR00026_RTGO,26
TR0002_2 Dn,22:29:00,22:31:00,STR00025_ROKT,27
TR0002_2 Dn,23:55:00,24:21:00,STR00024_RZYW,28
TR0002_2 Dn,24:35:00,24:45:00,STR00023_RPHU,29
TR0002_2 Dn,25:13:00,25:16:00,STR00022_RKNK,30
TR0002_2 Dn,25:41:00,25:46:00,STR00021_RPNG,31
TR0002_2 Dn,26:03:00,26:06:00,STR00020_RKTG,32
TR0002_2 Dn,26:26:00,26:31:00,STR00019_RPZL,33
TR0002_2 Dn,26:55:00,27:00:00,STR00018_RNLP,34
TR0002_2 Dn,27:15:00,27:22:00,STR00017_RPTH,35
TR0002_2 Dn,27:40:00,27:55:00,STR00016_RDIU,36
TR0002_2 Dn,28:11:00,28:14:00,STR00015_RHTT,37
TR0002_2 Dn,28:43:00,28:45:00,STR00014_RPPG,38
TR0002_2 Dn,29:30:00,30:02:00,STR00013_RBGO,39
TR0002_2 Dn,30:46:00,30:48:00,STR00009_RHTG,40
TR0002_2 Dn,31:08:00,31:10:00,STR00008_RDAP,41
TR0002_2 Dn,32:30:00,32:30:00,STR00001_RRGN,42
TR0003_3 Up,17:00:00,17:00:00,STR00001_RRGN,1
TR0003_3 Up,17:27:00,17:29:00,STR00005_RTTK,2
TR0003_3 Up,18:45:00,18:48:00,STR00013_RBGO,3
TR0003_3 Up,19:55:00,19:57:00,STR00016_RDIU,4
TR0003_3 Up,20:29:00,20:31:00,STR00018_RNLP,5
TR0003_3 Up,21:06:00,21:08:00,STR00020_RKTG,6
TR0003_3 Up,21:42:00,21:44:00,STR00022_RKNK,7
TR0003_3 Up,22:08:00,22:10:00,STR00023_RPHU,8
TR0003_3 Up,23:15:00,23:25:00,STR00026_RTGO,9
TR0003_3 Up,25:07:00,25:09:00,STR00032_RAYL,10
TR0003_3 Up,25:27:00,25:30:00,STR00033_RPMN,11
TR0003_3 Up,25:54:00,25:57:00,STR00034_RNPT,12
TR0003_3 Up,26:17:00,26:19:00,STR00036_RTKO,13
TR0003_3 Up,27:34:00,27:36:00,STR00037_RYMT,14
TR0003_3 Up,28:08:00,28:10:00,STR00038_RPBW,15
TR0003_3 Up,28:37:00,28:39:00,STR00039_RNYA,16
TR0003_3 Up,28:55:00,28:58:00,STR00040_RTHZ,17
TR0003_3 Up,29:30:00,29:32:00,STR00043_RTDA,18
TR0003_3 Up,30:17:00,30:19:00,STR00047_RMTH,19
TR0003_3 Up,31:45:00,31:45:00,STR00056_RMDL,20
TR0004_4 Dn,17:00:00,17:00:00,STR00056_RMDL,1
TR0004_4 Dn,18:22:00,18:24:00,STR00047_RMTH,2
TR0004_4 Dn,19:12:00,19:14:00,STR00043_RTDA,3
TR0004_4 Dn,19:46:00,19:49:00,STR00040_RTHZ,4
TR0004_4 Dn,20:05:00,20:07:00,STR00039_RNYA,5
TR0004_4 Dn,20:34:00,20:36:00,STR00038_RPBW,6
TR0004_4 Dn,21:59:00,22:01:00,STR00036_RTKO,7
TR0004_4 Dn,22:48:00,22:51:00,STR00034_RNPT,8
TR0004_4 Dn,23:15:00,23:18:00,STR00033_RPMN,9
TR0004_4 Dn,23:36:00,23:38:00,STR00032_RAYL,10
TR0004_4 Dn,25:17:00,25:27:00,STR00026_RTGO,11
TR0004_4 Dn,26:29:00,26:31:00,STR00023_RPHU,12
TR0004_4 Dn,26:53:00,26:55:00,STR00022_RKNK,13
TR0004_4 Dn,27:27:00,27:29:00,STR00020_RKTG,14
TR0004_4 Dn,28:03:00,28:05:00,STR00018_RNLP,15
TR0004_4 Dn,28:37:00,28:39:00,STR00016_RDIU,16
TR0004_4 Dn,29:46:00,29:49:00,STR00013_RBGO,17
TR0004_4 Dn,31:04:00,31:06:00,STR00005_RTTK,18
TR0004_4 Dn,31:45:00,31:45:00,STR00001_RRGN,19
TR0005_5 Up,15:00:00,15:00:00,STR00001_RRGN,1
TR0005_5 Up,16:41:00,16:44:00,STR00013_RBGO,2
TR0005_5 Up,20:49:00,20:59:00,STR00026_RTGO,3
TR0005_5 Up,21:35:00,21:37:00,STR00027_RYTS,4
TR0005_5 Up,23:03:00,23:06:00,STR00033_RPMN,5
TR0005_5 Up,23:29:00,23:32:00,STR00034_RNPT,6
TR0005_5 Up,24:15:00,24:17:00,STR00036_RTKO,7
TR0005_5 Up,26:08:00,26:11:00,STR00040_RTHZ,8
TR0005_5 Up,26:43:00,26:45:00,STR00043_RTDA,9
TR0005_5 Up,27:53:00,27:58:00,STR00049_RKYS,10
TR0005_5 Up,29:00:00,29:00:00,STR00056_RMDL,11
TR0006_6 Dn,15:00:00,15:00:00,STR00056_RMDL,1
TR0006_6 Dn,16:00:00,16:02:00,STR00049_RKYS,2
TR0006_6 Dn,17:12:00,17:14:00,STR00043_RTDA,3
TR0006_6 Dn,17:46:00,17:49:00,STR00040_RTHZ,4
TR0006_6 Dn,19:42:00,19:44:00,STR00036_RTKO,5
TR0006_6 Dn,20:33:00,20:36:00,STR00034_RNPT,6
TR0006_6 Dn,21:00:00,21:03:00,STR00033_RPMN,7
TR0006_6 Dn,22:28:00,22:30:00,STR00027_RYTS,8
TR0006_6 Dn,23:08:00,23:18:00,STR00026_RTGO,9
TR0006_6 Dn,27:13:00,27:16:00,STR00013_RBGO,10
TR0006_6 Dn,29:00:00,29:00:00,STR00001_RRGN,11
TR0007_7 Up,20:30:00,20:30:00,STR00001_RRGN,1
TR0007_7 Up,20:57:00,20:59:00,STR00005_RTTK,2
TR0007_7 Up,22:10:00,22:13:00,STR00013_RBGO,3
TR0007_7 Up,23:16:00,23:18:00,STR00016_RDIU,4
TR0007_7 Up,24:30:00,24:32:00,STR00021_RPNG,5
TR0007_7 Up,24:52:00,24:54:00,STR00022_RKNK,6
TR0007_7 Up,26:20:00,26:23:00,STR00026_RTGO,7
TR0007_7 Up,27:42:00,27:44:00,STR00030_RYAN,8
TR0007_7 Up,28:29:00,28:32:00,STR00033_RPMN,9
TR0007_7 Up,29:00:00,29:00:00,STR00034_RNPT,10
TR0008_8 Dn,20:00:00,20:00:00,STR00034_RNPT,1
TR0008_8 Dn,20:24:00,20:27:00,STR00033_RPMN,2
TR0008_8 Dn,21:09:00,21:11:00,STR00030_RYAN,3
TR0008_8 Dn,22:32:00,22:35:00,STR00026_RTGO,4
TR0008_8 Dn,23:59:00,24:01:00,STR00022_RKNK,5
TR0008_8 Dn,24:24:00,24:26:00,STR00021_RPNG,6
TR0008_8 Dn,25:42:00,25:44:00,STR00016_RDIU,7
TR0008_8 Dn,26:55:00,26:58:00,STR00013_RBGO,8
TR0008_8 Dn,28:06:00,28:08:00,STR00005_RTTK,9
TR0008_8 Dn,28:35:00,28:35:00,STR00001_RRGN,10
TR0009_9 Up,11:00:00,11:00:00,STR00001_RRGN,1
TR0009_9 Up,12:26:00,12:28:00,STR00010_RKYT,2
TR0009_9 Up,13:01:00,13:16:00,STR00013_RBGO,3
TR0009_9 Up,14:27:00,14:29:00,STR00015_RHTT,4
TR0009_9 Up,14:45:00,14:55:00,STR00016_RDIU,5
TR0009_9 Up,15:15:00,15:20:00,STR00017_RPTH,6
TR0009_9 Up,15:35:00,15:45:00,STR00018_RNLP,7
TR0009_9 Up,16:10:00,16:12:00,STR00019_RPZL,8
TR0009_9 Up,16:32:00,16:37:00,STR00020_RKTG,9
TR0009_9 Up,16:53:00,16:56:00,STR00021_RPNG,10
TR0009_9 Up,17:20:00,17:23:00,STR00022_RKNK,11
TR0009_9 Up,17:51:00,18:01:00,STR00023_RPHU,12
TR0009_9 Up,19:22:00,19:37:00,STR00026_RTGO,13
TR0009_9 Up,22:00:00,22:20:00,STR00033_RPMN,14
TR0009_9 Up,22:50:00,22:55:00,STR00034_RNPT,15
TR0009_9 Up,24:00:00,24:31:00,STR00036_RTKO,16
TR0009_9 Up,25:26:00,25:31:00,STR00037_RYMT,17
TR0009_9 Up,26:10:00,26:20:00,STR00038_RPBW,18
TR0009_9 Up,26:30:00,26:30:00,STR00040_RTHZ,19
TR0010_10 Dn,22:00:00,22:00:00,STR00040_RTHZ,1
TR0010_10 Dn,22:59:00,23:09:00,STR00038_RPBW,2
TR0010_10 Dn,23:49:00,23:54:00,STR00037_RYMT,3
TR0010_10 Dn,24:28:00,24:59:00,STR00036_RTKO,4
TR0010_10 Dn,26:04:00,26:09:00,STR00034_RNPT,5
TR0010_10 Dn,26:35:00,26:55:00,STR00033_RPMN,6
TR0010_10 Dn,27:16:00,27:36:00,STR00026_RTGO,7
TR0010_10 Dn,30:56:00,31:06:00,STR00023_RPHU,8
TR0010_10 Dn,31:35:00,31:40:00,STR00022_RKNK,9
TR0010_10 Dn,32:08:00,32:13:00,STR00021_RPNG,10
TR0010_10 Dn,32:28:00,32:33:00,STR00020_RKTG,11
TR0010_10 Dn,32:57:00,33:00:00,STR00019_RPZL,12
TR0010_10 Dn,33:29:00,33:44:00,STR00018_RNLP,13
TR0010_10 Dn,33:59:00,34:02:00,STR00017_RPTH,14
TR0010_10 Dn,34:21:00,34:26:00,STR00016_RDIU,15
TR0010_10 Dn,34:43:00,34:45:00,STR00015_RHTT,16
TR0010_10 Dn,35:54:00,36:09:00,STR00013_RBGO,17
TR0010_10 Dn,36:49:00,36:51:00,STR00010_RKYT,18
TR0010_10 Dn,38:40:00,38:40:00,STR00001_RRGN,19
TR0011_11 Up,6:00:00,6:00:00,STR00001_RRGN,1
TR0011_11 Up,6:27:00,6:29:00,STR00005_RTTK,2
TR0011_11 Up,7:45:00,7:48:00,STR00013_RBGO,3
TR0011_11 Up,8:55:00,8:57:00,STR00016_RDIU,4
TR0011_11 Up,9:16:00,9:18:00,STR00017_RPTH,5
TR0011_11 Up,9:34:00,9:36:00,STR00018_RNLP,6
TR0011_11 Up,10:26:00,10:28:00,STR00021_RPNG,7
TR0011_11 Up,11:11:00,11:13:00,STR00023_RPHU,8
TR0011_11 Up,12:21:00,12:31:00,STR00026_RTGO,9
TR0011_11 Up,13:08:00,13:10:00,STR00027_RYTS,10
TR0011_11 Up,13:30:00,13:32:00,STR00028_RSWA,11
TR0011_11 Up,14:03:00,14:05:00,STR00030_RYAN,12
TR0011_11 Up,14:30:00,14:32:00,STR00032_RAYL,13
TR0011_11 Up,14:52:00,14:55:00,STR00033_RPMN,14
TR0011_11 Up,15:19:00,15:22:00,STR00034_RNPT,15
TR0011_11 Up,16:06:00,16:08:00,STR00036_RTKO,16
TR0011_11 Up,16:52:00,16:54:00,STR00037_RYMT,17
TR0011_11 Up,17:27:00,17:29:00,STR00038_RPBW,18
TR0011_11 Up,18:12:00,18:15:00,STR00040_RTHZ,19
TR0011_11 Up,18:45:00,18:47:00,STR00043_RTDA,20
TR0011_11 Up,19:31:00,19:33:00,STR00047_RMTH,21
TR0011_11 Up,19:56:00,19:58:00,STR00049_RKYS,22
TR0011_11 Up,21:00:00,21:00:00,STR00056_RMDL,23
TR0012_12 Dn,6:00:00,6:00:00,STR00056_RMDL,1
TR0012_12 Dn,7:00:00,7:02:00,STR00049_RKYS,2
TR0012_12 Dn,7:26:00,7:28:00,STR00047_RMTH,3
TR0012_12 Dn,8:17:00,8:19:00,STR00043_RTDA,4
TR0012_12 Dn,8:51:00,8:54:00,STR00040_RTHZ,5
TR0012_12 Dn,9:35:00,9:37:00,STR00038_RPBW,6
TR0012_12 Dn,10:09:00,10:11:00,STR00037_RYMT,7
TR0012_12 Dn,11:01:00,11:03:00,STR00036_RTKO,8
TR0012_12 Dn,11:51:00,11:54:00,STR00034_RNPT,9
TR0012_12 Dn,12:18:00,12:21:00,STR00033_RPMN,10
TR0012_12 Dn,12:42:00,12:44:00,STR00032_RAYL,11
TR0012_12 Dn,13:09:00,13:11:00,STR00030_RYAN,12
TR0012_12 Dn,13:43:00,13:45:00,STR00028_RSWA,13
TR0012_12 Dn,14:03:00,14:05:00,STR00027_RYTS,14
TR0012_12 Dn,14:41:00,14:51:00,STR00026_RTGO,15
TR0012_12 Dn,15:54:00,15:56:00,STR00023_RPHU,16
TR0012_12 Dn,16:36:00,16:38:00,STR00021_RPNG,17
TR0012_12 Dn,17:18:00,17:20:00,STR00018_RNLP,18
TR0012_12 Dn,17:34:00,17:36:00,STR00017_RPTH,19
TR0012_12 Dn,17:53:00,17:55:00,STR00016_RDIU,20
TR0012_12 Dn,18:56:00,18:59:00,STR00013_RBGO,21
TR0012_12 Dn,20:13:00,20:15:00,STR00005_RTTK,22
TR0012_12 Dn,21:00:00,21:00:00,STR00001_RRGN,23
TR0013_13 Up,15:30:00,15:30:00,STR00001_RRGN,1
TR0013_13 Up,15:35:00,15:40:00,STR00002_RPZT,2
TR0013_13 Up,15:56:00,15:59:00,STR00004_RTGK,3
TR0013_13 Up,16:10:00,16:13:00,STR00005_RTTK,4
TR0013_13 Up,16:34:00,16:36:00,STR00006_RYTG,5
TR0013_13 Up,16:47:00,16:49:00,STR00007_RLDK,6
TR0013_13 Up,17:10:00,17:12:00,STR00008_RDAP,7
TR0013_13 Up,17:41:00,17:43:00,STR00009_RHTG,8
TR0013_13 Up,18:02:00,18:32:00,STR00010_RKYT,9
TR0013_13 Up,18:46:00,18:48:00,STR00011_RTWA,10
TR0013_13 Up,19:04:00,19:06:00,STR00012_RPTS,11
TR0013_13 Up,19:25:00,19:25:00,STR00013_RBGO,12
TR0014_14 Dn,4:45:00,4:45:00,STR00013_RBGO,1
TR0014_14 Dn,5:00:00,5:02:00,STR00012_RPTS,2
TR0014_14 Dn,5:17:00,5:22:00,STR00011_RTWA,3
TR0014_14 Dn,5:37:00,5:42:00,STR00010_RKYT,4
TR0014_14 Dn,6:00:00,7:11:00,STR00009_RHTG,5
TR0014_14 Dn,7:41:00,7:46:00,STR00008_RDAP,6
TR0014_14 Dn,8:10:00,8:12:00,STR00007_RLDK,7
TR0014_14 Dn,8:24:00,8:26:00,STR00006_RYTG,8
TR0014_14 Dn,8:49:00,8:54:00,STR00005_RTTK,9
TR0014_14 Dn,9:04:00,9:09:00,STR00004_RTGK,10
TR0014_14 Dn,9:20:00,9:23:00,STR00002_RPZT,11
TR0014_14 Dn,9:30:00,9:30:00,STR00001_RRGN,12
TR0019_19 Up,8:35:00,8:35:00,STR00004_RTGK,1
TR0019_19 Up,8:48:00,8:50:00,STR00005_RTTK,2
TR0019_19 Up,9:13:00,9:15:00,STR00006_RYTG,3
TR0019_19 Up,9:27:00,9:29:00,STR00007_RLDK,4
TR0019_19 Up,9:53:00,9:55:00,STR00008_RDAP,5
TR0019_19 Up,10:10:00,10:11:00,STR00058_RKOR,6
TR0019_19 Up,10:26:00,10:28:00,STR00009_RHTG,7
TR0019_19 Up,10:42:00,10:44:00,STR00010_RKYT,8
TR0019_19 Up,10:58:00,11:00:00,STR00011_RTWA,9
TR0019_19 Up,11:15:00,11:17:00,STR00012_RPTS,10
TR0019_19 Up,11:32:00,11:42:00,STR00013_RBGO,11
TR0019_19 Up,12:02:00,12:04:00,STR00059_RSHW,12
TR0019_19 Up,12:23:00,12:25:00,STR00060_RPYG,13
TR0019_19 Up,12:55:00,12:57:00,STR00014_RPPG,14
TR0019_19 Up,13:21:00,13:23:00,STR00061_RKDO,15
TR0019_19 Up,13:39:00,13:41:00,STR00015_RHTT,16
TR0019_19 Up,13:52:00,13:54:00,STR00062_RAKL,17
TR0019_19 Up,14:04:00,14:09:00,STR00016_RDIU,18
TR0019_19 Up,14:28:00,15:40:00,STR00017_RPTH,19
TR0019_19 Up,16:04:00,16:09:00,STR00018_RNLP,20
TR0019_19 Up,16:27:00,16:29:00,STR00063_TWI,21
TR0019_19 Up,16:44:00,16:46:00,STR00019_RPZL,22
TR0019_19 Up,17:01:00,17:03:00,STR00064_RTHK,23
TR0019_19 Up,17:13:00,17:18:00,STR00020_RKTG,24
TR0019_19 Up,17:40:00,17:45:00,STR00021_RPNG,25
TR0019_19 Up,18:02:00,18:04:00,STR00065_RTKI,26
TR0019_19 Up,18:21:00,18:23:00,STR00022_RKNK,27
TR0019_19 Up,18:40:00,18:42:00,STR00066_RNYP,28
TR0019_19 Up,19:02:00,19:07:00,STR00023_RPHU,29
TR0019_19 Up,19:25:00,20:10:00,STR00024_RZYW,30
TR0019_19 Up,20:27:00,20:29:00,STR00067_RNCH,31
TR0019_19 Up,20:50:00,20:52:00,STR00068_RKBW,32
TR0019_19 Up,21:04:00,21:06:00,STR00069_RBBK,33
TR0019_19 Up,21:26:00,21:28:00,STR00025_ROKT,34
TR0019_19 Up,21:40:00,21:42:00,STR00070_RTTK,35
TR0019_19 Up,22:00:00,22:00:00,STR00026_RTGO,36
TR0020_20 Dn,6:00:00,6:00:00,STR00026_RTGO,1
TR0020_20 Dn,6:10:00,6:20:00,STR00070_RTTK,2
TR0020_20 Dn,6:32:00,6:34:00,STR00025_ROKT,3
TR0020_20 Dn,6:54:00,6:56:00,STR00069_RBBK,4
TR0020_20 Dn,7:00:00,7:10:00,STR00068_RKBW,5
TR0020_20 Dn,7:31:00,7:33:00,STR00067_RNCH,6
TR0020_20 Dn,7:50:00,7:52:00,STR00024_RZYW,7
TR0020_20 Dn,8:00:00,8:13:00,STR00023_RPHU,8
TR0020_20 Dn,8:33:00,8:35:00,STR00066_RNYP,9
TR0020_20 Dn,8:52:00,8:55:00,STR00022_RKNK,10
TR0020_20 Dn,9:12:00,9:14:00,STR00065_RTKI,11
TR0020_20 Dn,9:31:00,9:36:00,STR00021_RPNG,12
TR0020_20 Dn,9:50:00,10:03:00,STR00020_RKTG,13
TR0020_20 Dn,10:13:00,10:15:00,STR00064_RTHK,14
TR0020_20 Dn,10:30:00,10:32:00,STR00019_RPZL,15
TR0020_20 Dn,10:45:00,10:47:00,STR00063_RTWI,16
TR0020_20 Dn,11:05:00,11:07:00,STR00018_RNLP,17
TR0020_20 Dn,11:20:00,12:10:00,STR00017_RPTH,18
TR0020_20 Dn,12:34:00,12:39:00,STR00016_RDIU,19
TR0020_20 Dn,12:49:00,12:51:00,STR00062_RAKL,20
TR0020_20 Dn,13:02:00,13:04:00,STR00015_RHTT,21
TR0020_20 Dn,13:20:00,13:22:00,STR00061_RKDO,22
TR0020_20 Dn,13:47:00,13:49:00,STR00014_RPPG,23
TR0020_20 Dn,14:15:00,14:17:00,STR00060_RPYG,24
TR0020_20 Dn,14:35:00,14:37:00,STR00059_RSHW,25
TR0020_20 Dn,14:55:00,15:55:00,STR00013_RBGO,26
TR0020_20 Dn,16:10:00,16:12:00,STR00012_RPTS,27
TR0020_20 Dn,16:27:00,16:29:00,STR00011_RTWA,28
TR0020_20 Dn,16:43:00,16:45:00,STR00010_RKYT,29
TR0020_20 Dn,16:59:00,17:01:00,STR00009_RHTG,30
TR0020_20 Dn,17:16:00,17:17:00,STR00058_RKOR,31
TR0020_20 Dn,17:32:00,17:34:00,STR00008_RDAP,32
TR0020_20 Dn,17:58:00,18:00:00,STR00007_RLDK,33
TR0020_20 Dn,18:12:00,18:14:00,STR00006_RYTG,34
TR0020_20 Dn,18:22:00,18:24:00,STR00005_RTTK,35
TR0020_20 Dn,18:35:00,18:35:00,STR00004_RTGK,36
TR0021_21 Up,6:00:00,6:00:00,STR00026_RTGO,1
TR0021_21 Up,6:21:00,6:23:00,STR00071_RKTO,2
TR0021_21 Up,6:37:00,6:42:00,STR00072_RKYK,3
TR0021_21 Up,7:10:00,7:15:00,STR00027_RYTS,4
TR0021_21 Up,7:30:00,7:32:00,STR00073_RKOG,5
TR0021_21 Up,7:40:00,7:53:00,STR00028_RSWA,6
TR0021_21 Up,8:00:00,8:10:00,STR00074_RTGY,7
TR0021_21 Up,8:31:00,8:33:00,STR00029_RMHL,8
TR0021_21 Up,8:52:00,8:54:00,STR00030_RYAN,9
TR0021_21 Up,9:07:00,9:09:00,STR00031_RTWH,10
TR0021_21 Up,9:35:00,9:40:00,STR00032_RAYL,11
TR0021_21 Up,9:50:00,9:52:00,STR00075_RPYW,12
TR0021_21 Up,10:15:00,10:45:00,STR00033_RPMN,13
TR0021_21 Up,11:07:00,11:10:00,STR00076_RYDW,14
TR0021_21 Up,11:20:00,11:25:00,STR00034_RNPT,15
TR0021_21 Up,11:35:00,11:55:00,STR00035_RKDG,16
TR0021_21 Up,12:15:00,12:18:00,STR00077_RPKH,17
TR0021_21 Up,12:30:00,12:33:00,STR00078_RSPK,18
TR0021_21 Up,12:46:00,12:49:00,STR00079_RSMY,19
TR0021_21 Up,13:06:00,13:08:00,STR00080_RSIN,20
TR0021_21 Up,13:18:00,13:23:00,STR00036_RTKO,21
TR0021_21 Up,13:38:00,13:40:00,STR00081_RMKP,22
TR0021_21 Up,13:55:00,13:57:00,STR00082_RNYL,23
TR0021_21 Up,14:21:00,14:23:00,STR00083_RNGT,24
TR0021_21 Up,14:34:00,14:36:00,STR00084_RIKO,25
TR0021_21 Up,14:51:00,14:56:00,STR00037_RYMT,26
TR0021_21 Up,15:13:00,15:15:00,STR00085_RIKK,27
TR0021_21 Up,15:30:00,15:33:00,STR00057_RSHD,28
TR0021_21 Up,15:53:00,15:58:00,STR00038_RPBW,29
TR0021_21 Up,16:18:00,16:21:00,STR00086_RSHW,30
TR0021_21 Up,16:45:00,16:50:00,STR00039_RNYA,31
TR0021_21 Up,17:02:00,17:04:00,STR00087_RNGH,32
TR0021_21 Up,17:20:00,17:20:00,STR00040_RTHZ,33
TR0022_22 Dn,5:00:00,5:00:00,STR00040_RTHZ,1
TR0022_22 Dn,5:15:00,5:17:00,STR00087_RNGH,2
TR0022_22 Dn,5:29:00,5:39:00,STR00039_RNYA,3
TR0022_22 Dn,6:03:00,6:05:00,STR00086_RSHW,4
TR0022_22 Dn,6:25:00,6:40:00,STR00038_RPBW,5
TR0022_22 Dn,7:00:00,7:03:00,STR00057_RSHD,6
TR0022_22 Dn,7:18:00,7:20:00,STR00085_RIKK,7
TR0022_22 Dn,7:37:00,7:47:00,STR00037_RYMT,8
TR0022_22 Dn,8:02:00,8:04:00,STR00084_RIKO,9
TR0022_22 Dn,8:15:00,8:17:00,STR00083_RNGT,10
TR0022_22 Dn,8:41:00,8:43:00,STR00082_RNYL,11
TR0022_22 Dn,8:58:00,9:00:00,STR00081_RMKP,12
TR0022_22 Dn,9:15:00,9:25:00,STR00036_RTKO,13
TR0022_22 Dn,9:35:00,9:37:00,STR00080_RSIN,14
TR0022_22 Dn,9:54:00,9:56:00,STR00079_RSMY,15
TR0022_22 Dn,10:09:00,10:11:00,STR00078_RSPK,16
TR0022_22 Dn,10:23:00,10:25:00,STR00077_RPKH,17
TR0022_22 Dn,10:45:00,11:05:00,STR00035_RKDG,18
TR0022_22 Dn,11:18:00,11:23:00,STR00034_RNPT,19
TR0022_22 Dn,11:33:00,11:35:00,STR00076_RYDW,20
TR0022_22 Dn,11:55:00,12:40:00,STR00033_RPMN,21
TR0022_22 Dn,13:03:00,13:05:00,STR00075_RPYW,22
TR0022_22 Dn,13:15:00,13:20:00,STR00032_RAYL,23
TR0022_22 Dn,13:46:00,13:48:00,STR00031_RTWH,24
TR0022_22 Dn,14:01:00,14:03:00,STR00030_RYAN,25
TR0022_22 Dn,14:22:00,14:24:00,STR00029_RMHL,26
TR0022_22 Dn,14:45:00,14:47:00,STR00074_RTGY,27
TR0022_22 Dn,15:02:00,15:07:00,STR00028_RSWA,28
TR0022_22 Dn,15:23:00,15:25:00,STR00073_RKOG,29
TR0022_22 Dn,15:40:00,15:45:00,STR00027_RYTS,30
TR0022_22 Dn,16:13:00,16:15:00,STR00072_RKYK,31
TR0022_22 Dn,16:30:00,16:32:00,STR00071_RKTO,32
TR0022_22 Dn,17:00:00,17:00:00,STR00026_RTGO,33
TR0023_23 Up,4:00:00,4:00:00,STR00040_RTHZ,1
TR0023_23 Up,4:20:00,4:22:00,STR00041_RYPL,2
TR0023_23 Up,4:44:00,4:49:00,STR00042_RHZA,3
TR0023_23 Up,5:15:00,5:25:00,STR00043_RTDA,4
TR0023_23 Up,5:50:00,5:52:00,STR00044_RSMH,5
TR0023_23 Up,6:24:00,6:29:00,STR00045_RTPT,6
TR0023_23 Up,6:55:00,7:40:00,STR00046_RKML,7
TR0023_23 Up,8:02:00,8:12:00,STR00047_RMTH,8
TR0023_23 Up,8:32:00,8:34:00,STR00048_RMSU,9
TR0023_23 Up,8:57:00,9:07:00,STR00049_RKYS,10
TR0023_23 Up,9:22:00,9:24:00,STR00050_RBLI,11
TR0023_23 Up,9:44:00,9:46:00,STR00051_RSKI,12
TR0023_23 Up,10:06:00,10:16:00,STR00052_RPAL,13
TR0023_23 Up,10:31:00,10:41:00,STR00053_RMNG,14
TR0023_23 Up,10:51:00,10:53:00,STR00054_RTTN,15
TR0023_23 Up,11:10:00,11:10:00,STR00055_RMYH,16
TR0024_24 Dn,15:30:00,15:30:00,STR00055_RMYH,1
TR0024_24 Dn,15:40:00,15:42:00,STR00054_RTTN,2
TR0024_24 Dn,15:52:00,16:02:00,STR00053_RMNG,3
TR0024_24 Dn,16:17:00,16:22:00,STR00052_RPAL,4
TR0024_24 Dn,16:42:00,16:44:00,STR00051_RSKI,5
TR0024_24 Dn,17:04:00,17:06:00,STR00050_RBLI,6
TR0024_24 Dn,17:21:00,17:26:00,STR00049_RKYS,7
TR0024_24 Dn,17:49:00,18:27:00,STR00048_RMSU,8
TR0024_24 Dn,18:47:00,18:57:00,STR00047_RMTH,9
TR0024_24 Dn,19:19:00,19:24:00,STR00046_RKML,10
TR0024_24 Dn,19:50:00,19:55:00,STR00045_RTPT,11
TR0024_24 Dn,20:27:00,20:32:00,STR00044_RSMH,12
TR0024_24 Dn,20:57:00,21:07:00,STR00043_RTDA,13
TR0024_24 Dn,21:33:00,21:38:00,STR00042_RHZA,14
TR0024_24 Dn,22:00:00,22:05:00,STR00041_RYPL,15
TR0024_24 Dn,22:25:00,22:25:00,STR00040_RTHZ,16
TR0031_31 Up,8:00:00,8:00:00,STR00001_RRGN,1
TR0031_31 Up,8:27:00,8:29:00,STR00005_RTTK,2
TR0031_31 Up,9:40:00,9:43:00,STR00013_RBGO,3
TR0031_31 Up,10:46:00,10:48:00,STR00016_RDIU,4
TR0031_31 Up,11:18:00,11:20:00,STR00018_RNLP,5
TR0031_31 Up,11:55:00,11:57:00,STR00020_RKTG,6
TR0031_31 Up,12:10:00,12:12:00,STR00021_RPNG,7
TR0031_31 Up,12:34:00,12:36:00,STR00022_RKNK,8
TR0031_31 Up,12:59:00,13:01:00,STR00023_RPHU,9
TR0031_31 Up,14:07:00,14:10:00,STR00026_RTGO,10
TR0031_31 Up,15:01:00,15:03:00,STR00028_RSWA,11
TR0031_31 Up,15:25:00,15:27:00,STR00029_RMHL,12
TR0031_31 Up,15:40:00,15:42:00,STR00030_RYAN,13
TR0031_31 Up,15:53:00,15:55:00,STR00031_RTWH,14
TR0031_31 Up,16:30:00,16:33:00,STR00033_RPMN,15
TR0031_31 Up,17:00:00,17:00:00,STR00034_RNPT,16
TR0032_32 Dn,8:00:00,8:00:00,STR00034_RNPT,1
TR0032_32 Dn,8:24:00,8:27:00,STR00033_RPMN,2
TR0032_32 Dn,9:00:00,9:02:00,STR00031_RTWH,3
TR0032_32 Dn,9:13:00,9:15:00,STR00030_RYAN,4
TR0032_32 Dn,9:28:00,9:30:00,STR00029_RMHL,5
TR0032_32 Dn,9:52:00,9:54:00,STR00028_RSWA,6
TR0032_32 Dn,10:56:00,10:59:00,STR00026_RTGO,7
TR0032_32 Dn,12:04:00,12:06:00,STR00023_RPHU,8
TR0032_32 Dn,12:29:00,12:31:00,STR00022_RKNK,9
TR0032_32 Dn,12:54:00,12:56:00,STR00021_RPNG,10
TR0032_32 Dn,13:08:00,13:10:00,STR00020_RKTG,11
TR0032_32 Dn,13:40:00,13:42:00,STR00018_RNLP,12
TR0032_32 Dn,14:12:00,14:14:00,STR00016_RDIU,13
TR0032_32 Dn,15:20:00,15:23:00,STR00013_RBGO,14
TR0032_32 Dn,16:32:00,16:34:00,STR00005_RTTK,15
TR0032_32 Dn,17:00:00,17:00:00,STR00001_RRGN,16
TR0033_33 Up,13:00:00,13:00:00,STR00056_RMDL,1
TR0033_33 Up,15:40:00,15:43:00,STR00420_RSBO,2
TR0033_33 Up,19:33:00,19:43:00,STR00440_RKAW,3
TR0033_33 Up,22:32:00,22:42:00,STR00449_RNAB,4
TR0033_33 Up,25:10:00,25:13:00,STR00455_RMOH,5
TR0033_33 Up,26:07:00,26:09:00,STR00458_RHOP,6
TR0033_33 Up,28:03:00,28:06:00,STR00465_RMOK,7
TR0033_33 Up,29:10:00,29:25:00,STR00468_RMAL,8
TR0033_33 Up,30:30:00,30:30:00,STR00480_RMYI,9
TR0034_34 Dn,13:50:00,13:50:00,STR00480_RMYI,1
TR0034_34 Dn,15:39:00,15:42:00,STR00465_RMOK,2
TR0034_34 Dn,17:23:00,17:41:00,STR00458_RHOP,3
TR0034_34 Dn,18:35:00,18:38:00,STR00455_RMOH,4
TR0034_34 Dn,21:05:00,21:11:00,STR00449_RNAB,5
TR0034_34 Dn,21:49:00,21:55:00,STR00446_RMEZ,6
TR0034_34 Dn,23:56:00,24:06:00,STR00440_RKAW,7
TR0034_34 Dn,27:57:00,28:00:00,STR00420_RSBO,8
TR0034_34 Dn,29:36:00,29:43:00,STR00412_RPAD,9
TR0034_34 Dn,31:20:00,31:20:00,STR00056_RMDL,10
TR0035_35 Up,21:00:00,21:00:00,STR00001_RRGN,1
TR0035_35 Up,22:47:00,22:50:00,STR00013_RBGO,2
TR0035_35 Up,24:23:00,24:44:00,STR00315_RTZY,3
TR0035_35 Up,25:42:00,25:47:00,STR00323_RKHO,4
TR0035_35 Up,26:15:00,26:27:00,STR00327_RTSA,5
TR0035_35 Up,26:36:00,26:38:00,STR00329_RHPL,6
TR0035_35 Up,27:37:00,27:40:00,STR00337_RTHT,7
TR0035_35 Up,30:00:00,30:00:00,STR00351_RMAW,8
TR0036_36 Dn,19:30:00,19:30:00,STR00351_RMAW,1
TR0036_36 Dn,21:48:00,21:51:00,STR00337_RTHT,2
TR0036_36 Dn,22:48:00,22:50:00,STR00329_RHPL,3
TR0036_36 Dn,23:09:00,23:11:00,STR00327_RTSA,4
TR0036_36 Dn,23:41:00,23:44:00,STR00323_RKHO,5
TR0036_36 Dn,26:20:00,26:23:00,STR00013_RBGO,6
TR0036_36 Dn,28:20:00,28:20:00,STR00001_RRGN,7
TR0037_37 Up,4:30:00,4:30:00,STR00056_RMDL,1
TR0037_37 Up,5:10:00,5:12:00,STR00410_RYHT,2
TR0037_37 Up,7:10:00,7:13:00,STR00420_RSBO,3
TR0037_37 Up,11:05:00,11:07:00,STR00440_RKAW,4
TR0037_37 Up,14:04:00,14:07:00,STR00449_RNAB,5
TR0037_37 Up,16:41:00,16:44:00,STR00455_RMOH,6
TR0037_37 Up,17:38:00,17:40:00,STR00458_RHOP,7
TR0037_37 Up,19:34:00,19:37:00,STR00465_RMOK,8
TR0037_37 Up,22:00:00,22:00:00,STR00480_RMYI,9
TR0038_38 Dn,4:30:00,4:30:00,STR00480_RMYI,1
TR0038_38 Dn,6:19:00,6:22:00,STR00465_RMOK,2
TR0038_38 Dn,8:03:00,8:05:00,STR00458_RHOP,3
TR0038_38 Dn,8:59:00,9:02:00,STR00455_RMOH,4
TR0038_38 Dn,11:27:00,11:30:00,STR00449_RNAB,5
TR0038_38 Dn,12:39:00,12:56:00,STR00445_RBON,6
TR0038_38 Dn,14:31:00,14:41:00,STR00440_RKAW,7
TR0038_38 Dn,17:08:00,17:15:00,STR00426_RHTA,8
TR0038_38 Dn,18:39:00,18:42:00,STR00420_RSBO,9
TR0038_38 Dn,22:00:00,22:00:00,STR00056_RMDL,10
TR0043_43 Up,19:10:00,19:10:00,STR00056_RMDL,1
TR0043_43 Up,19:34:00,19:44:00,STR01102_RAMA,2
TR0043_43 Up,20:14:00,21:19:00,STR00410_RYHT,3
TR0043_43 Up,23:10:00,23:20:00,STR00416_RWET,4
TR0043_43 Up,24:14:00,24:40:00,STR00420_RSBO,5
TR0043_43 Up,25:25:00,25:35:00,STR00422_RKHI,6
TR0043_43 Up,26:13:00,26:23:00,STR00424_RHTP,7
TR0043_43 Up,26:43:00,26:50:00,STR00425_RNYZ,8
TR0043_43 Up,27:08:00,27:18:00,STR00426_RHTA,9
TR0043_43 Up,27:48:00,28:12:00,STR00427_RKAN,10
TR0043_43 Up,29:10:00,29:22:00,STR00429_RPIT,11
TR0043_43 Up,30:37:00,30:46:00,STR00434_RKOE,12
TR0043_43 Up,31:12:00,31:22:00,STR00440_RKAW,13
TR0043_43 Up,31:49:00,31:54:00,STR00441_RWUN,14
TR0043_43 Up,33:48:00,33:49:00,STR00445_RBON,15
TR0043_43 Up,35:24:00,35:30:00,STR00449_RNAB,16
TR0043_43 Up,36:38:00,36:48:00,STR00451_RMAW,17
TR0043_43 Up,37:10:00,37:15:00,STR00452_RNAN,18
TR0043_43 Up,37:37:00,38:28:00,STR00453_RMAH,19
TR0043_43 Up,39:46:00,40:06:00,STR00455_RMOH,20
TR0043_43 Up,40:34:00,41:26:00,STR00456_RNMA,21
TR0043_43 Up,41:46:00,42:00:00,STR00457_RMYO,22
TR0043_43 Up,42:18:00,42:38:00,STR00458_RHOP,23
TR0043_43 Up,42:58:00,43:04:00,STR00459_RNKH,24
TR0043_43 Up,43:23:00,43:28:00,STR00460_RPBA,25
TR0043_43 Up,44:24:00,44:29:00,STR00463_RSAH,26
TR0043_43 Up,45:13:00,45:33:00,STR00465_RMOK,27
TR0043_43 Up,45:56:00,46:11:00,STR00466_RNMT,28
TR0043_43 Up,48:00:00,48:00:00,STR00480_RMYI,29
TR0044_44 Dn,12:00:00,12:00:00,STR00480_RMYI,1
TR0044_44 Dn,12:41:00,12:53:00,STR00469_RPYI,2
TR0044_44 Dn,14:08:00,14:13:00,STR00466_RNMT,3
TR0044_44 Dn,14:36:00,14:51:00,STR00465_RMOK,4
TR0044_44 Dn,15:32:00,15:34:00,STR00463_RSAH,5
TR0044_44 Dn,16:06:00,16:58:00,STR00461_RMIN,6
TR0044_44 Dn,17:15:00,17:19:00,STR00460_RPBA,7
TR0044_44 Dn,17:37:00,18:03:00,STR00459_RNKH,8
TR0044_44 Dn,18:24:00,18:39:00,STR00458_RHOP,9
TR0044_44 Dn,19:02:00,19:05:00,STR00457_RMYO,10
TR0044_44 Dn,19:27:00,20:26:00,STR00456_RNMA,11
TR0044_44 Dn,20:53:00,21:13:00,STR00455_RMOH,12
TR0044_44 Dn,22:28:00,22:33:00,STR00453_RMAH,13
TR0044_44 Dn,22:53:00,22:58:00,STR00452_RNAN,14
TR0044_44 Dn,23:17:00,23:31:00,STR00451_RMAW,15
TR0044_44 Dn,24:32:00,24:37:00,STR00449_RNAB,16
TR0044_44 Dn,25:09:00,25:18:00,STR00447_RSEI,17
TR0044_44 Dn,25:37:00,26:10:00,STR00446_RMEZ,18
TR0044_44 Dn,26:40:00,27:11:00,STR00445_RBON,19
TR0044_44 Dn,28:47:00,28:57:00,STR00441_RWUN,20
TR0044_44 Dn,29:23:00,30:11:00,STR00440_RKAW,21
TR0044_44 Dn,30:43:00,30:48:00,STR00434_RKOE,22
TR0044_44 Dn,33:05:00,33:11:00,STR00427_RKAN,23
TR0044_44 Dn,33:43:00,33:48:00,STR00426_RHTA,24
TR0044_44 Dn,34:22:00,34:32:00,STR00424_RHTP,25
TR0044_44 Dn,35:08:00,35:13:00,STR00422_RKHI,26
TR0044_44 Dn,35:53:00,36:13:00,STR00420_RSBO,27
TR0044_44 Dn,37:08:00,37:10:00,STR00416_RWET,28
TR0044_44 Dn,38:09:00,38:22:00,STR00413_RKHE,29
TR0044_44 Dn,39:00:00,39:26:00,STR00411_RSAR,30
TR0044_44 Dn,39:48:00,40:08:00,STR00410_RYHT,31
TR0044_44 Dn,40:40:00,40:50:00,STR01102_RAMA,32
TR0044_44 Dn,41:20:00,41:20:00,STR00056_RMDL,33
TR0055_55 Up,14:10:00,14:10:00,STR00056_RMDL,1
TR0055_55 Up,15:02:00,15:04:00,STR00410_RYHT,2
TR0055_55 Up,16:34:00,16:36:00,STR00416_RWET,3
TR0055_55 Up,17:22:00,17:24:00,STR00420_RSBO,4
TR0055_55 Up,18:02:00,18:10:00,STR00422_RKHI,5
TR0055_55 Up,18:42:00,18:44:00,STR00424_RHTP,6
TR0055_55 Up,19:42:00,19:44:00,STR00427_RKAN,7
TR0055_55 Up,20:11:00,20:13:00,STR00428_RKYU,8
TR0055_55 Up,21:07:00,21:09:00,STR00431_RCTH,9
TR0055_55 Up,22:08:00,22:18:00,STR00440_RKAW,10
TR0055_55 Up,22:42:00,22:44:00,STR00441_RWUN,11
TR0055_55 Up,23:07:00,23:19:00,STR00443_RGYO,12
TR0055_55 Up,25:28:00,25:30:00,STR00448_RINN ,13
TR0055_55 Up,25:50:00,26:00:00,STR00449_RNAB,14
TR0055_55 Up,26:58:00,27:00:00,STR00451_RMAW,15
TR0055_55 Up,28:48:00,28:58:00,STR00455_RMOH,16
TR0055_55 Up,29:23:00,29:25:00,STR00456_RNMA,17
TR0055_55 Up,29:57:00,29:59:00,STR00458_RHOP,18
TR0055_55 Up,30:34:00,30:36:00,STR00460_RPBA,19
TR0055_55 Up,31:07:00,31:16:00,STR00462_RTNI,20
TR0055_55 Up,31:36:00,31:38:00,STR00463_RSAH,21
TR0055_55 Up,32:18:00,32:20:00,STR00465_RMOK,22
TR0055_55 Up,32:45:00,32:47:00,STR00466_RNMT,23
TR0055_55 Up,33:10:00,33:25:00,STR00469_RPYI,24
TR0055_55 Up,34:45:00,34:45:00,STR00480_RMYI,25
TR0056_56 Dn,7:45:00,7:45:00,STR00480_RMYI,1
TR0056_56 Dn,8:24:00,8:26:00,STR00469_RPYI,2
TR0056_56 Dn,9:07:00,9:13:00,STR00467_RMAY,3
TR0056_56 Dn,9:32:00,9:34:00,STR00466_RNMT,4
TR0056_56 Dn,9:56:00,9:58:00,STR00465_RMOK,5
TR0056_56 Dn,10:35:00,10:46:00,STR00463_RSAH,6
TR0056_56 Dn,11:27:00,11:29:00,STR00460_RPBA,7
TR0056_56 Dn,12:03:00,12:05:00,STR00458_RHOP,8
TR0056_56 Dn,12:39:00,12:41:00,STR00456_RNMA,9
TR0056_56 Dn,13:05:00,13:15:00,STR00455_RMOH,10
TR0056_56 Dn,14:56:00,15:02:00,STR00451_RMAW,11
TR0056_56 Dn,15:59:00,16:09:00,STR00449_RNAB,12
TR0056_56 Dn,16:26:00,16:28:00,STR00448_RINN ,13
TR0056_56 Dn,18:31:00,18:33:00,STR00443_RGYO,14
TR0056_56 Dn,18:55:00,18:57:00,STR00441_RWUN,15
TR0056_56 Dn,19:19:00,19:36:00,STR00440_RKAW,16
TR0056_56 Dn,20:35:00,20:37:00,STR00431_RCTH,17
TR0056_56 Dn,20:51:00,20:57:00,STR00430_RCKY,18
TR0056_56 Dn,21:34:00,21:36:00,STR00428_RKYU,19
TR0056_56 Dn,22:03:00,22:05:00,STR00427_RKAN,20
TR0056_56 Dn,23:05:00,23:07:00,STR00424_RHTP,21
TR0056_56 Dn,23:39:00,23:41:00,STR00422_RKHI,22
TR0056_56 Dn,24:17:00,24:19:00,STR00420_RSBO,23
TR0056_56 Dn,25:11:00,25:14:00,STR00416_RWET,24
TR0056_56 Dn,27:58:00,28:00:00,STR00410_RYHT,25
TR0056_56 Dn,28:15:00,28:15:00,STR00056_RMDL,26
TR0057_57 Up,16:20:00,16:20:00,STR00056_RMDL,1
TR0057_57 Up,17:12:00,17:14:00,STR00410_RYHT,2
TR0057_57 Up,19:04:00,19:10:00,STR00417_RMOT,3
TR0057_57 Up,19:35:00,19:37:00,STR00420_RSBO,4
TR0057_57 Up,20:15:00,20:17:00,STR00422_RKHI,5
TR0057_57 Up,21:42:00,22:06:00,STR00427_RKAN,6
TR0057_57 Up,22:33:00,22:35:00,STR00428_RKYU,7
TR0057_57 Up,24:05:00,24:35:00,STR00434_RKOE,8
TR0057_57 Up,24:57:00,25:12:00,STR00440_RKAW,9
TR0057_57 Up,25:36:00,25:38:00,STR00441_RWUN,10
TR0057_57 Up,26:25:00,26:27:00,STR00444_RNAN,11
TR0057_57 Up,27:41:00,27:43:00,STR00446_RMEZ,12
TR0057_57 Up,28:14:00,28:16:00,STR00448_RINN ,13
TR0057_57 Up,28:36:00,28:46:00,STR00449_RNAB,14
TR0057_57 Up,31:32:00,31:34:00,STR00455_RMOH,15
TR0057_57 Up,32:07:00,32:09:00,STR00456_RNMA,16
TR0057_57 Up,33:11:00,33:13:00,STR00458_RHOP,17
TR0057_57 Up,33:48:00,33:50:00,STR00460_RPBA,18
TR0057_57 Up,34:06:00,34:08:00,STR00461_RMIN,19
TR0057_57 Up,35:23:00,35:25:00,STR00465_RMOK,20
TR0057_57 Up,35:48:00,35:50:00,STR00466_RNMT,21
TR0057_57 Up,37:30:00,37:30:00,STR00480_RMYI,22
TR0058_58 Dn,15:10:00,15:10:00,STR00480_RMYI,1
TR0058_58 Dn,16:49:00,16:51:00,STR00466_RNMT,2
TR0058_58 Dn,17:13:00,17:15:00,STR00465_RMOK,3
TR0058_58 Dn,18:18:00,18:30:00,STR00461_RMIN,4
TR0058_58 Dn,18:45:00,18:47:00,STR00460_RPBA,5
TR0058_58 Dn,19:20:00,19:22:00,STR00458_RHOP,6
TR0058_58 Dn,19:56:00,19:58:00,STR00456_RNMA,7
TR0058_58 Dn,20:29:00,20:33:00,STR00455_RMOH,8
TR0058_58 Dn,22:44:00,23:01:00,STR00450_RPIN,9
TR0058_58 Dn,23:12:00,23:52:00,STR00449_RNAB,10
TR0058_58 Dn,23:53:00,23:55:00,STR00448_RINN ,11
TR0058_58 Dn,24:26:00,25:00:00,STR00446_RMEZ,12
TR0058_58 Dn,26:09:00,26:28:00,STR00444_RNAN,13
TR0058_58 Dn,27:14:00,27:16:00,STR00441_RWUN,14
TR0058_58 Dn,27:36:00,27:51:00,STR00440_RKAW,15
TR0058_58 Dn,28:15:00,28:17:00,STR00434_RKOE,16
TR0058_58 Dn,29:41:00,29:43:00,STR00428_RKYU,17
TR0058_58 Dn,30:10:00,30:12:00,STR00427_RKAN,18
TR0058_58 Dn,31:44:00,31:50:00,STR00422_RKHI,19
TR0058_58 Dn,32:26:00,32:28:00,STR00420_RSBO,20
TR0058_58 Dn,35:02:00,35:04:00,STR00410_RYHT,21
TR0058_58 Dn,36:20:00,36:20:00,STR00056_RMDL,22
TR0061_61 Up,16:00:00,16:00:00,STR00001_RRGN,1
TR0061_61 Up,19:07:00,19:09:00,STR00220_RLPD,2
TR0061_61 Up,24:09:00,24:19:00,STR00230_RALN,3
TR0061_61 Up,28:04:00,28:06:00,STR00240_RSTW,4
TR0061_61 Up,28:31:00,28:33:00,STR00210_RTDG,5
TR0061_61 Up,30:26:00,30:28:00,STR00250_RTMY,6
TR0061_61 Up,31:39:00,31:41:00,STR00260_RKPD,7
TR0061_61 Up,33:31:00,33:40:00,STR00270_RBGN,8
TR0061_61 Up,35:10:00,35:10:00,STR00280_RPKK,9
TR0062_62 Dn,15:20:00,15:20:00,STR00280_RPKK,1
TR0062_62 Dn,16:50:00,17:00:00,STR00270_RBGN,2
TR0062_62 Dn,18:49:00,18:51:00,STR00260_RKPD,3
TR0062_62 Dn,20:02:00,20:04:00,STR00250_RTMY,4
TR0062_62 Dn,21:57:00,21:59:00,STR00210_RTDG,5
TR0062_62 Dn,22:24:00,22:26:00,STR00240_RSTW,6
TR0062_62 Dn,26:08:00,26:18:00,STR00230_RALN,7
TR0062_62 Dn,31:18:00,31:20:00,STR00220_RLPD,8
TR0062_62 Dn,34:30:00,34:30:00,STR00001_RRGN,9
TR0071_71 Up,13:00:00,13:00:00,STR00001_RRGN,1
TR0071_71 Up,16:15:00,16:23:00,STR00710_RTYW,2
TR0071_71 Up,16:50:00,17:00:00,STR00720_RLPD,3
TR0071_71 Up,18:05:00,18:08:00,STR00730_ROKP,4
TR0071_71 Up,18:49:00,18:52:00,STR00740_RZIG,5
TR0071_71 Up,19:14:00,19:17:00,STR00750_RNTL,6
TR0071_71 Up,19:34:00,19:37:00,STR00760_RPDE,7
TR0071_71 Up,20:13:00,20:16:00,STR00770_RTHG,8
TR0071_71 Up,21:30:00,21:30:00,STR00780_RPYA,9
TR0072_72 Dn,23:30:00,23:30:00,STR00780_RPYA,1
TR0072_72 Dn,24:21:00,24:24:00,STR00770_RTHG,2
TR0072_72 Dn,25:04:00,25:07:00,STR00760_RPDE,3
TR0072_72 Dn,25:22:00,25:25:00,STR00750_RNTL,4
TR0072_72 Dn,25:48:00,25:51:00,STR00740_RZIG,5
TR0072_72 Dn,26:34:00,26:37:00,STR00730_ROKP,6
TR0072_72 Dn,27:50:00,27:55:00,STR00720_RLPD,7
TR0072_72 Dn,28:24:00,28:27:00,STR00710_RTYW,8
TR0072_72 Dn,31:50:00,31:50:00,STR00001_RRGN,9
TR0085_85 Up,4:30:00,4:30:00,STR00013_RBGO,1
TR0085_85 Up,4:44:00,4:46:00,STR00305_RKAL,2
TR0085_85 Up,5:08:00,5:13:00,STR00307_RNPT,3
TR0085_85 Up,5:35:00,5:45:00,STR00309_RWOR,4
TR0085_85 Up,6:05:00,6:10:00,STR00311_RABY,5
TR0085_85 Up,6:22:00,6:24:00,STR00313_RSTK,6
TR0085_85 Up,6:46:00,6:56:00,STR00315_RTZY,7
TR0085_85 Up,7:20:00,7:30:00,STR00317_RMPL,8
TR0085_85 Up,7:54:00,7:59:00,STR00319_RKKT,9
TR0085_85 Up,8:15:00,8:20:00,STR00321_RBYG,10
TR0085_85 Up,8:35:00,8:40:00,STR00323_RKHO,11
TR0085_85 Up,8:59:00,9:04:00,STR00325_RMYG,12
TR0085_85 Up,9:22:00,9:27:00,STR00327_RTSA,13
TR0085_85 Up,9:51:00,9:58:00,STR00329_RHPL,14
TR0085_85 Up,10:18:00,10:20:00,STR00331_RDWN,15
TR0085_85 Up,10:40:00,11:05:00,STR00333_RTZE,16
TR0085_85 Up,11:29:00,11:32:00,STR00335_RNKL,17
TR0085_85 Up,11:49:00,11:59:00,STR00337_RTHT,18
TR0085_85 Up,12:28:00,12:33:00,STR00339_RYNY,19
TR0085_85 Up,12:58:00,13:03:00,STR00341_RZIN,20
TR0085_85 Up,13:22:00,13:27:00,STR00343_RPAU,21
TR0085_85 Up,13:41:00,13:44:00,STR00345_RKCH,22
TR0085_85 Up,14:09:00,14:29:00,STR00347_RTPK,23
TR0085_85 Up,14:49:00,15:00:00,STR00349_RMTY,24
TR0085_85 Up,15:35:00,15:35:00,STR00351_RMAW,25
TR0086_86 Dn,9:00:00,9:00:00,STR00351_RMAW,1
TR0086_86 Dn,9:40:00,9:41:00,STR00349_RMTY,2
TR0086_86 Dn,10:01:00,10:11:00,STR00347_RTPK,3
TR0086_86 Dn,10:46:00,10:48:00,STR00345_RKCH,4
TR0086_86 Dn,11:02:00,11:07:00,STR00343_RPAU,5
TR0086_86 Dn,11:26:00,11:31:00,STR00341_RZIN,6
TR0086_86 Dn,11:56:00,12:31:00,STR00339_RYNY,7
TR0086_86 Dn,13:00:00,13:10:00,STR00337_RTHT,8
TR0086_86 Dn,13:27:00,13:52:00,STR00335_RNKL,9
TR0086_86 Dn,14:16:00,14:19:00,STR00333_RTZE,10
TR0086_86 Dn,14:38:00,14:40:00,STR00331_RDWN,11
TR0086_86 Dn,15:00:00,15:05:00,STR00329_RHPL,12
TR0086_86 Dn,15:29:00,15:32:00,STR00327_RTSA,13
TR0086_86 Dn,15:54:00,15:57:00,STR00325_RMYG,14
TR0086_86 Dn,16:15:00,16:21:00,STR00323_RKHO,15
TR0086_86 Dn,16:36:00,16:41:00,STR00321_RBYG,16
TR0086_86 Dn,17:00:00,17:21:00,STR00319_RKKT,17
TR0086_86 Dn,17:45:00,17:50:00,STR00317_RMPL,18
TR0086_86 Dn,18:20:00,18:30:00,STR00315_RTZY,19
TR0086_86 Dn,18:56:00,18:59:00,STR00313_RSTK,20
TR0086_86 Dn,19:11:00,19:16:00,STR00311_RABY,21
TR0086_86 Dn,19:38:00,19:43:00,STR00309_RWOR,22
TR0086_86 Dn,20:03:00,20:08:00,STR00307_RNPT,23
TR0086_86 Dn,20:27:00,20:34:00,STR00305_RKAL,24
TR0086_86 Dn,20:50:00,20:50:00,STR00013_RBGO,25
TR0089_89 Dn,7:15:00,7:15:00,STR00001_RRGN,1
TR0089_89 Dn,9:02:00,9:04:00,STR00013_RBGO,2
TR0089_89 Dn,11:55:00,11:57:00,STR00323_RKHO,3
TR0089_89 Dn,16:50:00,16:50:00,STR00351_RMAW,4
TR0090_90 Up,8:00:00,8:00:00,STR00351_RMAW,1
TR0090_90 Up,12:31:00,12:33:00,STR00323_RKHO,2
TR0090_90 Up,15:22:00,15:24:00,STR00013_RBGO,3
TR0090_90 Up,17:30:00,17:30:00,STR00001_RRGN,4
TR0119_119 Up,7:00:00,7:00:00,STR00270_RBGN,1
TR0119_119 Up,7:19:00,7:21:00,STR01022_RPLI,2
TR0119_119 Up,7:45:00,7:47:00,STR01020_RPHT,3
TR0119_119 Up,8:15:00,8:17:00,STR01018_RKZI,4
TR0119_119 Up,8:30:00,8:33:00,STR01016_RTMT,5
TR0119_119 Up,9:19:00,9:24:00,STR01014_RMGN,6
TR0119_119 Up,10:28:00,10:40:00,STR01010_RNHG,7
TR0119_119 Up,11:12:00,11:14:00,STR01008_RWEL,8
TR0119_119 Up,11:32:00,11:34:00,STR01006_RSPG,9
TR0119_119 Up,12:02:00,12:07:00,STR01004_RMYT,10
TR0119_119 Up,13:12:00,13:17:00,STR01002_RTDU,11
TR0119_119 Up,13:47:00,13:49:00,STR00052_RPAL,12
TR0119_119 Up,14:30:00,14:30:00,STR00056_RMDL,13
TR0120_120 Dn,21:00:00,21:00:00,STR00056_RMDL,1
TR0120_120 Dn,21:41:00,21:43:00,STR00052_RPAL,2
TR0120_120 Dn,23:38:00,23:43:00,STR01004_RMYT,4
TR0120_120 Dn,24:21:00,24:23:00,STR01006_RSPG,5
TR0120_120 Dn,24:43:00,24:45:00,STR01008_RWEL,6
TR0120_120 Dn,25:24:00,25:26:00,STR01010_RNHG,7
TR0120_120 Dn,26:21:00,26:26:00,STR01014_RMGN,8
TR0120_120 Dn,27:10:00,27:12:00,STR01016_RTMT,9
TR0120_120 Dn,27:34:00,27:36:00,STR01018_RKZI,10
TR0120_120 Dn,27:56:00,27:58:00,STR01020_RPHT,11
TR0120_120 Dn,28:23:00,28:26:00,STR01022_RPLI,12
TR0120_120 Dn,28:50:00,28:50:00,STR00270_RBGN,13
TR0123_123 Up,14:30:00,14:30:00,STR00056_RMDL,1
TR0123_123 Up,14:35:00,14:36:00,STR00055_RMYH,2
TR0123_123 Up,14:40:00,14:41:00,STR01102_RAMA,3
TR0123_123 Up,14:54:00,15:00:00,STR01104_RSKY,4
TR0123_123 Up,15:05:00,15:06:00,STR01106_RSGG,5
TR0123_123 Up,15:11:00,15:12:00,STR00410_RYHT,6
TR0123_123 Up,15:21:00,15:22:00,STR01108_RNTY,7
TR0123_123 Up,15:32:00,15:34:00,STR01110_RNPW,8
TR0123_123 Up,16:14:00,16:16:00,STR01112_RMMU,9
TR0123_123 Up,16:50:00,16:51:00,STR01114_RALL,10
TR0123_123 Up,17:22:00,17:23:00,STR01116_RCHU,11
TR0123_123 Up,17:44:00,17:45:00,STR01118_RKYM,12
TR0123_123 Up,18:33:00,18:39:00,STR01120_RATH,13
TR0123_123 Up,19:01:00,19:10:00,STR01122_RMYW,14
TR0124_124 Dn,6:21:00,6:21:00,STR01122_RMYW,1
TR0124_124 Dn,6:43:00,6:44:00,STR01120_RATH,2
TR0124_124 Dn,7:37:00,7:38:00,STR01118_RKYM,3
TR0124_124 Dn,7:59:00,8:00:00,STR01116_RCHU,4
TR0124_124 Dn,8:31:00,8:32:00,STR01114_RALL,5
TR0124_124 Dn,9:07:00,9:08:00,STR01112_RMMU,6
TR0124_124 Dn,9:47:00,9:52:00,STR01110_RNPW,7
TR0124_124 Dn,10:02:00,10:03:00,STR01108_RNTY,8
TR0124_124 Dn,10:18:00,10:30:00,STR00410_RYHT,9
TR0124_124 Dn,10:35:00,10:36:00,STR01106_RSGG,10
TR0124_124 Dn,10:45:00,10:47:00,STR01104_RSKY,11
TR0124_124 Dn,11:00:00,11:01:00,STR01102_RAMA,12
TR0124_124 Dn,11:06:00,11:07:00,STR00055_RMYH,13
TR0124_124 Dn,11:20:00,11:20:00,STR00056_RMDL,14
TR0131_131 Up,4:00:00,4:00:00,STR00056_RMDL,1
TR0131_131 Up,7:27:00,7:29:00,STR00510_RANE,2
TR0131_131 Up,7:52:00,8:22:00,STR00515_RPOL,3
TR0131_131 Up,11:03:00,11:08:00,STR00520_RGOT,4
TR0131_131 Up,11:58:00,12:25:00,STR00530_RNAP,5
TR0131_131 Up,13:19:00,13:39:00,STR00540_RKYM,6
TR0131_131 Up,14:55:00,15:15:00,STR00550_RTBA,7
TR0131_131 Up,19:35:00,19:35:00,STR00560_RLSH,8
TR0132_132 Dn,5:00:00,5:00:00,STR00560_RLSH,1
TR0132_132 Dn,9:25:00,9:40:00,STR00550_RTBA,2
TR0132_132 Dn,11:05:00,11:25:00,STR00540_RKYM,3
TR0132_132 Dn,12:22:00,12:30:00,STR00530_RNAP,4
TR0132_132 Dn,13:23:00,13:25:00,STR00520_RGOT,5
TR0132_132 Dn,16:05:00,17:40:00,STR00515_RPOL,6
TR0132_132 Dn,18:10:00,18:12:00,STR00510_RANE,7
TR0132_132 Dn,22:40:00,22:40:00,STR00056_RMDL,8
TR0142_144 Dn,6:00:00,6:00:00,STR00950_RYAK,1
TR0142_144 Dn,9:10:00,9:40:00,STR00940_RSNY,2
TR0142_144 Dn,10:40:00,11:10:00,STR00930_RHEH,3
TR0142_144 Dn,12:20:00,12:35:00,STR00920_RABAN,4
TR0142_144 Dn,13:10:00,13:25:00,STR00910_RKLW,5
TR0142_144 Dn,20:45:00,20:45:00,STR00040_RTHZ,6
TR0143_143 Up,5:00:00,5:00:00,STR00040_RTHZ,1
TR0143_143 Up,11:35:00,11:40:00,STR00910_RKLW,2
TR0143_143 Up,12:15:00,12:30:00,STR00920_RABAN,3
TR0143_143 Up,13:40:00,13:45:00,STR00930_RHEH,4
TR0143_143 Up,14:50:00,15:20:00,STR00940_RSNY,5
TR0143_143 Up,19:00:00,19:00:00,STR00950_RYAK,6
TR0171_171 Up,7:15:00,7:15:00,STR00351_RMAW,1
TR0171_171 Up,7:38:00,7:39:00,STR00352,2
TR0171_171 Up,7:46:00,7:47:00,STR00353,3
TR0171_171 Up,8:01:00,8:02:00,STR00354,4
TR0171_171 Up,8:20:00,8:22:00,STR00355,5
TR0171_171 Up,8:29:00,8:30:00,STR00356,6
TR0171_171 Up,8:36:00,9:03:00,STR00357,7
TR0171_171 Up,9:21:00,9:22:00,STR00358,8
TR0171_171 Up,9:33:00,9:35:00,STR00359,9
TR0171_171 Up,9:50:00,9:51:00,STR00360,10
TR0171_171 Up,10:08:00,10:09:00,STR00361,11
TR0171_171 Up,10:23:00,10:30:00,STR00362,12
TR0171_171 Up,10:51:00,10:53:00,STR00363,13
TR0171_171 Up,11:03:00,11:04:00,STR00364,14
TR0171_171 Up,11:13:00,11:14:00,STR00365,15
TR0171_171 Up,11:23:00,11:24:00,STR00366,16
TR0171_171 Up,11:30:00,11:31:00,STR00367,17
TR0171_171 Up,11:40:00,11:41:00,STR00368,18
TR0171_171 Up,11:51:00,11:52:00,STR00369,19
TR0171_171 Up,12:02:00,12:03:00,STR00370,20
TR0171_171 Up,12:28:00,12:30:00,STR00371,21
TR0171_171 Up,12:50:00,13:52:00,STR00372,22
TR0171_171 Up,13:14:00,13:16:00,STR00373,23
TR0171_171 Up,13:31:00,13:32:00,STR00374,24
TR0171_171 Up,13:42:00,13:43:00,STR00375,25
TR0171_171 Up,13:57:00,13:58:00,STR00376,26
TR0171_171 Up,14:20:00,14:20:00,STR00377,27
TR0172_172 Dn,6:30:00,6:30:00,STR00377,1
TR0172_172 Dn,6:55:00,6:56:00,STR00376,2
TR0172_172 Dn,7:10:00,7:11:00,STR00375,3
TR0172_172 Dn,7:21:00,7:22:00,STR00374,4
TR0172_172 Dn,7:36:00,7:38:00,STR00373,5
TR0172_172 Dn,8:00:00,8:02:00,STR00372,6
TR0172_172 Dn,8:22:00,8:28:00,STR00371,7
TR0172_172 Dn,8:53:00,8:54:00,STR00370,8
TR0172_172 Dn,9:04:00,9:05:00,STR00369,9
TR0172_172 Dn,9:15:00,9:16:00,STR00368,10
TR0172_172 Dn,9:25:00,9:26:00,STR00367,11
TR0172_172 Dn,9:32:00,9:33:00,STR00366,12
TR0172_172 Dn,9:42:00,9:43:00,STR00365,13
TR0172_172 Dn,9:52:00,9:53:00,STR00364,14
TR0172_172 Dn,10:03:00,10:05:00,STR00363,15
TR0172_172 Dn,10:27:00,10:29:00,STR00362,16
TR0172_172 Dn,10:43:00,10:44:00,STR00361,17
TR0172_172 Dn,11:01:00,11:02:00,STR00360,18
TR0172_172 Dn,11:15:00,11:17:00,STR00359,19
TR0172_172 Dn,11:30:00,11:31:00,STR00358,20
TR0172_172 Dn,11:49:00,11:51:00,STR00357,21
TR0172_172 Dn,11:57:00,11:58:00,STR00356,22
TR0172_172 Dn,12:05:00,12:07:00,STR00355,23
TR0172_172 Dn,12:25:00,12:26:00,STR00354,24
TR0172_172 Dn,12:40:00,12:41:00,STR00353,25
TR0172_172 Dn,12:48:00,12:49:00,STR00352,26
TR0172_172 Dn,13:10:00,13:10:00,STR00351_RMAW,27
TR0175_175 Up,18:25:00,18:25:00,STR00001_RRGN,1
TR0175_175 Up,20:14:00,20:19:00,STR00013_RBGO,2
TR0175_175 Up,21:06:00,21:08:00,STR00309_RWOR,3
TR0175_175 Up,21:57:00,22:00:00,STR00315_RTZY,4
TR0175_175 Up,23:04:00,23:07:00,STR00323_RKHO,5
TR0175_175 Up,23:22:00,23:31:00,STR00325_RMYG,6
TR0175_175 Up,23:48:00,23:50:00,STR00327_RTSA,7
TR0175_175 Up,0:10:00,0:19:00,STR00329_RHPL,8
TR0175_175 Up,1:25:00,1:27:00,STR00337_RTHT,9
TR0175_175 Up,2:27:00,2:29:00,STR00343_RPAU,10
TR0175_175 Up,4:00:00,4:30:00,STR00351_RMAW,11
TR0175_175 Up,5:34:00,5:36:00,STR00357,12
TR0175_175 Up,6:05:00,6:06:00,STR00359,13
TR0175_175 Up,6:43:00,6:45:00,STR00362,14
TR0175_175 Up,7:15:00,7:16:00,STR00364,15
TR0175_175 Up,7:42:00,7:43:00,STR00368,16
TR0175_175 Up,8:03:00,8:04:00,STR00370,17
TR0175_175 Up,8:27:00,8:29:00,STR00371,18
TR0175_175 Up,8:51:00,8:53:00,STR00372,19
TR0175_175 Up,9:17:00,9:18:00,STR00373,20
TR0175_175 Up,10:10:00,10:25:00,STR00377,21
TR0175_175 Up,10:36:00,10:37:00,STR00378,22
TR0175_175 Up,10:47:00,10:48:00,STR00379,23
TR0175_175 Up,10:55:00,10:56:00,STR00380,24
TR0175_175 Up,11:44:00,11:46:00,STR00381,25
TR0175_175 Up,12:06:00,12:07:00,STR00382,26
TR0175_175 Up,12:17:00,12:19:00,STR00383,27
TR0175_175 Up,12:43:00,12:44:00,STR00384,28
TR0175_175 Up,12:52:00,12:53:00,STR00385,29
TR0175_175 Up,12:59:00,13:00:00,STR00386,30
TR0175_175 Up,13:11:00,13:13:00,STR00387,31
TR0175_175 Up,13:31:00,13:32:00,STR00388,32
TR0175_175 Up,14:01:00,14:02:00,STR00389,33
TR0175_175 Up,14:22:00,14:23:00,STR00390,34
TR0175_175 Up,14:52:00,14:54:00,STR00391,35
TR0175_175 Up,15:12:00,15:13:00,STR00392,36
TR0175_175 Up,15:46:00,15:48:00,STR00393,37
TR0175_175 Up,16:29:00,16:30:00,STR00394,38
TR0175_175 Up,17:32:00,17:33:00,STR00395,39
TR0175_175 Up,17:51:00,17:53:00,STR00396,40
TR0175_175 Up,17:59:00,18:00:00,STR00397,41
TR0175_175 Up,18:21:00,18:22:00,STR00398,42
TR0175_175 Up,18:34:00,18:37:00,STR00399,43
TR0175_175 Up,19:00:00,19:00:00,STR00400,44
TR0176_165 Dn,5:40:00,5:40:00,STR00400,1
TR0176_165 Dn,5:58:00,6:01:00,STR00399,2
TR0176_165 Dn,6:09:00,6:10:00,STR00398,3
TR0176_165 Dn,6:29:00,6:30:00,STR00397,4
TR0176_165 Dn,6:36:00,6:38:00,STR00396,5
TR0176_165 Dn,7:59:00,8:00:00,STR00394,6
TR0176_165 Dn,8:41:00,8:43:00,STR00393,7
TR0176_165 Dn,9:16:00,9:17:00,STR00392,8
TR0176_165 Dn,9:35:00,9:37:00,STR00391,9
TR0176_165 Dn,10:06:00,10:07:00,STR00390,10
TR0176_165 Dn,10:27:00,10:28:00,STR00389,11
TR0176_165 Dn,10:57:00,10:58:00,STR00388,12
TR0176_165 Dn,11:16:00,11:18:00,STR00387,13
TR0176_165 Dn,11:29:00,11:30:00,STR00386,14
TR0176_165 Dn,11:36:00,11:37:00,STR00385,15
TR0176_165 Dn,11:45:00,11:46:00,STR00384,16
TR0176_165 Dn,12:10:00,12:20:00,STR00383,17
TR0176_165 Dn,12:30:00,12:31:00,STR00382,18
TR0176_165 Dn,12:53:00,12:55:00,STR00381,19
TR0176_165 Dn,13:43:00,13:44:00,STR00380,20
TR0176_165 Dn,14:01:00,14:02:00,STR00379,21
TR0176_165 Dn,14:12:00,14:13:00,STR00378,22
TR0176_165 Dn,14:23:00,14:38:00,STR00377,23
TR0176_165 Dn,15:29:00,15:31:00,STR00373,24
TR0176_165 Dn,15:56:00,15:58:00,STR00372,25
TR0176_165 Dn,16:18:00,16:20:00,STR00371,26
TR0176_165 Dn,16:44:00,16:45:00,STR00370,27
TR0176_165 Dn,17:05:00,17:07:00,STR00368,28
TR0176_165 Dn,17:33:00,17:35:00,STR00364,29
TR0176_165 Dn,18:05:00,18:07:00,STR00362,30
TR0176_165 Dn,18:47:00,18:49:00,STR00359,31
TR0176_165 Dn,19:17:00,19:19:00,STR00357,32
TR0176_165 Dn,20:25:00,20:55:00,STR00351_RMAW,33
TR0176_165 Dn,22:16:00,22:18:00,STR00343_RPAU,34
TR0176_165 Dn,23:15:00,23:17:00,STR00337_RTHT,35
TR0176_165 Dn,0:16:00,0:21:00,STR00329_RHPL,36
TR0176_165 Dn,0:40:00,0:42:00,STR00327_RTSA,37
TR0176_165 Dn,0:00:00,0:58:00,STR00325_RMYG,38
TR0176_165 Dn,1:11:00,1:14:00,STR00323_RKHO,39
TR0176_165 Dn,1:27:00,1:33:00,STR00321_RBYG,40
TR0176_165 Dn,2:26:00,2:29:00,STR00315_RTZY,41
TR0176_165 Dn,3:20:00,3:22:00,STR00309_RWOR,42
TR0176_165 Dn,4:10:00,4:13:00,STR00013_RBGO,43
TR0176_165 Dn,6:20:00,6:20:00,STR00001_RRGN,44
TR0175_175 Up,18:25:00,18:25:00,STR00001_RRGN,1
TR0175_175 Up,20:14:00,20:19:00,STR00013_RBGO,2
TR0175_175 Up,21:06:00,21:08:00,STR00309_RWOR,3
TR0175_175 Up,21:57:00,22:00:00,STR00315_RTZY,4
TR0175_175 Up,23:04:00,23:07:00,STR00323_RKHO,5
TR0175_175 Up,23:22:00,23:31:00,STR00325_RMYG,6
TR0175_175 Up,23:48:00,23:50:00,STR00327_RTSA,7
TR0175_175 Up,24:10:00,24:19:00,STR00329_RHPL,8
TR0175_175 Up,25:25:00,25:27:00,STR00337_RTHT,9
TR0175_175 Up,26:27:00,26:29:00,STR00343_RPAU,10
TR0175_175 Up,28:00:00,28:30:00,STR00351_RMAW,11
TR0175_175 Up,29:34:00,29:36:00,STR00357,12
TR0175_175 Up,30:05:00,30:06:00,STR00359,13
TR0175_175 Up,30:43:00,30:45:00,STR00362,14
TR0175_175 Up,31:15:00,31:16:00,STR00364,15
TR0175_175 Up,31:42:00,31:43:00,STR00368,16
TR0175_175 Up,32:03:00,32:04:00,STR00370,17
TR0175_175 Up,32:27:00,32:29:00,STR00371,18
TR0175_175 Up,32:51:00,32:53:00,STR00372,19
TR0175_175 Up,33:17:00,33:18:00,STR00373,20
TR0175_175 Up,34:10:00,34:25:00,STR00377,21
TR0175_175 Up,34:36:00,34:37:00,STR00378,22
TR0175_175 Up,34:47:00,34:48:00,STR00379,23
TR0175_175 Up,34:55:00,34:56:00,STR00380,24
TR0175_175 Up,35:44:00,35:46:00,STR00381,25
TR0175_175 Up,36:06:00,36:07:00,STR00382,26
TR0175_175 Up,36:17:00,36:19:00,STR00383,27
TR0175_175 Up,36:43:00,36:44:00,STR00384,28
TR0175_175 Up,36:52:00,36:53:00,STR00385,29
TR0175_175 Up,36:59:00,37:00:00,STR00386,30
TR0175_175 Up,37:11:00,37:13:00,STR00387,31
TR0175_175 Up,37:31:00,37:32:00,STR00388,32
TR0175_175 Up,38:01:00,38:02:00,STR00389,33
TR0175_175 Up,38:22:00,38:23:00,STR00390,34
TR0175_175 Up,38:52:00,38:54:00,STR00391,35
TR0175_175 Up,39:12:00,39:13:00,STR00392,36
TR0175_175 Up,39:46:00,39:48:00,STR00393,37
TR0175_175 Up,40:29:00,40:30:00,STR00394,38
TR0175_175 Up,41:32:00,41:33:00,STR00395,39
TR0175_175 Up,41:51:00,41:53:00,STR00396,40
TR0175_175 Up,41:59:00,42:00:00,STR00397,41
TR0175_175 Up,42:21:00,42:22:00,STR00398,42
TR0175_175 Up,42:34:00,42:37:00,STR00399,43
TR0175_175 Up,43:00:00,43:00:00,STR00400,44
TR0176_176 Dn,5:40:00,5:40:00,STR00400,1
TR0176_176 Dn,5:58:00,6:01:00,STR00399,2
TR0176_176 Dn,6:09:00,6:10:00,STR00398,3
TR0176_176 Dn,6:29:00,6:30:00,STR00397,4
TR0176_176 Dn,6:36:00,6:38:00,STR00396,5
TR0176_176 Dn,7:59:00,8:00:00,STR00394,6
TR0176_176 Dn,8:41:00,8:43:00,STR00393,7
TR0176_176 Dn,9:16:00,9:17:00,STR00392,8
TR0176_176 Dn,9:35:00,9:37:00,STR00391,9
TR0176_176 Dn,10:06:00,10:07:00,STR00390,10
TR0176_176 Dn,10:27:00,10:28:00,STR00389,11
TR0176_176 Dn,10:57:00,10:58:00,STR00388,12
TR0176_176 Dn,11:16:00,11:18:00,STR00387,13
TR0176_176 Dn,11:29:00,11:30:00,STR00386,14
TR0176_176 Dn,11:36:00,11:37:00,STR00385,15
TR0176_176 Dn,11:45:00,11:46:00,STR00384,16
TR0176_176 Dn,12:10:00,12:20:00,STR00383,17
TR0176_176 Dn,12:30:00,12:31:00,STR00382,18
TR0176_176 Dn,12:53:00,12:55:00,STR00381,19
TR0176_176 Dn,13:43:00,13:44:00,STR00380,20
TR0176_176 Dn,14:01:00,14:02:00,STR00379,21
TR0176_176 Dn,14:12:00,14:13:00,STR00378,22
TR0176_176 Dn,14:23:00,14:38:00,STR00377,23
TR0176_176 Dn,15:29:00,15:31:00,STR00373,24
TR0176_176 Dn,15:56:00,15:58:00,STR00372,25
TR0176_176 Dn,16:18:00,16:20:00,STR00371,26
TR0176_176 Dn,16:44:00,16:45:00,STR00370,27
TR0176_176 Dn,17:05:00,17:07:00,STR00368,28
TR0176_176 Dn,17:33:00,17:35:00,STR00364,29
TR0176_176 Dn,18:05:00,18:07:00,STR00362,30
TR0176_176 Dn,18:47:00,18:49:00,STR00359,31
TR0176_176 Dn,19:17:00,19:19:00,STR00357,32
TR0176_176 Dn,20:25:00,20:55:00,STR00351_RMAW,33
TR0176_176 Dn,22:16:00,22:18:00,STR00343_RPAU,34
TR0176_176 Dn,23:15:00,23:17:00,STR00337_RTHT,35
TR0176_176 Dn,24:16:00,24:21:00,STR00329_RHPL,36
TR0176_176 Dn,24:40:00,24:42:00,STR00327_RTSA,37
TR0176_176 Dn,24:00:00,24:58:00,STR00325_RMYG,38
TR0176_176 Dn,25:11:00,25:14:00,STR00323_RKHO,39
TR0176_176 Dn,25:27:00,25:33:00,STR00321_RBYG,40
TR0176_176 Dn,26:26:00,26:29:00,STR00315_RTZY,41
TR0176_176 Dn,27:20:00,27:22:00,STR00309_RWOR,42
TR0176_176 Dn,28:10:00,28:13:00,STR00013_RBGO,43
TR0176_176 Dn,30:20:00,30:20:00,STR00001_RRGN,44
