Stations,Lat,Long,zone_id,stop_url,location_type,parent_station,stop_timezone,wheelchair_boarding
Yangon Central Station,16.781174,96.161419,,,,,,
Puzundaung Station,16.786415,96.175177,,,,,,
Ma Hlwa Gone Station,16.802689,96.18162,,,,,,
Thin Gan Gyun Station,16.828493,96.196376,,,,,,
Toe Kyaung Ka Lay Station,16.862804,96.215116,,,,,,
Ywar Thar Gyi Station,16.931075,96.264905,,,,,,
Lay Daunt Kan Station,16.964706,96.294694,,,,,,
Dar Pein Station,17.033603,96.364854,,,,,,
Kort Che Station*,17.082586,96.406782,,,,,,
Htone Gyi Station,17.111033,96.444954,,,,,,
Kyauk Tann Station,17.15867,96.478672,,,,,,
Tar Wa Station,17.214219,96.47907,,,,,,
Phayar Thone Su Station,17.278241,96.481673,,,,,,
Bago Station,17.334929,96.474938,,,,,,
Shwe Hlay Station,17.407748,96.493658,,,,,,
Phayargyi Station,17.47797,96.521528,,,,,,
Pyin Pone Gyi Station,17.585973,96.558885,,,,,,
Kadote Station,17.672079,96.59375,,,,,,
Hpaung Taw Thi Station,17.730579,96.626558,,,,,,
Ainchay Layse Station,17.768564,96.651941,,,,,,
Diak-U Station,17.796501,96.668379,,,,,,
Pyuntasar Station,17.880616,96.717403,,,,,,
Nyaung Lay Pin Station,17.953525,96.720091,,,,,,
Taw Wi Station,18.015582,96.703858,,,,,,
Pein Za Loke Station,18.069167,96.668694,,,,,,
Thu Htay Kone Station,18.121286,96.633857,,,,,,
Kyauktaga Station,18.156006,96.610925,,,,,,
Pe Nwe Gone Station,18.224124,96.565606,,,,,,
Taw Kwel Inn Station,18.280077,96.52858,,,,,,
Ka Nyut Kwin Station,18.340676,96.491878,,,,,,
Nyaung Pin Thar Station,18.403524,96.462149,,,,,,
Phyu Station,18.482051,96.436967,,,,,,
Zay Ya Wa Di Station,18.541201,96.431462,,,,,,
Nyaung Chay Htout Station,18.613416,96.419478,,,,,,
Kywe Bwe Station*,18.700857,96.409709,,,,,,
Bant Bwe Kone Station*,18.753892,96.40862,,,,,,
Ok Twin Station,18.832129,96.41145,,,,,,
Thaung Tine Kone Station,18.878633,96.425166,,,,,,
Taungoo Station,18.935435,96.437212,,,,,,
Kyay Tor Station*,18.964407,96.426312,,,,,,
Kyun Kone Station,19.041903,96.363374,,,,,,
Ye Tar Shay Station,19.155101,96.343124,,,,,,
Kone Gyi Station*,19.206704,96.316573,,,,,,
Swar Station,19.263895,96.291639,,,,,,
Thagaya Station*,19.322176,96.287248,,,,,,
Myo Hla Station,19.401121,96.266079,,,,,,
Yay Ni Station,19.476839,96.264426,,,,,,
Thar Wut Hti Station,19.527825,96.247663,,,,,,
Aye Lar Station,19.619628,96.23379,,,,,,
Pyi Win Station*,19.670118,96.234546,,,,,,
Pyinmana Station,19.736269,96.206757,,,,,,
Ywadaw Station,19.806058,96.191443,,,,,,
Nay Pyi Taw Station,19.848708,96.196804,,,,,,
Kyidaunggan Station,19.880533,96.200194,,,,,,
Pyokkwe Station,19.95198,96.223964,,,,,,
Sin Phyu Kyun Station*,19.99486,96.229472,,,,,,
Shwe Myo Station*,20.042386,96.22977,,,,,,
Sin Thay Station*,20.099368,96.213962,,,,,,
Tat Kone Station,20.131459,96.198153,,,,,,
Magyipin Station,20.209725,96.180418,,,,,,
Nyaung Lun Station*,20.245211,96.182884,,,,,,
Nghet Thike Station*,20.272732,96.180215,,,,,,
Inn Kone Station*,20.33791,96.158325,,,,,,
Yamethin Station,20.428813,96.136808,,,,,,
Inn Kyin Kan Station*,20.467452,96.118468,,,,,,
Shwe Dar Station,20.523206,96.076892,,,,,,
Pyawbwe Station,20.589382,96.050982,,,,,,
Shan Ywa Station*,20.66292,96.069183,,,,,,
Nyaung Yan Station,20.753446,96.053877,,,,,,
Nwar Htoe Station*,20.797768,96.054011,,,,,,
Thazi Station,20.853954,96.057945,,,,,,
Ywar Pa Lae Station,20.906556,96.055,,,,,,
Hae Zar Station,20.989194,96.043284,,,,,,
Thea Daw Station,21.085862,96.05891,,,,,,
Sa Mhone Station,21.140739,96.069307,,,,,,
Tha Pyay Taun Station,21.280432,96.122007,,,,,,
Kume Lan Station,21.354209,96.12705,,,,,,
Myithar Station,21.434502,96.128722,,,,,,
Min Su Station,21.511939,96.13271,,,,,,
Kyauk Se Station,21.607842,96.135102,,,,,,
Baelin Station,21.669236,96.122405,,,,,,
Sint Kine Station,21.744034,96.091645,,,,,,
Palaik Station,21.813253,96.061298,,,,,,
Myitnge Station,21.855275,96.072251,,,,,,
Taguntine Station*,21.890342,96.074832,,,,,,
Myohaun Station*,21.937368,96.079323,,,,,,
Mandalay Central Station,21.977026,96.086119,,,,,,
Ywar Htaung Station,21.904942,95.971285,,,,,,
Sa Yay Station*,21.994701,95.9439,,,,,,
Pa Du Station*,22.033506,95.932612,,,,,,
Khetkha Station,22.097563,95.926439,,,,,,
Wetlet Station,22.368739,95.788992,,,,,,
Motesoe Chone Station,22.468307,95.749104,,,,,,
Shwebo Station,22.583422,95.694222,,,,,,
Khin-U Station,22.773434,95.618202,,,,,,
Madaung Hla Station,22.929766,95.563638,,,,,,
Htan Tapin Station,22.984496,95.538234,,,,,,
Nyaung Zin Station,23.001586,95.531823,,,,,,
Htan Kone Station,23.071679,95.50166,,,,,,
Kanbalu Station,23.204294,95.514789,,,,,,
Kyun Hla Station,23.322958,95.523469,,,,,,
Pint Thar Station,23.40316,95.598255,,,,,,
Chat Kyi Station,23.451534,95.655492,,,,,,
Chat Thin Station,23.61257,95.671515,,,,,,
Kotaun Bo Station,23.676511,95.680926,,,,,,
Kawlin Station,23.791804,95.678526,,,,,,
Wuntho Station,23.899896,95.692189,,,,,,
Gyo Taun Station,23.996028,95.892797,,,,,,
Nankham Station,24.048946,95.97374,,,,,,
Bonchaung Station,24.102455,95.996665,,,,,,
Meza Station,24.139378,96.037687,,,,,,
Sei Ywar Station,24.211336,96.083643,,,,,,
Inndaw Station,24.218493,96.143352,,,,,,
Nabar Station,24.252594,96.180834,,,,,,
Pinwe Station,24.340329,96.194596,,,,,,
Maw Luu Station,24.46821,96.180422,,,,,,
Nansiaung Station,24.54393,96.198348,,,,,,
Mawhun Station,24.632789,96.212879,,,,,,
Kardu Station,24.741739,96.281121,,,,,,
Mohnyin Station,24.777629,96.359021,,,,,,
Nan Mar Station,24.875156,96.436976,,,,,,
MyothIt Kalay Station,24.941115,96.48079,,,,,,
Hopin Station*,24.991676,96.528526,,,,,,
Nan Khwin Station,25.048029,96.591641,,,,,,
Pinbaw Station,25.09665,96.63803,,,,,,
Minkone Station,25.153849,96.697478,,,,,,
Taun Ni Station,25.182588,96.72839,,,,,,
Sahmaw Station,25.227649,96.793542,,,,,,
Mokaung Station,25.301181,96.940891,,,,,,
Nanmati Station,25.363366,97.002336,,,,,,
Mayann Station,25.342776,97.084323,,,,,,
Malikha  Station,25.365139,97.175302,,,,,,
Pyi Htaun Station,25.423327,97.248183,,,,,,
Myitkyina Station,25.381634,97.3983,,,,,,
Anesakhan Station,21.981904,96.403052,,,,,,
Pyin Oo Lwin Station,22.03579903,96.46396637,,,,,,
Gokhteik Station,22.351426,96.914071,,,,,,
Nawng Peng Station,22.471125,96.963468,,,,,,
Kyaukme Station,22.544036,97.031059,,,,,,
Hispaw Station,22.618913,97.294229,,,,,,
Lashio Station,22.973581,97.731199,,,,,,
Kalaw Station,20.629075,96.568694,,,,,,
Aungban Station,20.654126,96.632342,,,,,,
Heho Station,20.729324,96.816768,,,,,,
Shwe Nyaung Station,20.765757,96.942555,,,,,,
Yauksauk Station,21.244226,96.876935,,,,,,
Tada-U Station,21.809333,95.96621,,,,,,
Myo Thar Station,21.68242,95.710804,,,,,,
Suu Phyu Gone Station,21.577296,95.681905,,,,,,
Wet Lu Station*,21.532855,95.729392,,,,,,
Ngwar Htoe Gyi Station*,21.432221,95.659517,,,,,,
Ywagyi Station*,21.460761,95.52875,,,,,,
Myingyan Station,21.459276,95.39603,,,,,,
Tamitethar,21.325816,95.252314,,,,,,
Kyawzi,21.299959,95.184017,,,,,,
Phet Tann Station*,21.325816,95.252314,,,,,,
Palinn Station*,21.21405,94.990394,,,,,,
Amarapura Station,21.904579,96.0487,,,,,,
Shwe Kyet Yat Station,21.889519,96.023344,,,,,,
Sagaing Station,21.880816,95.985415,,,,,,
Nga Ta Yaw Station*,21.959819,95.781759,,,,,,
Nyaung Pin Win  Station*,21.981014,95.680391,,,,,,
Myin Mu Station,21.941373,95.583677,,,,,,
Allagappa Station,21.934276,95.488052,,,,,,
Chaung-U Station,21.96025,95.28714,,,,,,
Kyay Mone Station*,22.027744,95.244969,,,,,,
Aung Thar Station*,22.063542,95.20021,,,,,,
Monywa Station,22.115769,95.136706,,,,,,
Nga Lone Tin Station*,21.870447,95.267655,,,,,,
Magin Bote Station*,21.806246,95.219156,,,,,,
Outto Station*,21.780038,95.168187,,,,,,
Ma Au Station,21.738321,95.184954,,,,,,
Yesakyo Station,21.639548,95.207465,,,,,,
Pa Khan Gyi Station,21.532938,95.194616,,,,,,
Sin Chaung Station*,21.442405,95.134191,,,,,,
Kyauk Hlaygar Station,21.36119,95.108703,,,,,,
Hsum Hsai Station,22.24722,96.643056,,,,,,
Nawnghkio Station,22.33652496,96.79402161,,,,,,
Phayagyi Station,17.478044,96.521206,,,,,,
Pagoda Road Station,16.781283,96.153554,,,,,,
Lanmadaw Station,16.781436,96.148005,,,,,,
Pyay Road Station,16.78437,96.14315,,,,,,
Shan Road Station,16.786592,96.134499,,,,,,
Ahlone Road Station,16.790569,96.131035,,,,,,
Panhlaing Road Station,16.796342,96.128277,,,,,,
Kemmendine Station,16.80664,96.126305,,,,,,
Hanthawaddy Station,16.817066,96.126375,,,,,,
Hletan Station,16.824336,96.124893,,,,,,
Kamayut Station,16.840059,96.120272,,,,,,
Thiri Myaing Station,16.849239,96.117753,,,,,,
Okkyin Station,16.854878,96.116333,,,,,,
Thamaing Station,16.860889,96.114794,,,,,,
Thamaing Myothit Station,16.867046,96.112965,,,,,,
Gyogon Station,16.874742,96.110832,,,,,,
Insein Station,16.885495,96.106908,,,,,,
Ywama Station,16.897973,96.098903,,,,,,
Phawkan Station,16.907385,96.09288,,,,,,
Aung San Myo Station,16.914948,96.092921,,,,,,
Danyingon Station,16.932908,96.09386,,,,,,
Gout Kwin,16.935553,96.10449,,,,,,
Kyaikkale Station,16.940735,96.127479,,,,,,
Mingalardon Bazaar Station,16.937053,96.138569,,,,,,
Mingalardon Station,16.930804,96.144991,,,,,,
Waibagi Station,16.921317,96.147058,,,,,,
Okkalapa Station,16.906954,96.147879,,,,,,
Paywetseikkon Station,16.900317,96.150404,,,,,,
Kyaukyedwin Station,16.889836,96.152973,,,,,,
Tadarlay Station,16.878363,96.155409,,,,,,
Yegu Station,16.863784,96.158728,,,,,,
Payame Station,16.850962,96.165087,,,,,,
Kanbe Station,16.843467,96.169086,,,,,,
Bauktaw Station,16.829671,96.176093,,,,,,
Tamwe Station,16.821219,96.179042,,,,,,
Myitta Nyunt Station,16.812854,96.181983,,,,,,
Mahlwagon Station,16.802497,96.181599,,,,,,
Pazundaung Station,16.786415,96.175168,,,,,,
Ka Li Station,17.365431,96.511505,,,,,,
Naung Patayar Station*,17.420683,96.584279,,,,,,
Wor Station,17.477888,96.673796,,,,,,
Ah Byar Station*,17.500832,96.748726,,,,,,
Sat Thwar Kone Station,17.510899,96.822265,,,,,,
Thein Zayat Station,17.508213,96.884477,,,,,,
Moke Palin Station,17.436126,96.886211,,,,,,
Kyaik Kathar Station,17.358408,96.921268,,,,,,
Boyargyi Station*,17.330896,96.966616,,,,,,
Kyaikto Station,17.312155,97.021189,,,,,,
Mayangone Station,17.264479,97.082892,,,,,,
Taun Soon Station,17.209102,97.13551,,,,,,
Hnin Pale Station,17.180008,97.235862,,,,,,
Don Wann Station,17.142935,97.289909,,,,,,
Theinzeik Station*,17.064643,97.300057,,,,,,
Naung Kalar Station*,16.972586,97.335655,,,,,,
Tha Hton Station,16.916113,97.358205,,,,,,
Yinn Nyeim Station*,16.809722,97.37787,,,,,,
Zin Kyaik Station,16.691592,97.424416,,,,,,
Paun Station*,16.621494,97.454251,,,,,,
Kywe Cho Station*,16.590001,97.480576,,,,,,
The Phyu Kone Station*,16.546757,97.572482,,,,,,
Mottaya Station,16.532287,97.594484,,,,,,
Mawlamyine Station,16.471526,97.635886,,,,,,
Thayet Kone Station,,,,,,,,
Kort Khani Station,,,,,,,,
Phar Auk Station*,16.34255,97.677249,,,,,,
Meinkanein Station*,16.32352,97.698048,,,,,,
Kawkhapon Station*,16.286388,97.707491,,,,,,
Mudon Station,16.258613,97.707979,,,,,,
Torku Station,,,,,,,,
Kamarwat Station*,16.136055,97.71985,,,,,,
Kalorthort Station,,,,,,,,
Kum Lhwar Station,,,,,,,,
Thanphyu Zayat Station,,,,,,,,
Pa Nga Station,,,,,,,,
Kayotpi Station,,,,,,,,
Wae Kalaun Station,,,,,,,,
An Khe Station,,,,,,,,
Kor Lay Station,,,,,,,,
Win Htoo Station,,,,,,,,
Kyaung Ywar Station,,,,,,,,
Ah Nin Station,,,,,,,,
Hnit Kayin Station,,,,,,,,
Lamine Station,,,,,,,,
Taunbon Station,,,,,,,,
Pinewan Station,,,,,,,,
Payanmor Station,,,,,,,,
Palinetee Station,,,,,,,,
Ye Station,15.243853,97.843638,,,,,,
Chaung Taun Station,,,,,,,,
Kalorgyi Station,,,,,,,,
Komine Station,,,,,,,,
Pauk Pin Kwin Station,,,,,,,,
Kin Mon Chaung Station,,,,,,,,
Nat Kyi Sin Station,,,,,,,,
Sin Bon Station,,,,,,,,
Ye Ngan Gyi Station,,,,,,,,
Sin Swe Station,,,,,,,,
Min Thar Station,,,,,,,,
Sin Kuu Station,,,,,,,,
Aindayazar Station,,,,,,,,
Gangor Taun Station,,,,,,,,
Inn Phyar Station,,,,,,,,
Kalane Aung Station,,,,,,,,
Hein Ze Station,,,,,,,,
Thet Ke Kwet Station,,,,,,,,
Ye Phyu Station,,,,,,,,
Hgnin Htway Station,,,,,,,,
Maung Mae Shaun Station,,,,,,,,
Tha Pyay Chaung Station,,,,,,,,
Dawei Station,,,,,,,,
Dawei Port Station,14.05683,98.193152,,,,,,
Set Mhu Zone Station,"16.948074, 96.091102",,,,,,,
Shwe Pyi Thar Station,"16.959600, 96.087708",,,,,,,
Thar Du Kan Station,"16.971874, 96.084076",,,,,,,
Hlaw Kar Station,"16.998538, 96.076223",,,,,,,
Mo Kyo Pyit Station*,,,,,,,,
Mhaw Bi Station,"17.100942, 96.048770",,,,,,,
ေအာက္၀ါးနက္ေခ်ာင္း,,,,,,,,
War Net Chaung Station,,,,,,,,
လက္ပံတန္းစု,,,,,,,,
Phu Gyi,"17.244466, 96.008366",,,,,,,
ပိေတာက္တန္း,,,,,,,,
Taik Kyi Station,"17.314167, 95.964639",,,,,,,
Thanat Chaung Station,"17.375081, 95.935017",,,,,,,
ေရေက်ာ္,"17.442095, 95.900413",,,,,,,
Phalon Station,,,,,,,,
Okkan Station,"17.496007, 95.856297",,,,,,,
ငျဖဴကေလး,,,,,,,,
သံုးဆယ္,,,,,,,,
သံုးဆယ္ၿမိဳ႕မ,,,,,,,,
သာယာ၀တီ,17.654103,95.779124,,,,,,
အင္းရြာ,,,,,,,,
ျခေသၤ့ကုန္း,,,,,,,,
လက္ပံတန္း,17.782485,95.747588,,,,,,
၀က္လွကေလး,,,,,,,,
၀က္လွကေလးရြာမ,,,,,,,,
စစ္ကြင္း,,,,,,,,
ဆင္အိုင္,,,,,,,,
Min Hla Station,,,,,,,,
အိုးသည္ကုန္း,,,,,,,,
အုတ္ဖို,18.127234,95.672694,,,,,,
သင္မန္းကုန္း,,,,,,,,
ႀကိဳ႕ပင္ေကာက္,,,,,,,,
ခုနစ္ရြာ,,,,,,,,
ဇီးကုန္း,18.332814,95.62537,,,,,,
နတ္ၱလင္း,18.42968,95.554865,,,,,,
ေပါင္းတည္,18.494144,95.508356,,,,,,
ေတာင္ဘို႔လွ,,,,,,,,
ေလာင္းႀကီး,,,,,,,,
ပုတီးကုန္း,,,,,,,,
သဲေက်ာ,,,,,,,,
သဲကုန္း,18.647872,95.414344,,,,,,
အုတ္တြင္းကုန္း,,,,,,,,
ဆင္ၿမီးဆဲြ,,,,,,,,
တရြာကုန္း,,,,,,,,
ေမွာ္ဇာ,,,,,,,,
ေခတ္ၱရာ,,,,,,,,
ျပည္,18.820634,95.21702,,,,,,
ေမွာ္ဇာလမ္းဆုံ,,,,,,,,
ေရႊတံခါး,,,,,,,,
တီတြတ္,,,,,,,,
ဒုရဂၤဗို,,,,,,,,
ကြမ္းေလာင္း,,,,,,,,
ျပလုိ႔,,,,,,,,
ေထာက္ႀကံ့တုိင္,,,,,,,,
ေအာင္လံ,,,,,,,,
မိုးေကာင္းေလး,,,,,,,,
ဧကရာဇ္,,,,,,,,
ေလွ၀န္း,,,,,,,,
ေခ်ာင္းေကာက္ကုိးပင္,,,,,,,,
ပရပ္ၾကယ္,,,,,,,,
ဆတ္သြား,,,,,,,,
Taungdwingyi Station,20.001741,95.540278,,,,,,
ၿမိဳ႕လုလင္,,,,,,,,
ၿမိဳ႕သစ္,,,,,,,,
နတ္ေမာက္,,,,,,,,
ေလးအိမ္,,,,,,,,
သာျမွား,,,,,,,,
ပင္းေခ်ာင္း,,,,,,,,
ေညာင္တုိ,,,,,,,,
အင္ေတာက်ယ္,,,,,,,,
ေက်ာက္ပန္းေတာင္း,,,,,,,,
ကန္သာယာ,,,,,,,,
ငါ့မင္းေမး,,,,,,,,
စုတည္,,,,,,,,
ေတာင္ဇင္း,,,,,,,,
Bagan/Nyaung U Station,21.154557,94.935093,,,,,,
ပုလင္း,,,,,,,,
သစ္ေထာင့္,,,,,,,,
ပခုက္ၠဴတက္ၠသိုလ္,,,,,,,,
ထင္းတန္းလမ္း,,,,,,,,
Pakokku Station,21.349552,95.064872,,,,,,
