from_stop_id,to_stop_id,transfer_type,min_transfer_time
STA00001_RGN,STR00001_RRGN,2,10800
STA00001_RGN,STB00001_BAMG,2,10800
STA00001_RGN,STB00005_BHTR,2,10800
STR00001_RRGN,STA00001_RGN,2,10800
STR00001_RRGN,STB00001_BAMG,2,10800
STB00001_BAMG,STB00005_BHTR,2,10800
STB00001_BAMG,STR00001_RRGN,2,10800
STB00001_BAMG,STA00001_RGN,2,10800
STB00005_BHTR,STB00001_BAMG,2,10800
STB00005_BHTR,STR00001_RRGN,2,10800
STB00005_BHTR,STA00001_RGN,2,10800
STA00003_NYU,STR00270_RBGN,2,10800
STA00003_NYU,STB00008_BBGN,2,10800
STR00270_RBGN,STA00003_NYU,2,10800
STR00270_RBGN,STB00008_BBGN,2,10800
STB00008_BBGN,STA00003_NYU,2,10800
STB00008_BBGN,STR00270_RBGN,2,10800
STA00002_MDL,STR00056_RMDL,2,10800
STA00002_MDL,STB00006_BMDL,2,10800
STR00056_RMDL,STA00002_MDL,2,10800
STR00056_RMDL,STB00006_BMDL,2,10800
STB00006_BMDL,STA00002_MDL,2,10800
STB00006_BMDL,STR00056_RMDL,2,10800
STR00515_RPOL,STB00012_BPOL,2,10800
STB00012_BPOL,STR00515_RPOL,2,10800
STR00049_RKYS,STB00018_BKSE,2,10800
STB00018_BKSE,STR00049_RKYS,2,10800
STR00013_RBGO,STB00019_BBGO,2,10800
STB00019_BBGO,STR00013_RBGO,2,10800
STA00017_NYT,STR00034_RNPT,2,10800
STA00017_NYT,STB00010_BNPT,2,10800
STR00034_RNPT,STB00010_BNPT,2,10800
STR00034_RNPT,STA00017_NYT,2,10800
STB00010_BNPT,STA00017_NYT,2,10800
STB00010_BNPT,STR00034_RNPT,2,10800
STR00036_RTKO,STB00011_BTKO,2,10800
STB00011_BTKO,STR00036_RTKO,2,10800
