stop_id,stop_code,stop_name,stop_desc,stop_lat,stop_lon,zone_id,stop-url,location_type,parent_station,stop_timezone,wheelchair_boarding
STR00001_RRGN,1,Yangon Central Station,,16.781174,96.161419,,,,,,
STR00002_RPZT,2,Puzundaung Station,,16.786415,96.175177,,,,,,
STR00003_RMLK,3,Ma Hlwa Gone Station,,16.802689,96.18162,,,,,,
STR00004_RTGK,4,Thin Gan Gyun Station,,16.828493,96.196376,,,,,,
STR00005_RTTK,5,Toe Kyaung Ka Lay Station,,16.862804,96.215116,,,,,,
STR00006_RYTG,6,Ywar Thar Gyi Station,,16.931075,96.264905,,,,,,
STR00007_RLDK,7,Lay Daunt Kan Station,,16.964706,96.294694,,,,,,
STR00008_RDAP,8,Dar Pein Station,,17.033603,96.364854,,,,,,
STR00058_RKOR,9,Kort Che Station*,,17.082586,96.406782,,,,,,
STR00009_RHTG,10,Htone Gyi Station,,17.111033,96.444954,,,,,,
STR00010_RKYT,11,Kyauk Tann Station,,17.15867,96.478672,,,,,,
STR00011_RTWA,12,Tar Wa Station,,17.214219,96.47907,,,,,,
STR00012_RPTS,13,Phayar Thone Su Station,,17.278241,96.481673,,,,,,
STR00013_RBGO,14,Bago Station,,17.334929,96.474938,,,,,,
STR00059_RSHW,15,Shwe Hlay Station,,17.407748,96.493658,,,,,,
STR00060_RPYG,16,Phayargyi Station,,17.47797,96.521528,,,,,,
STR00014_RPPG,17,Pyin Pone Gyi Station,,17.585973,96.558885,,,,,,
STR00061_RKDO,18,Kadote Station,,17.672079,96.59375,,,,,,
STR00015_RHTT,19,Hpaung Taw Thi Station,,17.730579,96.626558,,,,,,
STR00062_RAKL,20,Ainchay Layse Station,,17.768564,96.651941,,,,,,
STR00016_RDIU,21,Diak-U Station,,17.796501,96.668379,,,,,,
STR00017_RPTH,22,Pyuntasar Station,,17.880616,96.717403,,,,,,
STR00018_RNLP,23,Nyaung Lay Pin Station,,17.953525,96.720091,,,,,,
STR00063_RTWI,24,Taw Wi Station,,18.015582,96.703858,,,,,,
STR00019_RPZL,25,Pein Za Loke Station,,18.069167,96.668694,,,,,,
STR00064_RTHK,26,Thu Htay Kone Station,,18.121286,96.633857,,,,,,
STR00020_RKTG,27,Kyauktaga Station,,18.156006,96.610925,,,,,,
STR00021_RPNG,28,Pe Nwe Gone Station,,18.224124,96.565606,,,,,,
STR00065_RTKI,29,Taw Kwel Inn Station,,18.280077,96.52858,,,,,,
STR00022_RKNK,30,Ka Nyut Kwin Station,,18.340676,96.491878,,,,,,
STR00066_RNYP,31,Nyaung Pin Thar Station,,18.403524,96.462149,,,,,,
STR00023_RPHU,32,Phyu Station,,18.482051,96.436967,,,,,,
STR00024_RZYW,33,Zay Ya Wa Di Station,,18.541201,96.431462,,,,,,
STR00067_RNCH,34,Nyaung Chay Htout Station,,18.613416,96.419478,,,,,,
STR00068_RKBW,35,Kywe Bwe Station*,,18.700857,96.409709,,,,,,
STR00069_RBBK,36,Bant Bwe Kone Station*,,18.753892,96.40862,,,,,,
STR00025_ROKT,37,Ok Twin Station,,18.832129,96.41145,,,,,,
STR00070_RTTK,38,Thaung Tine Kone Station,,18.878633,96.425166,,,,,,
STR00026_RTGO,39,Taungoo Station,,18.935435,96.437212,,,,,,
STR00071_RKTO,40,Kyay Tor Station*,,18.964407,96.426312,,,,,,
STR00072_RKYK,41,Kyun Kone Station,,19.041903,96.363374,,,,,,
STR00027_RYTS,42,Ye Tar Shay Station,,19.155101,96.343124,,,,,,
STR00073_RKOG,43,Kone Gyi Station*,,19.206704,96.316573,,,,,,
STR00028_RSWA,44,Swar Station,,19.263895,96.291639,,,,,,
STR00074_RTGY,45,Thagaya Station*,,19.322176,96.287248,,,,,,
STR00029_RMHL,46,Myo Hla Station,,19.401121,96.266079,,,,,,
STR00030_RYAN,47,Yay Ni Station,,19.476839,96.264426,,,,,,
STR00031_RTWH,48,Thar Wut Hti Station,,19.527825,96.247663,,,,,,
STR00032_RAYL,49,Aye Lar Station,,19.619628,96.23379,,,,,,
STR00075_RPYW,50,Pyi Win Station*,,19.670118,96.234546,,,,,,
STR00033_RPMN,51,Pyinmana Station,,19.736269,96.206757,,,,,,
STR00076_RYDW,52,Ywadaw Station,,19.806058,96.191443,,,,,,
STR00034_RNPT,53,Nay Pyi Taw Station,,19.848708,96.196804,,,,,,
STR00035_RKDG,54,Kyidaunggan Station,,19.880533,96.200194,,,,,,
STR00077_RPKH,55,Pyokkwe Station,,19.95198,96.223964,,,,,,
STR00078_RSPK,56,Sin Phyu Kyun Station*,,19.99486,96.229472,,,,,,
STR00079_RSMY,57,Shwe Myo Station*,,20.042386,96.22977,,,,,,
STR00080_RSIN,58,Sin Thay Station*,,20.099368,96.213962,,,,,,
STR00036_RTKO,59,Tat Kone Station,,20.131459,96.198153,,,,,,
STR00081_RMKP,60,Magyipin Station,,20.209725,96.180418,,,,,,
STR00082_RNYL,61,Nyaung Lun Station*,,20.245211,96.182884,,,,,,
STR00083_RNGT,62,Nghet Thike Station*,,20.272732,96.180215,,,,,,
STR00084_RIKO,63,Inn Kone Station*,,20.33791,96.158325,,,,,,
STR00037_RYMT,64,Yamethin Station,,20.428813,96.136808,,,,,,
STR00085_RIKK,65,Inn Kyin Kan Station*,,20.467452,96.118468,,,,,,
STR00057_RSHD,66,Shwe Dar Station,,20.523206,96.076892,,,,,,
STR00038_RPBW,67,Pyawbwe Station,,20.589382,96.050982,,,,,,
STR00086_RSHW,68,Shan Ywa Station*,,20.66292,96.069183,,,,,,
STR00039_RNYA,69,Nyaung Yan Station,,20.753446,96.053877,,,,,,
STR00087_RNGH,70,Nwar Htoe Station*,,20.797768,96.054011,,,,,,
STR00040_RTHZ,71,Thazi Station,,20.853954,96.057945,,,,,,
STR00041_RYPL,72,Ywar Pa Lae Station,,20.906556,96.055,,,,,,
STR00042_RHZA,73,Hae Zar Station,,20.989194,96.043284,,,,,,
STR00043_RTDA,74,Thea Daw Station,,21.085862,96.05891,,,,,,
STR00044_RSMH,75,Sa Mhone Station,,21.140739,96.069307,,,,,,
STR00045_RTPT,76,Tha Pyay Taun Station,,21.280432,96.122007,,,,,,
STR00046_RKML,77,Kume Lan Station,,21.354209,96.12705,,,,,,
STR00047_RMTH,78,Myithar Station,,21.434502,96.128722,,,,,,
STR00048_RMSU,79,Min Su Station,,21.511939,96.13271,,,,,,
STR00049_RKYS,80,Kyauk Se Station,,21.607842,96.135102,,,,,,
STR00050_RBLI,81,Baelin Station,,21.669236,96.122405,,,,,,
STR00051_RSKI,82,Sint Kine Station,,21.744034,96.091645,,,,,,
STR00052_RPAL,83,Palaik Station,,21.813253,96.061298,,,,,,
STR00053_RMNG,84,Myitnge Station,,21.855275,96.072251,,,,,,
STR00054_RTTN,85,Taguntine Station*,,21.890342,96.074832,,,,,,
STR00055_RMYH,86,Myohaun Station*,,21.937368,96.079323,,,,,,
STR00056_RMDL,87,Mandalay Central Station,,21.977026,96.086119,,,,,,
STR00410_RYHT,,Ywar Htaung Station,,21.904942,95.971285,,,,,,
STR00411_RSAR,,Sa Yay Station*,,21.994701,95.9439,,,,,,
STR00412_RPAD,,Pa Du Station*,,22.033506,95.932612,,,,,,
STR00413_RKHE,,Khetkha Station,,22.097563,95.926439,,,,,,
STR00416_RWET,,Wetlet Station,,22.368739,95.788992,,,,,,
STR00417_RMOT,,Motesoe Chone Station,,22.468307,95.749104,,,,,,
STR00420_RSBO,,Shwebo Station,,22.583422,95.694222,,,,,,
STR00422_RKHI,,Khin-U Station,,22.773434,95.618202,,,,,,
STR00423_RMAD,,Madaung Hla Station,,22.929766,95.563638,,,,,,
STR00424_RHTP,,Htan Tapin Station,,22.984496,95.538234,,,,,,
STR00425_RNYZ,,Nyaung Zin Station,,23.001586,95.531823,,,,,,
STR00426_RHTA,,Htan Kone Station,,23.071679,95.50166,,,,,,
STR00427_RKAN,,Kanbalu Station,,23.204294,95.514789,,,,,,
STR00428_RKYU,,Kyun Hla Station,,23.322958,95.523469,,,,,,
STR00429_RPIT,,Pint Thar Station,,23.40316,95.598255,,,,,,
STR00430_RCKY,,Chat Kyi Station,,23.451534,95.655492,,,,,,
STR00431_RCTH,,Chat Thin Station,,23.61257,95.671515,,,,,,
STR00434_RKOE,,Kotaun Bo Station,,23.676511,95.680926,,,,,,
STR00440_RKAW,,Kawlin Station,,23.791804,95.678526,,,,,,
STR00441_RWUN,,Wuntho Station,,23.899896,95.692189,,,,,,
STR00443_RGYO,,Gyo Taun Station,,23.996028,95.892797,,,,,,
STR00444_RNAN,,Nankham Station,,24.048946,95.97374,,,,,,
STR00445_RBON,,Bonchaung Station,,24.102455,95.996665,,,,,,
STR00446_RMEZ,,Meza Station,,24.139378,96.037687,,,,,,
STR00447_RSEI,,Sei Ywar Station,,24.211336,96.083643,,,,,,
STR00448_RINN,,Inndaw Station,,24.218493,96.143352,,,,,,
STR00449_RNAB,,Nabar Station,,24.252594,96.180834,,,,,,
STR00450_RPIN,,Pinwe Station,,24.340329,96.194596,,,,,,
STR00451_RMAW,,Maw Luu Station,,24.46821,96.180422,,,,,,
STR00452_RNAN,,Nansiaung Station,,24.54393,96.198348,,,,,,
STR00453_RMAH,,Mawhun Station,,24.632789,96.212879,,,,,,
STR00454_RKAR,,Kardu Station,,24.741739,96.281121,,,,,,
STR00455_RMOH,,Mohnyin Station,,24.777629,96.359021,,,,,,
STR00456_RNMA,,Nan Mar Station,,24.875156,96.436976,,,,,,
STR00457_RMYO,,MyothIt Kalay Station,,24.941115,96.48079,,,,,,
STR00458_RHOP,,Hopin Station*,,24.991676,96.528526,,,,,,
STR00459_RNKH,,Nan Khwin Station,,25.048029,96.591641,,,,,,
STR00460_RPBA,,Pinbaw Station,,25.09665,96.63803,,,,,,
STR00461_RMIN,,Minkone Station,,25.153849,96.697478,,,,,,
STR00462_RTNI,,Taun Ni Station,,25.182588,96.72839,,,,,,
STR00463_RSAH,,Sahmaw Station,,25.227649,96.793542,,,,,,
STR00465_RMOK,,Mokaung Station,,25.301181,96.940891,,,,,,
STR00466_RNMT,,Nanmati Station,,25.363366,97.002336,,,,,,
STR00467_RMAY,,Mayann Station,,25.342776,97.084323,,,,,,
STR00468_RMAL,,Malikha Station,,25.365139,97.175302,,,,,,
STR00469_RPYI,,Pyi Htaun Station,,25.423327,97.248183,,,,,,
STR00480_RMYI,,Myitkyina Station,,25.381634,97.3983,,,,,,
STR00910_RKLW,,Kalaw Station,,20.629075,96.568694,,,,,,
STR00920_RABAN,,Aungban Station,,20.654126,96.632342,,,,,,
STR00930_RHEH,,Heho Station,,20.729324,96.816768,,,,,,
STR00940_RSNY,,Shwe Nyaung Station,,20.765757,96.942555,,,,,,
STR00950_RYAK,,Yauksauk Station,,21.244226,96.876935,,,,,,
STR01002_RTDU,,Tada-U Station,,21.809333,95.96621,,,,,,
STR01004_RMYT,,Myo Thar Station,,21.68242,95.710804,,,,,,
STR01006_RSPG,,Suu Phyu Gone Station,,21.577296,95.681905,,,,,,
STR01008_RWEL,,Wet Lu Station*,,21.532855,95.729392,,,,,,
STR01010_RNHG,,Ngwar Htoe Gyi Station*,,21.432221,95.659517,,,,,,
STR01012_RYWA,,Ywagyi Station*,,21.460761,95.52875,,,,,,
STR01014_RMGN,,Myingyan Station,,21.459276,95.39603,,,,,,
STR01016_RTMT,,Tamitethar,,21.325816,95.252314,,,,,,
STR01018_RKZI,,Kyawzi,,21.299959,95.184017,,,,,,
STR01020_RPHT,,Phet Tann Station*,,21.325816,95.252314,,,,,,
STR01022_RPLI,,Palinn Station*,,21.21405,94.990394,,,,,,
STR01102_RAMA,,Amarapura Station,,21.904579,96.0487,,,,,,
STR01104_RSKY,,Shwe Kyet Yat Station,,21.889519,96.023344,,,,,,
STR01106_RSGG,,Sagaing Station,,21.880816,95.985415,,,,,,
STR01108_RNTY,,Nga Ta Yaw Station*,,21.959819,95.781759,,,,,,
STR01110_RNPW,,Nyaung Pin Win Station*,,21.981014,95.680391,,,,,,
STR01112_RMMU,,Myin Mu Station,,21.941373,95.583677,,,,,,
STR01114_RALL,,Allagappa Station,,21.934276,95.488052,,,,,,
STR01116_RCHU,,Chaung-U Station,,21.96025,95.28714,,,,,,
STR01118_RKYM,,Kyay Mone Station*,,22.027744,95.244969,,,,,,
STR01120_RATH,,Aung Thar Station*,,22.063542,95.20021,,,,,,
STR01122_RMYW,,Monywa Station,,22.115769,95.136706,,,,,,
STR00305_RKAL,,Ka Li Station,,17.365431,96.511505,,,,,,
STR00307_RNPT,,Naung Patayar Station*,,17.420683,96.584279,,,,,,
STR00309_RWOR,,Wor Station,,17.477888,96.673796,,,,,,
STR00311_RABY,,Ah Byar Station*,,17.500832,96.748726,,,,,,
STR00313_RSTK,,Sat Thwar Kone Station,,17.510899,96.822265,,,,,,
STR00315_RTZY,,Thein Zayat Station,,17.508213,96.884477,,,,,,
STR00317_RMPL,,Moke Palin Station,,17.436126,96.886211,,,,,,
STR00319_RKKT,,Kyaik Kathar Station,,17.358408,96.921268,,,,,,
STR00321_RBYG,,Boyargyi Station*,,17.330896,96.966616,,,,,,
STR00323_RKHO,,Kyaikto Station,,17.312155,97.021189,,,,,,
STR00325_RMYG,,Mayangone Station,,17.264479,97.082892,,,,,,
STR00327_RTSA,,Taun Soon Station,,17.209102,97.13551,,,,,,
STR00329_RHPL,,Hnin Pale Station,,17.180008,97.235862,,,,,,
STR00331_RDWN,,Don Wann Station,,17.142935,97.289909,,,,,,
STR00333_RTZE,,Theinzeik Station*,,17.064643,97.300057,,,,,,
STR00335_RNKL,,Naung Kalar Station*,,16.972586,97.335655,,,,,,
STR00337_RTHT,,Tha Hton Station,,16.916113,97.358205,,,,,,
STR00339_RYNY,,Yinn Nyeim Station*,,16.809722,97.37787,,,,,,
STR00341_RZIN,,Zin Kyaik Station,,16.691592,97.424416,,,,,,
STR00343_RPAU,,Paun Station*,,16.621494,97.454251,,,,,,
STR00345_RKCH,,Kywe Cho Station*,,16.590001,97.480576,,,,,,
STR00347_RTPK,,The Phyu Kone Station*,,16.546757,97.572482,,,,,,
STR00349_RMTY,,Mottaya Station,,16.532287,97.594484,,,,,,
STR00351_RMAW,,Mawlamyine Station,,16.471526,97.635886,,,,,,
STR00352,,Thayet Kone Station*,,16.42588,97.621667,,,,,,
STR00353,,Kort Khani Station*,,16.379333,97.648045,,,,,,
STR00354,,Phar Auk Station*,,16.34255,97.677249,,,,,,
STR00355,,Meinkanein Station*,,16.32352,97.698048,,,,,,
STR00356,,Kawkhapon Station*,,16.286388,97.707491,,,,,,
STR00357,,Mudon Station,,16.258613,97.707979,,,,,,
STR00358,,Torku Station*,,16.184869,97.72136,,,,,,
STR00359,,Kamarwat Station*,,16.136055,97.71985,,,,,,
STR00360,,Kalorthort Station,,16.106695,97.726265,,,,,,
STR00361,,Kum Lhwar Station,,16.028867,97.732707,,,,,,
STR00362,,Thanphyu Zayat Station,,15.97426,97.72223,,,,,,
STR00363,,Pa Nga Station,,15.894059,97.730432,,,,,,
STR00364,,Kayotpi Station*,,15.859109,97.73373,,,,,,
STR00365,,Wae Kalaun Station,,15.827792,97.735889,,,,,,
STR00366,,An Khe Station*,,15.747284,97.748972,,,,,,
STR00367,,Kor Lay Station,,15.738794,97.748915,,,,,,
STR00368,,Win Htoo Station*,,15.728794,97.758915,,,,,,
STR00369,,Kyaung Ywar Station*,,15.704672,97.764647,,,,,,
STR00370,,Ah Nin Station,,15.671099,97.773782,,,,,,
STR00371,,Hnit Kayin Station,,15.569844,97.794333,,,,,,
STR00372,,Lamine Station,,15.500248,97.827569,,,,,,
STR00373,,Taunbon Station,,15.414879,97.82042,,,,,,
STR00374,,Pinewan Station*,,15.378615,97.792727,,,,,,
STR00375,,Payanmor Station*,,15.348022,97.797087,,,,,,
STR00376,,Palinetee Station,,15.307508,97.81092,,,,,,
STR00377,,Ye Station,,15.243853,97.843638,,,,,,
STR00378,,Chaung Taun Station,,15.231252,97.851936,,,,,,
STR00379,,Kalorgyi Station*,,15.193882,97.873782,,,,,,
STR00380,,Ko Maing Station,,15.144993,97.898275,,,,,,
STR00381,,Pauk Pin Kwin Station*,,15.11555,97.908021,,,,,,
STR00382,,Kin Mon Chaung Station*,,15.025848,97.926331,,,,,,
STR00383,,Nat Kyi Zin Station,,14.921198,97.940776,,,,,,
STR00384,,Sin Bon Station*,,14.868943,97.954723,,,,,,
STR00385,,Ye Ngan Gyi Station*,,14.839902,97.978416,,,,,,
STR00386,,Sin Swe Station*,,14.815542,97.98458,,,,,,
STR00387,,Min Thar Station*,,14.796071,97.982639,,,,,,
STR00388,,Sin Kuu Station*,,14.763959,97.996645,,,,,,
STR00389,,Aindayazar Station*,,14.75216,98.001403,,,,,,
STR00390,,Gangor Taun Station*,,14.711987,98.008065,,,,,,
STR00391,,Inn Phyar Station*,,14.68794,98.049013,,,,,,
STR00392,,Kalane Aung Station*,,14.629979,98.068415,,,,,,
STR00393,,Hein Ze Station,,14.600438,98.174601,,,,,,
STR00394,,Thet Ke Kwet Station,,14.595235,98.078848,,,,,,
STR00395,,Ye Phyu Station*,,14.234849,98.21013,,,,,,
STR00396,,Hgnin Htway Station*,,14.131462,98.222333,,,,,,
STR00397,,Maung Mae Shaun Station*,,14.131093,98.222416,,,,,,
STR00398,,Tha Pyay Chaung Station*,,14.106991,98.225151,,,,,,
STR00399,,Dawei Station,,14.091789,98.226065,,,,,,
STR00400,,Dawei Port Station,,14.05683,98.193152,,,,,,
STR00501,,Shansu Station*,ရှမ်းစု,21.928379,96.098684,1,,,,,
STR00502,,Tho Chon Station*,သိုးခြုံ,21.921935,96.114456,1,,,,,
STR00504,,Htone Pho Station*,ထုံးဖို,21.881268,96.212874,1,,,,,
STR00506,,Si Taw Station*,ဆည်တော်,21.879549,96.234141,1,,,,,
STR00508,,Satoteta Lunhtoe Station*,စတုတ္ထလွန်းထိုး,21.893822,96.262213,1,,,,,
STR00510,,Zeepingyi Station*,ဇီးပင်ကြီး,21.892123,96.316925,1,,,,,
STR00512,,Thone Taung Station*,သုံးတောင်,21.920034,96.354637,1,,,,,
STR00514,,Anesakhan Station,အနီးစခန်း,21.981904,96.403052,1,,,,,
STR00516,,Pyin Oo Lwin Station,ပြင်ဦးလွင်,22.03579903,96.46396637,1,,,,,
STR00518,,Pwe Kaut Station,ပွဲကောက်,22.070179,96.537555,1,,,,,
STR00520,,Wet Won Station,၀က်၀ံ,22.112636,96.6011,1,,,,,
STR00522,,Sin Lan Su Station,ဆင်လမ်းစု,22.175003,96.615556,1,,,,,
STR00524,,Hsum Hsai Station*,ဆမ်ဆယ်,22.24722,96.643056,1,,,,,
STR00526,,Naung Cho Station*,နောင်ချို,22.336606,96.794052,1,,,,,
STR00528,,Gokhteik Station,ဂုတ်ထိပ်,22.33799,96.855759,1,,,,,
STR00530,,Nawng Peng Station,နောင်ပိန်,22.349617,96.848852,1,,,,,
STR00532,,Sakhan Thar Station,စခန်းသာ,22.35124,96.914063,1,,,,,
STR00534,,Kyaukme Station,ကျောက်မဲ,22.544036,97.031059,1,,,,,
STR00536,,Lwe Kaw Station,လွယ်ကော်,22.552391,97.152821,1,,,,,
STR00538,,Baung Cho Station*,ဘော်ကြို,22.580384,97.230333,1,,,,,
STR00540,,Hispaw Station,သီပေါ,22.618913,97.294229,1,,,,,
STR00542,,Tar Pale Station**,တာပုလဲ,22.626486,97.357863,1,,,,,
STR00544,,Sint Ann Station**,စဉ့်အင်,22.671132,97.411551,1,,,,,
STR00546,,Mann San Yaytakhun Station**,မန်းဆန်ရေတံခွန်,22.725998,97.472147,1,,,,,
STR00548,,Mann Pwe Station**,မန်းပွဲ,22.84428,97.590842,1,,,,,
STR00550,,Nan Mhyaw Station**,နန်းမျှော်,22.945767,97.666532,1,,,,,
STR00552,,Lashio Station,လားရှိုး,22.973581,97.731199,1,,,,,
STR00702,,Satmhu Zone Station,စက်မှုဇုံ,16.948074,96.091102,,,,,,
STR00704,,Shwepyithar Station,ရွှေပြည်သာ,16.9596,96.087708,,,,,,
STR00706,,Thardukan Station,သာဓုကန်,16.971874,96.084076,,,,,,
STR00708,,Hlawkar Station,လှော်ကား,16.998538,96.076223,,,,,,
STR00710,,Mokyopyit Station*,မိုးကြိုးပစ်*,17.056692,96.060622,,,,,,
STR00712,,Mhawbi Station,မှော်ဘီ,17.100942,96.04877,,,,,,
STR00714,,Out Wah Nat Chaung Station*,အောက်၀ါးနက်ချောင်း*,17.133196,96.046502,,,,,,
STR00716,,Wah Net Chaung Station*,၀ါးနက်ချောင်း,17.172917,96.050082,,,,,,
STR00718,,Latpadansu Station*,လက်ပံတန်းစု*,18.799653,95.249785,,,,,,
STR00720,,Phukyi Station,ဖူးကြီး,17.244466,96.008366,,,,,,
STR00722,,Padaukpan Station*,ပိတောက်တန်း*,18.799653,95.249785,,,,,,
STR00724,,Taik Kyi Station,တိုက်ကြီး,17.314167,95.964639,,,,,,
STR00726,,Thanat Chaun Station,သနပ်ချောင်း,17.375081,95.935017,,,,,,
STR00728,,Yay Kyaw Station,ရေကျော်,17.442095,95.900413,,,,,,
STR00730,,Phalon Station*,ဖလုံ*,17.375081,95.935017,,,,,,
STR00732,,Okekan Station,ဥက်္ကံ,17.496007,95.856297,,,,,,
STR00734,,Ngaphyukalay Station*,ငဖြူကလေးd*,17.55819,95.819898,,,,,,
STR00736,,Thonese Station*,သုံးဆယ်*,17.565071,95.816059,,,,,,
STR00738,,Thonese Myoma Station*,သုံးဆယ်မြို့မ*,17.614582,95.790326,,,,,,
STR00740,,Tharyawaddy Station,သာယာ၀တီ,17.654103,95.779124,,,,,,
STR00742,,Inywar Station*,အင်းရွာ*,17.67442,95.772761,,,,,,
STR00744,,Chinthay Kone Station*,ခြငေ်္သ့ကုန်း*,17.721978,95.762249,,,,,,
STR00746,,Latpadan Station,လက်ပံတန်း,17.782485,95.747588,,,,,,
STR00748,,Wet Hla Klay Station,၀က်လှကလေး.,17.863566,95.730834,,,,,,
STR00750,,Wet Hla Kalay Ywarma Station*,၀က်လှကလေးရွာမ.*,17.870458,95.729278,,,,,,
STR00752,,Sit Kwin Station,စစ်ကွင်း,17.892283,95.725192,,,,,,
STR00754,,Sin Ain Station*,ဆင်အိုင်*,17.948295,95.714592,,,,,,
STR00756,,Min Hla Station,မင်းလှ,17.97978,95.708046,,,,,,
STR00758,,O-thegone Station,အိုးသည်ကုန်း,18.041058,95.693808,,,,,,
STR00760,,Oak Pho Station,အုတ်ဖို,18.127234,95.672694,,,,,,
STR00762,,Thinmangone Station*,သင်မန်းကုန်း*,18.195925,95.655708,,,,,,
STR00764,,Kyotpinkaut Station,ကြို့ပင်ကောက်,18.231465,95.648213,,,,,,
STR00766,,Khuhnitywar Station*,ခုနစ်ရွာ*,18.268209,95.640849,,,,,,
STR00768,,Zigone Station,ဇီးကုန်း,18.332814,95.62537,,,,,,
STR00770,,Natalin Station,နတ်္တလင်း,18.42968,95.554865,,,,,,
STR00772,,Paungde Station,ပေါင်းတည်,18.494144,95.508356,,,,,,
STR00774,,Taunbohla Station*,တောင်ဘို့လှ*,18.521868,95.491507,,,,,,
STR00776,,Laungyi Station*,လောင်းကြီး*,18.550375,95.468777,,,,,,
STR00778,,Padikone Station*,ပုတီးကုန်း*,18.572848,95.458775,,,,,,
STR00780,,Thekyaw Station*,သဲကျော*,18.624144,95.508356,,,,,,
STR00782,,Thegon,သဲကုန်း,18.647872,95.414344,,,,,,
STR00784,,Oaktwingone Station*,အုတ်တွင်းကုန်း*,18.688023,95.398882,,,,,,
STR00786,,Sinmeswe Station*,ဆင်မြီးဆွဲ*,18.701693,95.387149,,,,,,
STR00788,,Taywargone Station*,တရွာကုန်း*,18.738181,95.358432,,,,,,
STR00790,,Mhaw Zar Station*,မှော်ဇာ.*,18.797425,95.308235,,,,,,
STR00792,,Khittayar Station*,ခေတ်္တရာ*,18.812419,95.292907,,,,,,
STR00794,,Pyi Station,ပြည်,18.820634,95.21702,,,,,,
STR07002,,Nyaun Wine Station*,ညောင်၀ိုင်း*,17.811986,95.699111,,,,,,
STR07004,,Kyauk Aine Station*,ကျောက်အိုင်.*,17.812508,95.65299,,,,,,
STR07006,,Khamonsate Station*,ခမုံဆိပ်*,17.806523,95.601197,,,,,,
STR07008,,Myitmakha Station*,မြစ်မခ*,17.807078,95.603236,,,,,,
STR07010,,Thanphyu Yone Station*,သံဖြူရုံ*,17.784485,95.556644,,,,,,
STR07012,,Kanyinto Station*,ကညင်တို*,17.771689,95.518707,,,,,,
STR07014,,Zeephyukone Station*,ဇီးဖြူကုန်း*,17.75888,95.506419,,,,,,
STR07016,,Zeepyhukone Ywarma Station*,ဇီးဖြူကုန်းရွာမ*,17.7451,95.493466,,,,,,
STR07018,,Tharyawor Station*,သာရေ၀ါ*,17.715288,95.467163,,,,,,
STR00802,,Mhyorzar Lansone Station*,မှော်ဇာလမ်းဆုံ,18.822095,95.243868,,,,,,
STR00804,,Shwe Dagar Station*,ရွှေတံခါး,18.825304,95.273873,,,,,,
STR00806,,Titwat Station*,တီတွတ်,18.908239,95.277595,,,,,,
STR00808,,Duyinbo Station*,ဒုရင်္ဂဗို,18.977666,95.252649,,,,,,
STR00810,,Kunlaun Station*,ကွမ်းလောင်း,19.052743,95.186826,,,,,,
STR00812,,Pyalo Station,ပြလို့,19.147951,95.187568,,,,,,
STR00814,,Htaut Kyant Tine Station*,ထောက်ကြံ့တိုင်,19.316107,95.238462,,,,,,
STR00816,,Aunglan Station,အောင်လံ,19.349081,95.225477,,,,,,
STR00818,,Moe Kaung Lay Station*,မိုးကောင်းလေး,19.414587,95.240598,,,,,,
STR00820,,Egkarit Station*,ဧကရာဇ်,19.553495,95.285879,,,,,,
STR00822,,Hlaywan Station,လှေ၀န်း,19.643237,95.333271,,,,,,
STR00824,,Chaung Kauk Koepin Station,ချောင်းကောက်ကိုးပင်,19.714375,95.374999,,,,,,
STR00826,,Payat Kyae Station*,ပရပ်ကြယ်,19.832408,95.458583,,,,,,
STR00828,,Sat Thwar Station,ဆတ်သွား,19.874021,95.568078,,,,,,
STR00830,,Taungdwingyi Station,တောင်တွင်းကြီး,20.001716,95.540366,,,,,,
STR00832,,Myo Lulin Station*,မြို့လုလင်,20.141766,95.486956,,,,,,
STR00834,,Myothit Station,မြို့သစ်,20.20623,95.447099,,,,,,
STR00836,,Nat Maut Station,နတ်မောက်,20.350591,95.390198,,,,,,
STR00838,,Lay Ain Station,လေးအိမ်,20.426276,95.423125,,,,,,
STR00840,,Thar Mhyar Station,သာမြှား,20.531062,95.334453,,,,,,
STR00842,,Pan Chaung Station,ပင်းချောင်း,20.68373,95.287564,,,,,,
STR00844,,Nyaung Toe Station,ညောင်တို,20.766842,95.241742,,,,,,
STR00846,,Inn Tawkyae Station,အင်တောကျယ်,20.811825,95.21274,,,,,,
STR00848,,Kyaukpadaung Station,ကျောက်ပန်းတောင်း,20.830874,95.125803,,,,,,
STR00850,,Kan Thar Yar Station*,ကန်သာယာ,20.863438,95.081798,,,,,,
STR00852,,Nga Minmay Station*,ငါ့မင်းမေး,20.941923,95.036222,,,,,,
STR00854,,Su Ti Station*,စုတည်,20.982391,95.003325,,,,,,
STR00856,,Taun Zin Station,တောင်ဇင်း,21.029409,95.001595,,,,,,
STR00858,,Bagan Station,ပုဂံ,21.154557,94.935093,,,,,,
STR00860,,Palinn Station,ပုလင်း,21.195024,94.963307,,,,,,
STR00862,,Thit Htaunt Station,သစ်ထောင့်,21.247559,95.043484,,,,,,
STR00864,,Pakokku University Station,ပခုက္ကူတက္ကသိုလ်,21.334612,95.055967,,,,,,
STR00866,,Htin Tann Lann Station,ထင်းတန်းလမ်း,21.352856,95.077516,,,,,,
STR00868,,Pakokku Station,ပခုက္ကူ,21.349552,95.064872,,,,,,
STR01109_RYTK,,Ywar Thit Kyi Station,ရွာသစ်ကြီး,21.959779,95.781755,,,,,,
STR01115_RNYK,,Nay Yan Kan Station,နတ်ရေကန်,21.934349,95.312535,,,,,,
STR01300,,Mhan Cho Station*,မှန်ချို,21.929138,95.286362,,,,,,
STR01302,,Ngalone Tin Station*,ငလုံးတင်,21.89898,95.282295,,,,,,
STR01304,,Ma Kyin Bote Station,မကျည်းဘုတ်,21.832931,95.246867,,,,,,
STR01306,,Taw Kyaung Kyi Station,တောကျောင်းကြီး,21.806244,95.21911,,,,,,
STR01307,,Min Ywar Station*,မင်းရွာ,21.813113,95.183908,,,,,,
STR01308,,Auk O Station,အောက်အို,21.779991,95.168205,,,,,,
STR01310,,Ma Au  Station,မအူ,21.738274,95.184882,,,,,,
STR01312,,War Yar Station*,၀ါယာ,21.69681,95.195367,,,,,,
STR01314,,Yay Sakyo Station,ရေစကြို,21.639587,95.207437,,,,,,
STR01315,,Taung O Station*,တောင်အို,21.61369,95.207932,,,,,,
STR01316,,Pa Khan Kyi Station,ပခန်းကြီး,21.532947,95.194623,,,,,,
STR01318,,Sin Chaung Station*,ဆင်ချောင်း,21.41912,95.125688,,,,,,
STR01322,,Kyauk Hlay Khar Station,ကျောက်လှေခါး,21.934349,95.312535,,,,,,
STR01324,,Pan Tine Chone Station*,ပန်းတိုင်ခြုံ,21.355366,95.101753,,,,,,
STR01326,,Kyi Ywar Station*,ကြီးရွာ,21.353362,95.086567,,,,,,
STR01320,,Si Thar Station*,စည်သာ,21.454078,95.149332,,,,,,
STR0YC01_PAG,,Pagoda Road Station,,16.781283,96.153554,,,,,,
STR0YC02_LANM,,Lanmadaw Station,,16.781436,96.148005,,,,,,
STR0YC03_PYAY,,Pyay Road Station,,16.78437,96.14315,,,,,,
STR0YC04_SHAN,,Shan Road Station,,16.786592,96.134499,,,,,,
STR0YC05_ALON,,Ahlone Road Station,,16.790569,96.131035,,,,,,
STR0YC06_PHLA,,Panhlaing Road Station,,16.796342,96.128277,,,,,,
STR0YC07_KEMM,,Kemmendine Station,,16.80664,96.126305,,,,,,
STR0YC08_HANT,,Hanthawaddy Station,,16.817066,96.126375,,,,,,
STR0YC09_HLET,,Hletan Station,,16.824336,96.124893,,,,,,
STR0YC10_KAMA,,Kamayut Station,,16.840059,96.120272,,,,,,
STR0YC11_THIR,,Thiri Myaing Station,,16.849239,96.117753,,,,,,
STR0YC12_OKKY,,Okkyin Station,,16.854878,96.116333,,,,,,
STR0YC13_THAM,,Thamaing Station,,16.860889,96.114794,,,,,,
STR0YC14_THMM,,Thamaing Myothit Station,,16.867046,96.112965,,,,,,
STR0YC15_GYOG,,Gyogon Station,,16.874742,96.110832,,,,,,
STR0YC16_INSN,,Insein Station,,16.885495,96.106908,,,,,,
STR0YC17_YWAM,,Ywama Station,,16.897973,96.098903,,,,,,
STR0YC18_PHAW,,Phawkan Station,,16.907385,96.09288,,,,,,
STR0YC19_AUNG,,Aung San Myo Station,,16.914948,96.092921,,,,,,
STR0YC20_DANY,,Danyingon Station,,16.932908,96.09386,,,,,,
STR0YC21_GOUT,,Gout Kwin,,16.935553,96.10449,,,,,,
STR0YC22_KYAI,,Kyaikkale Station,,16.940735,96.127479,,,,,,
STR0YC23_MINB,,Mingalardon Bazaar Station,,16.937053,96.138569,,,,,,
STR0YC24_MING,,Mingalardon Station,,16.930804,96.144991,,,,,,
STR0YC25_WAIB,,Waibagi Station,,16.921317,96.147058,,,,,,
STR0YC26_OKKA,,Okkalapa Station,,16.906954,96.147879,,,,,,
STR0YC27_PAYW,,Paywetseikkon Station,,16.900317,96.150404,,,,,,
STR0YC28_KYAU,,Kyaukyedwin Station,,16.889836,96.152973,,,,,,
STR0YC29_TADA,,Tadarlay Station,,16.878363,96.155409,,,,,,
STR0YC30_YEGU,,Yegu Station,,16.863784,96.158728,,,,,,
STR0YC31_PARA,,Payame Station,,16.850962,96.165087,,,,,,
STR0YC32_KANB,,Kanbe Station,,16.843467,96.169086,,,,,,
STR0YC33_BAUK,,Bauktaw Station,,16.829671,96.176093,,,,,,
STR0YC34_TARM,,Tamwe Station,,16.821219,96.179042,,,,,,
STR0YC35_MYIT,,Myitta Nyunt Station,,16.812854,96.181983,,,,,,
STR0YC36_MAHL,,Mahlwagon Station,,16.802497,96.181599,,,,,,
STR0YC37_PAZU,,Pazundaung Station,,16.786415,96.175168,,,,,,
STR00831,,Sahton Chaung Station*,ဆထုံချောင်း,20.041149,95.515113,,,,,,
STR00835,,Shwe Pan Pin Station*,ရွေပန်းပင်,20.27771,95.431303,,,,,,
STR00837,,Lat Khote Pin Station*,လက်ခုတ်ပင်,20.381614,95.42352,,,,,,
STR00841,,Gwekone Station*,ဂွေးကုန်း,20.587844,95.327875,,,,,,
STR00841A,,Sin Thay Kan Station*,ဆင်သေကန်,20.638193,95.304444,,,,,,
STR01410,,Hingayor Station*,ဟင်္ဂရော်,20.007065,95.455228,,,,,,
STR01412,,Latpanshay Station*,လက်ပံရှည်,20.007383,95.428701,,,,,,
STR01414,,Beikthano Station*,ပိသနိုး,20.016566,95.393069,,,,,,
STR01416,,Inn Ywar Kyi Station*,အင်းရွာကြီး,20.014752,95.362967,,,,,,
STR01418,,Pyar Tu Station*,ပျားတု,20.008416,95.341588,,,,,,
STR01420,,Yin Thazi Station*,ယင်းသာစည်,20.003901,95.317665,,,,,,
STR01422,,Myin Sine Station*,မြင်စိုင်း,19.998703,95.293089,,,,,,
STR01424,,Htan Pin San Station*,ထန်းပင်စမ်း,20.010749,95.225539,,,,,,
STR01426,,Kan Nilay Station*,ကန်နီလေး,19.991008,95.194192,,,,,,
STR01428,,Paratnagon Lankhwe Station*,ပဌနဂိုရ်လမ်းခွဲ,20.010115,95.140824,,,,,,
STR01430,,Shar Saun Kan Station*,ရှားစောင်းကန်,20.04197,95.079676,,,,,,
STR01432,,Thayet Lay Pin Station*,သရက်လေးပင်,20.088285,95.114599,,,,,,
STR01434,,Shar Pin Hla Station*,ရှားပင်လှ,20.099962,95.09762,,,,,,
STR01436,,Hlaung Taw U Station*,လျောင်းတော်ဦး,20.108302,95.071474,,,,,,
STR01438,,Puhto San Station,ပုထိုးစမ်း,20.114483,95.01241,,,,,,
STR01440,,Magwe Station,မကွေး,20.122797,94.942306,,,,,,
