service_id,monday,tuesday,wednesday,thursday,friday,saturday,sunday,start_date,end_date
1 Up,1,1,1,1,1,1,1,20150101,20201231
3 Up,1,1,1,1,1,1,1,20150101,20201231
4 Dn,1,1,1,1,1,1,1,20150101,20201231
5 Up,1,1,1,1,1,1,1,20150101,20201231
6 Dn,1,1,1,1,1,1,1,20150101,20201231
7 Up,1,1,1,1,1,1,1,20150101,20201231
8 Dn,1,1,1,1,1,1,1,20150101,20201231
9 Up,1,1,1,1,1,1,1,20150101,20201231
10 Dn,1,1,1,1,1,1,1,20150101,20201231
11 Up,1,1,1,1,1,1,1,20150101,20201231
12 Dn,1,1,1,1,1,1,1,20150101,20201231
13 Up,1,1,1,1,1,1,1,20150101,20201231
14 Dn,1,1,1,1,1,1,1,20150101,20201231
31 Up,1,1,1,1,1,1,1,20150101,20201231
32 Dn,1,1,1,1,1,1,1,20150101,20201231
33 Up,1,1,1,1,1,1,1,20150101,20201231
34 Dn,1,1,1,1,1,1,1,20150101,20201231
35 Up,1,1,1,1,1,1,1,20150101,20201231
36 Dn,1,1,1,1,1,1,1,20150101,20201231
37 Up,1,1,1,1,1,1,1,20150101,20201231
38 Dn,1,1,1,1,1,1,1,20150101,20201231
43 Up,1,1,1,1,1,1,1,20150101,20201231
44 Dn,1,1,1,1,1,1,1,20150101,20201231
55 Up,1,1,1,1,1,1,1,20150101,20201231
56 Dn,1,1,1,1,1,1,1,20150101,20201231
57 Up,1,1,1,1,1,1,1,20150101,20201231
58 Dn,1,1,1,1,1,1,1,20150101,20201231
61 Up,1,1,1,1,1,1,1,20150101,20201231
62 Dn,1,1,1,1,1,1,1,20150101,20201231
71 Up,1,1,1,1,1,1,1,20150101,20201231
72 Dn,1,1,1,1,1,1,1,20150101,20201231
89 Dn,1,1,1,1,1,1,1,20150101,20201231
90 Up,1,1,1,1,1,1,1,20150101,20201231
119 Up,1,1,1,1,1,1,1,20150101,20201231
120 Dn,1,1,1,1,1,1,1,20150101,20201231
123 Up,1,1,1,1,1,1,1,20150101,20201231
124 Dn,1,1,1,1,1,1,1,20150101,20201231
131 Up,1,1,1,1,1,1,1,20150101,20201231
132 Dn,1,1,1,1,1,1,1,20150101,20201231
135 Up,1,1,1,1,1,1,1,20150101,20201231
136 Dn,1,1,1,1,1,1,1,20150101,20201231
143 Up,1,1,1,1,1,1,1,20150101,20201231
144 Dn,1,1,1,1,1,1,1,20150101,20201231
175 Dn,1,1,1,1,1,1,1,20150101,20201231
176 Up,1,1,1,1,1,1,1,20150101,20201231
daily,1,1,1,1,1,1,1,20150101,20201231
