trip_id,arrival_time,departure_time,stop_id,stop_sequence,stop_headsign,pickup_type,drop_off_type,shape_dist_traveled,timepoint
TR0001Up,4:00:00,4:00:00,STR00001_RRGN,1,,,,,
TR0001Up,5:03:00,5:05:00,STR00008_RDAP,2,,,,,
TR0001Up,5:22:00,5:24:00,STR00009_RHTG,3,,,,,
TR0001Up,6:07:00,6:22:00,STR00013_RBGO,4,,,,,
TR0001Up,7:07:00,7:09:00,STR00014_RPPG,5,,,,,
TR0001Up,7:38:00,7:41:00,STR00015_RHTT,6,,,,,
TR0001Up,7:58:00,8:13:00,STR00016_RDIU,7,,,,,
TR0001Up,8:35:00,8:42:00,STR00017_RPTH,8,,,,,
TR0001Up,9:01:00,9:06:00,STR00018_RNLP,9,,,,,
TR0001Up,9:31:00,9:36:00,STR00019_RPZL,10,,,,,
TR0001Up,10:00:00,10:29:00,STR00020_RKTG,11,,,,,
TR0001Up,10:45:00,10:50:00,STR00021_RPNG,12,,,,,
TR0001Up,11:16:00,11:19:00,STR00022_RKNK,13,,,,,
TR0001Up,11:48:00,11:58:00,STR00023_RPHU,14,,,,,
TR0001Up,12:13:00,12:18:00,STR00024_RZYW,15,,,,,
TR0001Up,13:14:00,13:16:00,STR00025_ROKT,16,,,,,
TR0001Up,13:43:00,14:26:00,STR00026_RTGO,17,,,,,
TR0001Up,15:10:00,15:13:00,STR00027_RYTS,18,,,,,
TR0001Up,15:36:00,15:38:00,STR00028_RSWA,19,,,,,
TR0001Up,16:03:00,16:05:00,STR00029_RMHL,20,,,,,
TR0001Up,16:20:00,16:22:00,STR00030_RYAN,21,,,,,
TR0001Up,16:35:00,16:37:00,STR00031_RTWH,22,,,,,
TR0001Up,16:54:00,16:59:00,STR00032_RAYL,23,,,,,
TR0001Up,17:26:00,17:36:00,STR00033_RPMN,24,,,,,
TR0001Up,18:09:00,18:14:00,STR00034_RNPT,25,,,,,
TR0001Up,18:25:00,18:30:00,STR00035_RKDG,26,,,,,
TR0001Up,19:23:00,19:33:00,STR00036_RTKO,27,,,,,
TR0001Up,20:30:00,20:40:00,STR00037_RYMT,28,,,,,
TR0001Up,21:06:00,21:09:00,STR00057_RSHD,29,,,,,
TR0001Up,21:24:00,21:34:00,STR00038_RPBW,30,,,,,
TR0001Up,22:08:00,22:13:00,STR00039_RNYA,31,,,,,
TR0001Up,22:38:00,22:43:00,STR00040_RTHZ,32,,,,,
TR0001Up,23:13:00,23:16:00,STR00042_RHZA,33,,,,,
TR0001Up,23:33:00,23:38:00,STR00043_RTDA,34,,,,,
TR0001Up,23:55:00,23:57:00,STR00044_RSMH,35,,,,,
TR0001Up,24:15:00,24:18:00,STR00045_RTPT,36,,,,,
TR0001Up,24:35:00,24:38:00,STR00046_RKML,37,,,,,
TR0001Up,24:55:00,25:00:00,STR00047_RMTH,38,,,,,
TR0001Up,25:17:00,25:19:00,STR00048_RMSU,39,,,,,
TR0001Up,25:38:00,25:48:00,STR00049_RKYS,40,,,,,
TR0001Up,26:17:00,26:52:00,STR00053_RMNG,41,,,,,
TR0001Up,27:30:00,27:30:00,STR00056_RMDL,42,,,,,
TR0002Dn,8:30:00,8:30:00,STR00056_RMDL,1,,,,,
TR0002Dn,9:00:00,9:10:00,STR00053_RMNG,2,,,,,
TR0002Dn,10:00:00,10:10:00,STR00049_RKYS,3,,,,,
TR0002Dn,10:28:00,10:33:00,STR00048_RMSU,4,,,,,
TR0002Dn,10:48:00,10:55:00,STR00047_RMTH,5,,,,,
TR0002Dn,11:00:00,11:15:00,STR00046_RKML,6,,,,,
TR0002Dn,11:31:00,11:36:00,STR00045_RTPT,7,,,,,
TR0002Dn,11:55:00,11:57:00,STR00044_RSMH,8,,,,,
TR0002Dn,12:14:00,12:24:00,STR00043_RTDA,9,,,,,
TR0002Dn,12:45:00,12:50:00,STR00042_RHZA,10,,,,,
TR0002Dn,13:19:00,13:24:00,STR00040_RTHZ,11,,,,,
TR0002Dn,13:50:00,14:05:00,STR00039_RNYA,12,,,,,
TR0002Dn,14:45:00,14:55:00,STR00038_RPBW,13,,,,,
TR0002Dn,15:10:00,15:15:00,STR00057_RSHD,14,,,,,
TR0002Dn,15:37:00,15:47:00,STR00037_RYMT,15,,,,,
TR0002Dn,16:46:00,16:56:00,STR00036_RTKO,16,,,,,
TR0002Dn,17:49:00,17:54:00,STR00035_RKDG,17,,,,,
TR0002Dn,18:05:00,18:10:00,STR00034_RNPT,18,,,,,
TR0002Dn,18:45:00,18:55:00,STR00033_RPMN,19,,,,,
TR0002Dn,19:20:00,19:25:00,STR00032_RAYL,20,,,,,
TR0002Dn,19:45:00,19:47:00,STR00031_RTWH,21,,,,,
TR0002Dn,19:58:00,20:00:00,STR00030_RYAN,22,,,,,
TR0002Dn,20:15:00,20:17:00,STR00029_RMHL,23,,,,,
TR0002Dn,20:42:00,20:44:00,STR00028_RSWA,24,,,,,
TR0002Dn,21:06:00,21:09:00,STR00027_RYTS,25,,,,,
TR0002Dn,21:55:00,22:05:00,STR00026_RTGO,26,,,,,
TR0002Dn,22:29:00,22:31:00,STR00025_ROKT,27,,,,,
TR0002Dn,23:55:00,24:21:00,STR00024_RZYW,28,,,,,
TR0002Dn,24:35:00,24:45:00,STR00023_RPHU,29,,,,,
TR0002Dn,25:13:00,25:16:00,STR00022_RKNK,30,,,,,
TR0002Dn,25:41:00,25:46:00,STR00021_RPNG,31,,,,,
TR0002Dn,26:03:00,26:06:00,STR00020_RKTG,32,,,,,
TR0002Dn,26:26:00,26:31:00,STR00019_RPZL,33,,,,,
TR0002Dn,26:55:00,27:00:00,STR00018_RNLP,34,,,,,
TR0002Dn,27:15:00,27:22:00,STR00017_RPTH,35,,,,,
TR0002Dn,27:40:00,27:55:00,STR00016_RDIU,36,,,,,
TR0002Dn,28:11:00,28:14:00,STR00015_RHTT,37,,,,,
TR0002Dn,28:43:00,28:45:00,STR00014_RPPG,38,,,,,
TR0002Dn,29:30:00,30:02:00,STR00013_RBGO,39,,,,,
TR0002Dn,30:46:00,30:48:00,STR00009_RHTG,40,,,,,
TR0002Dn,31:08:00,31:10:00,STR00008_RDAP,41,,,,,
TR0002Dn,32:30:00,32:30:00,STR00001_RRGN,42,,,,,
TR0003Up,17:00:00,17:00:00,STR00001_RRGN,1,,,,,
TR0003Up,17:27:00,17:29:00,STR00005_RTTK,2,,,,,
TR0003Up,18:45:00,18:48:00,STR00013_RBGO,3,,,,,
TR0003Up,19:55:00,19:57:00,STR00016_RDIU,4,,,,,
TR0003Up,20:29:00,20:31:00,STR00018_RNLP,5,,,,,
TR0003Up,21:06:00,21:08:00,STR00020_RKTG,6,,,,,
TR0003Up,21:42:00,21:44:00,STR00022_RKNK,7,,,,,
TR0003Up,22:08:00,22:10:00,STR00023_RPHU,8,,,,,
TR0003Up,23:15:00,23:25:00,STR00026_RTGO,9,,,,,
TR0003Up,25:07:00,25:09:00,STR00032_RAYL,10,,,,,
TR0003Up,25:27:00,25:30:00,STR00033_RPMN,11,,,,,
TR0003Up,25:54:00,25:57:00,STR00034_RNPT,12,,,,,
TR0003Up,26:17:00,26:19:00,STR00036_RTKO,13,,,,,
TR0003Up,27:34:00,27:36:00,STR00037_RYMT,14,,,,,
TR0003Up,28:08:00,28:10:00,STR00038_RPBW,15,,,,,
TR0003Up,28:37:00,28:39:00,STR00039_RNYA,16,,,,,
TR0003Up,28:55:00,28:58:00,STR00040_RTHZ,17,,,,,
TR0003Up,29:30:00,29:32:00,STR00043_RTDA,18,,,,,
TR0003Up,30:17:00,30:19:00,STR00047_RMTH,19,,,,,
TR0003Up,31:45:00,31:45:00,STR00056_RMDL,20,,,,,
TR0004Dn,17:00:00,17:00:00,STR00056_RMDL,1,,,,,
TR0004Dn,18:22:00,18:24:00,STR00047_RMTH,2,,,,,
TR0004Dn,19:12:00,19:14:00,STR00043_RTDA,3,,,,,
TR0004Dn,19:46:00,19:49:00,STR00040_RTHZ,4,,,,,
TR0004Dn,20:05:00,20:07:00,STR00039_RNYA,5,,,,,
TR0004Dn,20:34:00,20:36:00,STR00038_RPBW,6,,,,,
TR0004Dn,21:59:00,22:01:00,STR00036_RTKO,7,,,,,
TR0004Dn,22:48:00,22:51:00,STR00034_RNPT,8,,,,,
TR0004Dn,23:15:00,23:18:00,STR00033_RPMN,9,,,,,
TR0004Dn,23:36:00,23:38:00,STR00032_RAYL,10,,,,,
TR0004Dn,25:17:00,25:27:00,STR00026_RTGO,11,,,,,
TR0004Dn,26:29:00,26:31:00,STR00023_RPHU,12,,,,,
TR0004Dn,26:53:00,26:55:00,STR00022_RKNK,13,,,,,
TR0004Dn,27:27:00,27:29:00,STR00020_RKTG,14,,,,,
TR0004Dn,28:03:00,28:05:00,STR00018_RNLP,15,,,,,
TR0004Dn,28:37:00,28:39:00,STR00016_RDIU,16,,,,,
TR0004Dn,29:46:00,29:49:00,STR00013_RBGO,17,,,,,
TR0004Dn,31:04:00,31:06:00,STR00005_RTTK,18,,,,,
TR0004Dn,31:45:00,31:45:00,STR00001_RRGN,19,,,,,
TR0005Up,15:00:00,15:00:00,STR00001_RRGN,1,,,,,
TR0005Up,16:41:00,16:44:00,STR00013_RBGO,2,,,,,
TR0005Up,20:49:00,20:59:00,STR00026_RTGO,3,,,,,
TR0005Up,21:35:00,21:37:00,STR00027_RYTS,4,,,,,
TR0005Up,23:03:00,23:06:00,STR00033_RPMN,5,,,,,
TR0005Up,23:29:00,23:32:00,STR00034_RNPT,6,,,,,
TR0005Up,24:15:00,24:17:00,STR00036_RTKO,7,,,,,
TR0005Up,26:08:00,26:11:00,STR00040_RTHZ,8,,,,,
TR0005Up,26:43:00,26:45:00,STR00043_RTDA,9,,,,,
TR0005Up,27:53:00,27:58:00,STR00049_RKYS,10,,,,,
TR0005Up,29:00:00,29:00:00,STR00056_RMDL,11,,,,,
TR0006Dn,15:00:00,15:00:00,STR00056_RMDL,1,,,,,
TR0006Dn,16:00:00,16:02:00,STR00049_RKYS,2,,,,,
TR0006Dn,17:12:00,17:14:00,STR00043_RTDA,3,,,,,
TR0006Dn,17:46:00,17:49:00,STR00040_RTHZ,4,,,,,
TR0006Dn,19:42:00,19:44:00,STR00036_RTKO,5,,,,,
TR0006Dn,20:33:00,20:36:00,STR00034_RNPT,6,,,,,
TR0006Dn,21:00:00,21:03:00,STR00033_RPMN,7,,,,,
TR0006Dn,22:28:00,22:30:00,STR00027_RYTS,8,,,,,
TR0006Dn,23:08:00,23:18:00,STR00026_RTGO,9,,,,,
TR0006Dn,27:13:00,27:16:00,STR00013_RBGO,10,,,,,
TR0006Dn,29:00:00,29:00:00,STR00001_RRGN,11,,,,,
TR0007Up,20:30:00,20:30:00,STR00001_RRGN,1,,,,,
TR0007Up,20:57:00,20:59:00,STR00005_RTTK,2,,,,,
TR0007Up,22:10:00,22:13:00,STR00013_RBGO,3,,,,,
TR0007Up,23:16:00,23:18:00,STR00016_RDIU,4,,,,,
TR0007Up,24:30:00,24:32:00,STR00021_RPNG,5,,,,,
TR0007Up,24:52:00,24:54:00,STR00022_RKNK,6,,,,,
TR0007Up,26:20:00,26:23:00,STR00026_RTGO,7,,,,,
TR0007Up,27:42:00,27:44:00,STR00030_RYAN,8,,,,,
TR0007Up,28:29:00,28:32:00,STR00033_RPMN,9,,,,,
TR0007Up,29:00:00,29:00:00,STR00034_RNPT,10,,,,,
TR0008Dn,20:00:00,20:00:00,STR00034_RNPT,1,,,,,
TR0008Dn,20:24:00,20:27:00,STR00033_RPMN,2,,,,,
TR0008Dn,21:09:00,21:11:00,STR00030_RYAN,3,,,,,
TR0008Dn,22:32:00,22:35:00,STR00026_RTGO,4,,,,,
TR0008Dn,23:59:00,24:01:00,STR00022_RKNK,5,,,,,
TR0008Dn,24:24:00,24:26:00,STR00021_RPNG,6,,,,,
TR0008Dn,25:42:00,25:44:00,STR00016_RDIU,7,,,,,
TR0008Dn,26:55:00,26:58:00,STR00013_RBGO,8,,,,,
TR0008Dn,28:06:00,28:08:00,STR00005_RTTK,9,,,,,
TR0008Dn,28:35:00,28:35:00,STR00001_RRGN,10,,,,,
TR0009Up,11:00:00,11:00:00,STR00001_RRGN,1,,,,,
TR0009Up,12:26:00,12:28:00,STR00010_RKYT,2,,,,,
TR0009Up,13:01:00,13:16:00,STR00013_RBGO,3,,,,,
TR0009Up,14:27:00,14:29:00,STR00015_RHTT,4,,,,,
TR0009Up,14:45:00,14:55:00,STR00016_RDIU,5,,,,,
TR0009Up,15:15:00,15:20:00,STR00017_RPTH,6,,,,,
TR0009Up,15:35:00,15:45:00,STR00018_RNLP,7,,,,,
TR0009Up,16:10:00,16:12:00,STR00019_RPZL,8,,,,,
TR0009Up,16:32:00,16:37:00,STR00020_RKTG,9,,,,,
TR0009Up,16:53:00,16:56:00,STR00021_RPNG,10,,,,,
TR0009Up,17:20:00,17:23:00,STR00022_RKNK,11,,,,,
TR0009Up,17:51:00,18:01:00,STR00023_RPHU,12,,,,,
TR0009Up,19:22:00,19:37:00,STR00026_RTGO,13,,,,,
TR0009Up,22:00:00,22:20:00,STR00033_RPMN,14,,,,,
TR0009Up,22:50:00,22:55:00,STR00034_RNPT,15,,,,,
TR0009Up,24:00:00,24:31:00,STR00036_RTKO,16,,,,,
TR0009Up,25:26:00,25:31:00,STR00037_RYMT,17,,,,,
TR0009Up,26:10:00,26:20:00,STR00038_RPBW,18,,,,,
TR0009Up,26:30:00,26:30:00,STR00040_RTHZ,19,,,,,
TR0010Dn,22:00:00,22:00:00,STR00040_RTHZ,1,,,,,
TR0010Dn,22:59:00,23:09:00,STR00038_RPBW,2,,,,,
TR0010Dn,23:49:00,23:54:00,STR00037_RYMT,3,,,,,
TR0010Dn,24:28:00,24:59:00,STR00036_RTKO,4,,,,,
TR0010Dn,26:04:00,26:09:00,STR00034_RNPT,5,,,,,
TR0010Dn,26:35:00,26:55:00,STR00033_RPMN,6,,,,,
TR0010Dn,27:16:00,27:36:00,STR00026_RTGO,7,,,,,
TR0010Dn,30:56:00,31:06:00,STR00023_RPHU,8,,,,,
TR0010Dn,31:35:00,31:40:00,STR00022_RKNK,9,,,,,
TR0010Dn,32:08:00,32:13:00,STR00021_RPNG,10,,,,,
TR0010Dn,32:28:00,32:33:00,STR00020_RKTG,11,,,,,
TR0010Dn,32:57:00,33:00:00,STR00019_RPZL,12,,,,,
TR0010Dn,33:29:00,33:44:00,STR00018_RNLP,13,,,,,
TR0010Dn,33:59:00,34:02:00,STR00017_RPTH,14,,,,,
TR0010Dn,34:21:00,34:26:00,STR00016_RDIU,15,,,,,
TR0010Dn,34:43:00,34:45:00,STR00015_RHTT,16,,,,,
TR0010Dn,35:54:00,36:09:00,STR00013_RBGO,17,,,,,
TR0010Dn,36:49:00,36:51:00,STR00010_RKYT,18,,,,,
TR0010Dn,38:40:00,38:40:00,STR00001_RRGN,19,,,,,
TR0011Up,6:00:00,6:00:00,STR00001_RRGN,1,,,,,
TR0011Up,6:27:00,6:29:00,STR00005_RTTK,2,,,,,
TR0011Up,7:45:00,7:48:00,STR00013_RBGO,3,,,,,
TR0011Up,8:55:00,8:57:00,STR00016_RDIU,4,,,,,
TR0011Up,9:16:00,9:18:00,STR00017_RPTH,5,,,,,
TR0011Up,9:34:00,9:36:00,STR00018_RNLP,6,,,,,
TR0011Up,10:26:00,10:28:00,STR00021_RPNG,7,,,,,
TR0011Up,11:11:00,11:13:00,STR00023_RPHU,8,,,,,
TR0011Up,12:21:00,12:31:00,STR00026_RTGO,9,,,,,
TR0011Up,13:08:00,13:10:00,STR00027_RYTS,10,,,,,
TR0011Up,13:30:00,13:32:00,STR00028_RSWA,11,,,,,
TR0011Up,14:03:00,14:05:00,STR00030_RYAN,12,,,,,
TR0011Up,14:30:00,14:32:00,STR00032_RAYL,13,,,,,
TR0011Up,14:52:00,14:55:00,STR00033_RPMN,14,,,,,
TR0011Up,15:19:00,15:22:00,STR00034_RNPT,15,,,,,
TR0011Up,16:06:00,16:08:00,STR00036_RTKO,16,,,,,
TR0011Up,16:52:00,16:54:00,STR00037_RYMT,17,,,,,
TR0011Up,17:27:00,17:29:00,STR00038_RPBW,18,,,,,
TR0011Up,18:12:00,18:15:00,STR00040_RTHZ,19,,,,,
TR0011Up,18:45:00,18:47:00,STR00043_RTDA,20,,,,,
TR0011Up,19:31:00,19:33:00,STR00047_RMTH,21,,,,,
TR0011Up,19:56:00,19:58:00,STR00049_RKYS,22,,,,,
TR0011Up,21:00:00,21:00:00,STR00056_RMDL,23,,,,,
TR0012Dn,6:00:00,6:00:00,STR00056_RMDL,1,,,,,
TR0012Dn,7:00:00,7:02:00,STR00049_RKYS,2,,,,,
TR0012Dn,7:26:00,7:28:00,STR00047_RMTH,3,,,,,
TR0012Dn,8:17:00,8:19:00,STR00043_RTDA,4,,,,,
TR0012Dn,8:51:00,8:54:00,STR00040_RTHZ,5,,,,,
TR0012Dn,9:35:00,9:37:00,STR00038_RPBW,6,,,,,
TR0012Dn,10:09:00,10:11:00,STR00037_RYMT,7,,,,,
TR0012Dn,11:01:00,11:03:00,STR00036_RTKO,8,,,,,
TR0012Dn,11:51:00,11:54:00,STR00034_RNPT,9,,,,,
TR0012Dn,12:18:00,12:21:00,STR00033_RPMN,10,,,,,
TR0012Dn,12:42:00,12:44:00,STR00032_RAYL,11,,,,,
TR0012Dn,13:09:00,13:11:00,STR00030_RYAN,12,,,,,
TR0012Dn,13:43:00,13:45:00,STR00028_RSWA,13,,,,,
TR0012Dn,14:03:00,14:05:00,STR00027_RYTS,14,,,,,
TR0012Dn,14:41:00,14:51:00,STR00026_RTGO,15,,,,,
TR0012Dn,15:54:00,15:56:00,STR00023_RPHU,16,,,,,
TR0012Dn,16:36:00,16:38:00,STR00021_RPNG,17,,,,,
TR0012Dn,17:18:00,17:20:00,STR00018_RNLP,18,,,,,
TR0012Dn,17:34:00,17:36:00,STR00017_RPTH,19,,,,,
TR0012Dn,17:53:00,17:55:00,STR00016_RDIU,20,,,,,
TR0012Dn,18:56:00,18:59:00,STR00013_RBGO,21,,,,,
TR0012Dn,20:13:00,20:15:00,STR00005_RTTK,22,,,,,
TR0012Dn,21:00:00,21:00:00,STR00001_RRGN,23,,,,,
TR0013Up,15:30:00,15:30:00,STR00001_RRGN,1,,,,,
TR0013Up,15:35:00,15:40:00,STR00002_RPZT,2,,,,,
TR0013Up,15:56:00,15:59:00,STR00004_RTGK,3,,,,,
TR0013Up,16:10:00,16:13:00,STR00005_RTTK,4,,,,,
TR0013Up,16:34:00,16:36:00,STR00006_RYTG,5,,,,,
TR0013Up,16:47:00,16:49:00,STR00007_RLDK,6,,,,,
TR0013Up,17:10:00,17:12:00,STR00008_RDAP,7,,,,,
TR0013Up,17:41:00,17:43:00,STR00009_RHTG,8,,,,,
TR0013Up,18:02:00,18:32:00,STR00010_RKYT,9,,,,,
TR0013Up,18:46:00,18:48:00,STR00011_RTWA,10,,,,,
TR0013Up,19:04:00,19:06:00,STR00012_RPTS,11,,,,,
TR0013Up,19:25:00,19:25:00,STR00013_RBGO,12,,,,,
TR0014Dn,4:45:00,4:45:00,STR00013_RBGO,1,,,,,
TR0014Dn,5:00:00,5:02:00,STR00012_RPTS,2,,,,,
TR0014Dn,5:17:00,5:22:00,STR00011_RTWA,3,,,,,
TR0014Dn,5:37:00,5:42:00,STR00010_RKYT,4,,,,,
TR0014Dn,6:00:00,7:11:00,STR00009_RHTG,5,,,,,
TR0014Dn,7:41:00,7:46:00,STR00008_RDAP,6,,,,,
TR0014Dn,8:10:00,8:12:00,STR00007_RLDK,7,,,,,
TR0014Dn,8:24:00,8:26:00,STR00006_RYTG,8,,,,,
TR0014Dn,8:49:00,8:54:00,STR00005_RTTK,9,,,,,
TR0014Dn,9:04:00,9:09:00,STR00004_RTGK,10,,,,,
TR0014Dn,9:20:00,9:23:00,STR00002_RPZT,11,,,,,
TR0014Dn,9:30:00,9:30:00,STR00001_RRGN,12,,,,,
TR0019Up,8:35:00,8:35:00,STR00004_RTGK,1,,,,,
TR0019Up,8:48:00,8:50:00,STR00005_RTTK,2,,,,,
TR0019Up,9:13:00,9:15:00,STR00006_RYTG,3,,,,,
TR0019Up,9:27:00,9:29:00,STR00007_RLDK,4,,,,,
TR0019Up,9:53:00,9:55:00,STR00008_RDAP,5,,,,,
TR0019Up,10:10:00,10:11:00,STR00058_RKOR,6,,,,,
TR0019Up,10:26:00,10:28:00,STR00009_RHTG,7,,,,,
TR0019Up,10:42:00,10:44:00,STR00010_RKYT,8,,,,,
TR0019Up,10:58:00,11:00:00,STR00011_RTWA,9,,,,,
TR0019Up,11:15:00,11:17:00,STR00012_RPTS,10,,,,,
TR0019Up,11:32:00,11:42:00,STR00013_RBGO,11,,,,,
TR0019Up,12:02:00,12:04:00,STR00059_RSHW,12,,,,,
TR0019Up,12:23:00,12:25:00,STR00060_RPYG,13,,,,,
TR0019Up,12:55:00,12:57:00,STR00014_RPPG,14,,,,,
TR0019Up,13:21:00,13:23:00,STR00061_RKDO,15,,,,,
TR0019Up,13:39:00,13:41:00,STR00015_RHTT,16,,,,,
TR0019Up,13:52:00,13:54:00,STR00062_RAKL,17,,,,,
TR0019Up,14:04:00,14:09:00,STR00016_RDIU,18,,,,,
TR0019Up,14:28:00,15:40:00,STR00017_RPTH,19,,,,,
TR0019Up,16:04:00,16:09:00,STR00018_RNLP,20,,,,,
TR0019Up,16:27:00,16:29:00,STR00063_RTWI,21,,,,,
TR0019Up,16:44:00,16:46:00,STR00019_RPZL,22,,,,,
TR0019Up,17:01:00,17:03:00,STR00064_RTHK,23,,,,,
TR0019Up,17:13:00,17:18:00,STR00020_RKTG,24,,,,,
TR0019Up,17:40:00,17:45:00,STR00021_RPNG,25,,,,,
TR0019Up,18:02:00,18:04:00,STR00065_RTKI,26,,,,,
TR0019Up,18:21:00,18:23:00,STR00022_RKNK,27,,,,,
TR0019Up,18:40:00,18:42:00,STR00066_RNYP,28,,,,,
TR0019Up,19:02:00,19:07:00,STR00023_RPHU,29,,,,,
TR0019Up,19:25:00,20:10:00,STR00024_RZYW,30,,,,,
TR0019Up,20:27:00,20:29:00,STR00067_RNCH,31,,,,,
TR0019Up,20:50:00,20:52:00,STR00068_RKBW,32,,,,,
TR0019Up,21:04:00,21:06:00,STR00069_RBBK,33,,,,,
TR0019Up,21:26:00,21:28:00,STR00025_ROKT,34,,,,,
TR0019Up,21:40:00,21:42:00,STR00070_RTTK,35,,,,,
TR0019Up,22:00:00,22:00:00,STR00026_RTGO,36,,,,,
TR0020Dn,6:00:00,6:00:00,STR00026_RTGO,1,,,,,
TR0020Dn,6:10:00,6:20:00,STR00070_RTTK,2,,,,,
TR0020Dn,6:32:00,6:34:00,STR00025_ROKT,3,,,,,
TR0020Dn,6:54:00,6:56:00,STR00069_RBBK,4,,,,,
TR0020Dn,7:00:00,7:10:00,STR00068_RKBW,5,,,,,
TR0020Dn,7:31:00,7:33:00,STR00067_RNCH,6,,,,,
TR0020Dn,7:50:00,7:52:00,STR00024_RZYW,7,,,,,
TR0020Dn,8:00:00,8:13:00,STR00023_RPHU,8,,,,,
TR0020Dn,8:33:00,8:35:00,STR00066_RNYP,9,,,,,
TR0020Dn,8:52:00,8:55:00,STR00022_RKNK,10,,,,,
TR0020Dn,9:12:00,9:14:00,STR00065_RTKI,11,,,,,
TR0020Dn,9:31:00,9:36:00,STR00021_RPNG,12,,,,,
TR0020Dn,9:50:00,10:03:00,STR00020_RKTG,13,,,,,
TR0020Dn,10:13:00,10:15:00,STR00064_RTHK,14,,,,,
TR0020Dn,10:30:00,10:32:00,STR00019_RPZL,15,,,,,
TR0020Dn,10:45:00,10:47:00,STR00063_RTWI,16,,,,,
TR0020Dn,11:05:00,11:07:00,STR00018_RNLP,17,,,,,
TR0020Dn,11:20:00,12:10:00,STR00017_RPTH,18,,,,,
TR0020Dn,12:34:00,12:39:00,STR00016_RDIU,19,,,,,
TR0020Dn,12:49:00,12:51:00,STR00062_RAKL,20,,,,,
TR0020Dn,13:02:00,13:04:00,STR00015_RHTT,21,,,,,
TR0020Dn,13:20:00,13:22:00,STR00061_RKDO,22,,,,,
TR0020Dn,13:47:00,13:49:00,STR00014_RPPG,23,,,,,
TR0020Dn,14:15:00,14:17:00,STR00060_RPYG,24,,,,,
TR0020Dn,14:35:00,14:37:00,STR00059_RSHW,25,,,,,
TR0020Dn,14:55:00,15:55:00,STR00013_RBGO,26,,,,,
TR0020Dn,16:10:00,16:12:00,STR00012_RPTS,27,,,,,
TR0020Dn,16:27:00,16:29:00,STR00011_RTWA,28,,,,,
TR0020Dn,16:43:00,16:45:00,STR00010_RKYT,29,,,,,
TR0020Dn,16:59:00,17:01:00,STR00009_RHTG,30,,,,,
TR0020Dn,17:16:00,17:17:00,STR00058_RKOR,31,,,,,
TR0020Dn,17:32:00,17:34:00,STR00008_RDAP,32,,,,,
TR0020Dn,17:58:00,18:00:00,STR00007_RLDK,33,,,,,
TR0020Dn,18:12:00,18:14:00,STR00006_RYTG,34,,,,,
TR0020Dn,18:22:00,18:24:00,STR00005_RTTK,35,,,,,
TR0020Dn,18:35:00,18:35:00,STR00004_RTGK,36,,,,,
TR0021Up,6:00:00,6:00:00,STR00026_RTGO,1,,,,,
TR0021Up,6:21:00,6:23:00,STR00071_RKTO,2,,,,,
TR0021Up,6:37:00,6:42:00,STR00072_RKYK,3,,,,,
TR0021Up,7:10:00,7:15:00,STR00027_RYTS,4,,,,,
TR0021Up,7:30:00,7:32:00,STR00073_RKOG,5,,,,,
TR0021Up,7:40:00,7:53:00,STR00028_RSWA,6,,,,,
TR0021Up,8:00:00,8:10:00,STR00074_RTGY,7,,,,,
TR0021Up,8:31:00,8:33:00,STR00029_RMHL,8,,,,,
TR0021Up,8:52:00,8:54:00,STR00030_RYAN,9,,,,,
TR0021Up,9:07:00,9:09:00,STR00031_RTWH,10,,,,,
TR0021Up,9:35:00,9:40:00,STR00032_RAYL,11,,,,,
TR0021Up,9:50:00,9:52:00,STR00075_RPYW,12,,,,,
TR0021Up,10:15:00,10:45:00,STR00033_RPMN,13,,,,,
TR0021Up,11:07:00,11:10:00,STR00076_RYDW,14,,,,,
TR0021Up,11:20:00,11:25:00,STR00034_RNPT,15,,,,,
TR0021Up,11:35:00,11:55:00,STR00035_RKDG,16,,,,,
TR0021Up,12:15:00,12:18:00,STR00077_RPKH,17,,,,,
TR0021Up,12:30:00,12:33:00,STR00078_RSPK,18,,,,,
TR0021Up,12:46:00,12:49:00,STR00079_RSMY,19,,,,,
TR0021Up,13:06:00,13:08:00,STR00080_RSIN,20,,,,,
TR0021Up,13:18:00,13:23:00,STR00036_RTKO,21,,,,,
TR0021Up,13:38:00,13:40:00,STR00081_RMKP,22,,,,,
TR0021Up,13:55:00,13:57:00,STR00082_RNYL,23,,,,,
TR0021Up,14:21:00,14:23:00,STR00083_RNGT,24,,,,,
TR0021Up,14:34:00,14:36:00,STR00084_RIKO,25,,,,,
TR0021Up,14:51:00,14:56:00,STR00037_RYMT,26,,,,,
TR0021Up,15:13:00,15:15:00,STR00085_RIKK,27,,,,,
TR0021Up,15:30:00,15:33:00,STR00057_RSHD,28,,,,,
TR0021Up,15:53:00,15:58:00,STR00038_RPBW,29,,,,,
TR0021Up,16:18:00,16:21:00,STR00086_RSHW,30,,,,,
TR0021Up,16:45:00,16:50:00,STR00039_RNYA,31,,,,,
TR0021Up,17:02:00,17:04:00,STR00087_RNGH,32,,,,,
TR0021Up,17:20:00,17:20:00,STR00040_RTHZ,33,,,,,
TR0022Dn,5:00:00,5:00:00,STR00040_RTHZ,1,,,,,
TR0022Dn,5:15:00,5:17:00,STR00087_RNGH,2,,,,,
TR0022Dn,5:29:00,5:39:00,STR00039_RNYA,3,,,,,
TR0022Dn,6:03:00,6:05:00,STR00086_RSHW,4,,,,,
TR0022Dn,6:25:00,6:40:00,STR00038_RPBW,5,,,,,
TR0022Dn,7:00:00,7:03:00,STR00057_RSHD,6,,,,,
TR0022Dn,7:18:00,7:20:00,STR00085_RIKK,7,,,,,
TR0022Dn,7:37:00,7:47:00,STR00037_RYMT,8,,,,,
TR0022Dn,8:02:00,8:04:00,STR00084_RIKO,9,,,,,
TR0022Dn,8:15:00,8:17:00,STR00083_RNGT,10,,,,,
TR0022Dn,8:41:00,8:43:00,STR00082_RNYL,11,,,,,
TR0022Dn,8:58:00,9:00:00,STR00081_RMKP,12,,,,,
TR0022Dn,9:15:00,9:25:00,STR00036_RTKO,13,,,,,
TR0022Dn,9:35:00,9:37:00,STR00080_RSIN,14,,,,,
TR0022Dn,9:54:00,9:56:00,STR00079_RSMY,15,,,,,
TR0022Dn,10:09:00,10:11:00,STR00078_RSPK,16,,,,,
TR0022Dn,10:23:00,10:25:00,STR00077_RPKH,17,,,,,
TR0022Dn,10:45:00,11:05:00,STR00035_RKDG,18,,,,,
TR0022Dn,11:18:00,11:23:00,STR00034_RNPT,19,,,,,
TR0022Dn,11:33:00,11:35:00,STR00076_RYDW,20,,,,,
TR0022Dn,11:55:00,12:40:00,STR00033_RPMN,21,,,,,
TR0022Dn,13:03:00,13:05:00,STR00075_RPYW,22,,,,,
TR0022Dn,13:15:00,13:20:00,STR00032_RAYL,23,,,,,
TR0022Dn,13:46:00,13:48:00,STR00031_RTWH,24,,,,,
TR0022Dn,14:01:00,14:03:00,STR00030_RYAN,25,,,,,
TR0022Dn,14:22:00,14:24:00,STR00029_RMHL,26,,,,,
TR0022Dn,14:45:00,14:47:00,STR00074_RTGY,27,,,,,
TR0022Dn,15:02:00,15:07:00,STR00028_RSWA,28,,,,,
TR0022Dn,15:23:00,15:25:00,STR00073_RKOG,29,,,,,
TR0022Dn,15:40:00,15:45:00,STR00027_RYTS,30,,,,,
TR0022Dn,16:13:00,16:15:00,STR00072_RKYK,31,,,,,
TR0022Dn,16:30:00,16:32:00,STR00071_RKTO,32,,,,,
TR0022Dn,17:00:00,17:00:00,STR00026_RTGO,33,,,,,
TR0023Up,4:00:00,4:00:00,STR00040_RTHZ,1,,,,,
TR0023Up,4:20:00,4:22:00,STR00041_RYPL,2,,,,,
TR0023Up,4:44:00,4:49:00,STR00042_RHZA,3,,,,,
TR0023Up,5:15:00,5:25:00,STR00043_RTDA,4,,,,,
TR0023Up,5:50:00,5:52:00,STR00044_RSMH,5,,,,,
TR0023Up,6:24:00,6:29:00,STR00045_RTPT,6,,,,,
TR0023Up,6:55:00,7:40:00,STR00046_RKML,7,,,,,
TR0023Up,8:02:00,8:12:00,STR00047_RMTH,8,,,,,
TR0023Up,8:32:00,8:34:00,STR00048_RMSU,9,,,,,
TR0023Up,8:57:00,9:07:00,STR00049_RKYS,10,,,,,
TR0023Up,9:22:00,9:24:00,STR00050_RBLI,11,,,,,
TR0023Up,9:44:00,9:46:00,STR00051_RSKI,12,,,,,
TR0023Up,10:06:00,10:16:00,STR00052_RPAL,13,,,,,
TR0023Up,10:31:00,10:41:00,STR00053_RMNG,14,,,,,
TR0023Up,10:51:00,10:53:00,STR00054_RTTN,15,,,,,
TR0023Up,11:10:00,11:10:00,STR00055_RMYH,16,,,,,
TR0024Dn,15:30:00,15:30:00,STR00055_RMYH,1,,,,,
TR0024Dn,15:40:00,15:42:00,STR00054_RTTN,2,,,,,
TR0024Dn,15:52:00,16:02:00,STR00053_RMNG,3,,,,,
TR0024Dn,16:17:00,16:22:00,STR00052_RPAL,4,,,,,
TR0024Dn,16:42:00,16:44:00,STR00051_RSKI,5,,,,,
TR0024Dn,17:04:00,17:06:00,STR00050_RBLI,6,,,,,
TR0024Dn,17:21:00,17:26:00,STR00049_RKYS,7,,,,,
TR0024Dn,17:49:00,18:27:00,STR00048_RMSU,8,,,,,
TR0024Dn,18:47:00,18:57:00,STR00047_RMTH,9,,,,,
TR0024Dn,19:19:00,19:24:00,STR00046_RKML,10,,,,,
TR0024Dn,19:50:00,19:55:00,STR00045_RTPT,11,,,,,
TR0024Dn,20:27:00,20:32:00,STR00044_RSMH,12,,,,,
TR0024Dn,20:57:00,21:07:00,STR00043_RTDA,13,,,,,
TR0024Dn,21:33:00,21:38:00,STR00042_RHZA,14,,,,,
TR0024Dn,22:00:00,22:05:00,STR00041_RYPL,15,,,,,
TR0024Dn,22:25:00,22:25:00,STR00040_RTHZ,16,,,,,
TR0031Up,8:00:00,8:00:00,STR00001_RRGN,1,,,,,
TR0031Up,8:27:00,8:29:00,STR00005_RTTK,2,,,,,
TR0031Up,9:40:00,9:43:00,STR00013_RBGO,3,,,,,
TR0031Up,10:46:00,10:48:00,STR00016_RDIU,4,,,,,
TR0031Up,11:18:00,11:20:00,STR00018_RNLP,5,,,,,
TR0031Up,11:55:00,11:57:00,STR00020_RKTG,6,,,,,
TR0031Up,12:10:00,12:12:00,STR00021_RPNG,7,,,,,
TR0031Up,12:34:00,12:36:00,STR00022_RKNK,8,,,,,
TR0031Up,12:59:00,13:01:00,STR00023_RPHU,9,,,,,
TR0031Up,14:07:00,14:10:00,STR00026_RTGO,10,,,,,
TR0031Up,15:01:00,15:03:00,STR00028_RSWA,11,,,,,
TR0031Up,15:25:00,15:27:00,STR00029_RMHL,12,,,,,
TR0031Up,15:40:00,15:42:00,STR00030_RYAN,13,,,,,
TR0031Up,15:53:00,15:55:00,STR00031_RTWH,14,,,,,
TR0031Up,16:30:00,16:33:00,STR00033_RPMN,15,,,,,
TR0031Up,17:00:00,17:00:00,STR00034_RNPT,16,,,,,
TR0032Dn,8:00:00,8:00:00,STR00034_RNPT,1,,,,,
TR0032Dn,8:24:00,8:27:00,STR00033_RPMN,2,,,,,
TR0032Dn,9:00:00,9:02:00,STR00031_RTWH,3,,,,,
TR0032Dn,9:13:00,9:15:00,STR00030_RYAN,4,,,,,
TR0032Dn,9:28:00,9:30:00,STR00029_RMHL,5,,,,,
TR0032Dn,9:52:00,9:54:00,STR00028_RSWA,6,,,,,
TR0032Dn,10:56:00,10:59:00,STR00026_RTGO,7,,,,,
TR0032Dn,12:04:00,12:06:00,STR00023_RPHU,8,,,,,
TR0032Dn,12:29:00,12:31:00,STR00022_RKNK,9,,,,,
TR0032Dn,12:54:00,12:56:00,STR00021_RPNG,10,,,,,
TR0032Dn,13:08:00,13:10:00,STR00020_RKTG,11,,,,,
TR0032Dn,13:40:00,13:42:00,STR00018_RNLP,12,,,,,
TR0032Dn,14:12:00,14:14:00,STR00016_RDIU,13,,,,,
TR0032Dn,15:20:00,15:23:00,STR00013_RBGO,14,,,,,
TR0032Dn,16:32:00,16:34:00,STR00005_RTTK,15,,,,,
TR0032Dn,17:00:00,17:00:00,STR00001_RRGN,16,,,,,
TR0033Up,13:00:00,13:00:00,STR00056_RMDL,1,,,,,
TR0033Up,15:40:00,15:43:00,STR00420_RSBO,2,,,,,
TR0033Up,19:33:00,19:43:00,STR00440_RKAW,3,,,,,
TR0033Up,22:32:00,22:42:00,STR00449_RNAB,4,,,,,
TR0033Up,25:10:00,25:13:00,STR00455_RMOH,5,,,,,
TR0033Up,26:07:00,26:09:00,STR00458_RHOP,6,,,,,
TR0033Up,28:03:00,28:06:00,STR00465_RMOK,7,,,,,
TR0033Up,29:10:00,29:25:00,STR00468_RMAL,8,,,,,
TR0033Up,30:30:00,30:30:00,STR00480_RMYI,9,,,,,
TR0034Dn,13:50:00,13:50:00,STR00480_RMYI,1,,,,,
TR0034Dn,15:39:00,15:42:00,STR00465_RMOK,2,,,,,
TR0034Dn,17:23:00,17:41:00,STR00458_RHOP,3,,,,,
TR0034Dn,18:35:00,18:38:00,STR00455_RMOH,4,,,,,
TR0034Dn,21:05:00,21:11:00,STR00449_RNAB,5,,,,,
TR0034Dn,21:49:00,21:55:00,STR00446_RMEZ,6,,,,,
TR0034Dn,23:56:00,24:06:00,STR00440_RKAW,7,,,,,
TR0034Dn,27:57:00,28:00:00,STR00420_RSBO,8,,,,,
TR0034Dn,29:36:00,29:43:00,STR00412_RPAD,9,,,,,
TR0034Dn,31:20:00,31:20:00,STR00056_RMDL,10,,,,,
TR0035Up,21:00:00,21:00:00,STR00001_RRGN,1,,,,,
TR0035Up,22:47:00,22:50:00,STR00013_RBGO,2,,,,,
TR0035Up,24:23:00,24:44:00,STR00315_RTZY,3,,,,,
TR0035Up,25:42:00,25:47:00,STR00323_RKHO,4,,,,,
TR0035Up,26:15:00,26:27:00,STR00327_RTSA,5,,,,,
TR0035Up,26:36:00,26:38:00,STR00329_RHPL,6,,,,,
TR0035Up,27:37:00,27:40:00,STR00337_RTHT,7,,,,,
TR0035Up,30:00:00,30:00:00,STR00351_RMAW,8,,,,,
TR0036Dn,19:30:00,19:30:00,STR00351_RMAW,1,,,,,
TR0036Dn,21:48:00,21:51:00,STR00337_RTHT,2,,,,,
TR0036Dn,22:48:00,22:50:00,STR00329_RHPL,3,,,,,
TR0036Dn,23:09:00,23:11:00,STR00327_RTSA,4,,,,,
TR0036Dn,23:41:00,23:44:00,STR00323_RKHO,5,,,,,
TR0036Dn,26:20:00,26:23:00,STR00013_RBGO,6,,,,,
TR0036Dn,28:20:00,28:20:00,STR00001_RRGN,7,,,,,
TR0037Up,4:30:00,4:30:00,STR00056_RMDL,1,,,,,
TR0037Up,5:10:00,5:12:00,STR00410_RYHT,2,,,,,
TR0037Up,7:10:00,7:13:00,STR00420_RSBO,3,,,,,
TR0037Up,11:05:00,11:07:00,STR00440_RKAW,4,,,,,
TR0037Up,14:04:00,14:07:00,STR00449_RNAB,5,,,,,
TR0037Up,16:41:00,16:44:00,STR00455_RMOH,6,,,,,
TR0037Up,17:38:00,17:40:00,STR00458_RHOP,7,,,,,
TR0037Up,19:34:00,19:37:00,STR00465_RMOK,8,,,,,
TR0037Up,22:00:00,22:00:00,STR00480_RMYI,9,,,,,
TR0038Dn,4:30:00,4:30:00,STR00480_RMYI,1,,,,,
TR0038Dn,6:19:00,6:22:00,STR00465_RMOK,2,,,,,
TR0038Dn,8:03:00,8:05:00,STR00458_RHOP,3,,,,,
TR0038Dn,8:59:00,9:02:00,STR00455_RMOH,4,,,,,
TR0038Dn,11:27:00,11:30:00,STR00449_RNAB,5,,,,,
TR0038Dn,12:39:00,12:56:00,STR00445_RBON,6,,,,,
TR0038Dn,14:31:00,14:41:00,STR00440_RKAW,7,,,,,
TR0038Dn,17:08:00,17:15:00,STR00426_RHTA,8,,,,,
TR0038Dn,18:39:00,18:42:00,STR00420_RSBO,9,,,,,
TR0038Dn,22:00:00,22:00:00,STR00056_RMDL,10,,,,,
TR0043Up,19:10:00,19:10:00,STR00056_RMDL,1,,,,,
TR0043Up,19:34:00,19:44:00,STR01102_RAMA,2,,,,,
TR0043Up,20:14:00,21:19:00,STR00410_RYHT,3,,,,,
TR0043Up,23:10:00,23:20:00,STR00416_RWET,4,,,,,
TR0043Up,24:14:00,24:40:00,STR00420_RSBO,5,,,,,
TR0043Up,25:25:00,25:35:00,STR00422_RKHI,6,,,,,
TR0043Up,26:13:00,26:23:00,STR00424_RHTP,7,,,,,
TR0043Up,26:43:00,26:50:00,STR00425_RNYZ,8,,,,,
TR0043Up,27:08:00,27:18:00,STR00426_RHTA,9,,,,,
TR0043Up,27:48:00,28:12:00,STR00427_RKAN,10,,,,,
TR0043Up,29:10:00,29:22:00,STR00429_RPIT,11,,,,,
TR0043Up,30:37:00,30:46:00,STR00434_RKOE,12,,,,,
TR0043Up,31:12:00,31:22:00,STR00440_RKAW,13,,,,,
TR0043Up,31:49:00,31:54:00,STR00441_RWUN,14,,,,,
TR0043Up,33:48:00,33:49:00,STR00445_RBON,15,,,,,
TR0043Up,35:24:00,35:30:00,STR00449_RNAB,16,,,,,
TR0043Up,36:38:00,36:48:00,STR00451_RMAW,17,,,,,
TR0043Up,37:10:00,37:15:00,STR00452_RNAN,18,,,,,
TR0043Up,37:37:00,38:28:00,STR00453_RMAH,19,,,,,
TR0043Up,39:46:00,40:06:00,STR00455_RMOH,20,,,,,
TR0043Up,40:34:00,41:26:00,STR00456_RNMA,21,,,,,
TR0043Up,41:46:00,42:00:00,STR00457_RMYO,22,,,,,
TR0043Up,42:18:00,42:38:00,STR00458_RHOP,23,,,,,
TR0043Up,42:58:00,43:04:00,STR00459_RNKH,24,,,,,
TR0043Up,43:23:00,43:28:00,STR00460_RPBA,25,,,,,
TR0043Up,44:24:00,44:29:00,STR00463_RSAH,26,,,,,
TR0043Up,45:13:00,45:33:00,STR00465_RMOK,27,,,,,
TR0043Up,45:56:00,46:11:00,STR00466_RNMT,28,,,,,
TR0043Up,48:00:00,48:00:00,STR00480_RMYI,29,,,,,
TR0044Dn,12:00:00,12:00:00,STR00480_RMYI,1,,,,,
TR0044Dn,12:41:00,12:53:00,STR00469_RPYI,2,,,,,
TR0044Dn,14:08:00,14:13:00,STR00466_RNMT,3,,,,,
TR0044Dn,14:36:00,14:51:00,STR00465_RMOK,4,,,,,
TR0044Dn,15:32:00,15:34:00,STR00463_RSAH,5,,,,,
TR0044Dn,16:06:00,16:58:00,STR00461_RMIN,6,,,,,
TR0044Dn,17:15:00,17:19:00,STR00460_RPBA,7,,,,,
TR0044Dn,17:37:00,18:03:00,STR00459_RNKH,8,,,,,
TR0044Dn,18:24:00,18:39:00,STR00458_RHOP,9,,,,,
TR0044Dn,19:02:00,19:05:00,STR00457_RMYO,10,,,,,
TR0044Dn,19:27:00,20:26:00,STR00456_RNMA,11,,,,,
TR0044Dn,20:53:00,21:13:00,STR00455_RMOH,12,,,,,
TR0044Dn,22:28:00,22:33:00,STR00453_RMAH,13,,,,,
TR0044Dn,22:53:00,22:58:00,STR00452_RNAN,14,,,,,
TR0044Dn,23:17:00,23:31:00,STR00451_RMAW,15,,,,,
TR0044Dn,24:32:00,24:37:00,STR00449_RNAB,16,,,,,
TR0044Dn,25:09:00,25:18:00,STR00447_RSEI,17,,,,,
TR0044Dn,25:37:00,26:10:00,STR00446_RMEZ,18,,,,,
TR0044Dn,26:40:00,27:11:00,STR00445_RBON,19,,,,,
TR0044Dn,28:47:00,28:57:00,STR00441_RWUN,20,,,,,
TR0044Dn,29:23:00,30:11:00,STR00440_RKAW,21,,,,,
TR0044Dn,30:43:00,30:48:00,STR00434_RKOE,22,,,,,
TR0044Dn,33:05:00,33:11:00,STR00427_RKAN,23,,,,,
TR0044Dn,33:43:00,33:48:00,STR00426_RHTA,24,,,,,
TR0044Dn,34:22:00,34:32:00,STR00424_RHTP,25,,,,,
TR0044Dn,35:08:00,35:13:00,STR00422_RKHI,26,,,,,
TR0044Dn,35:53:00,36:13:00,STR00420_RSBO,27,,,,,
TR0044Dn,37:08:00,37:10:00,STR00416_RWET,28,,,,,
TR0044Dn,38:09:00,38:22:00,STR00413_RKHE,29,,,,,
TR0044Dn,39:00:00,39:26:00,STR00411_RSAR,30,,,,,
TR0044Dn,39:48:00,40:08:00,STR00410_RYHT,31,,,,,
TR0044Dn,40:40:00,40:50:00,STR01102_RAMA,32,,,,,
TR0044Dn,41:20:00,41:20:00,STR00056_RMDL,33,,,,,
TR0055Up,14:10:00,14:10:00,STR00056_RMDL,1,,,,,
TR0055Up,15:02:00,15:04:00,STR00410_RYHT,2,,,,,
TR0055Up,16:34:00,16:36:00,STR00416_RWET,3,,,,,
TR0055Up,17:22:00,17:24:00,STR00420_RSBO,4,,,,,
TR0055Up,18:02:00,18:10:00,STR00422_RKHI,5,,,,,
TR0055Up,18:42:00,18:44:00,STR00424_RHTP,6,,,,,
TR0055Up,19:42:00,19:44:00,STR00427_RKAN,7,,,,,
TR0055Up,20:11:00,20:13:00,STR00428_RKYU,8,,,,,
TR0055Up,21:07:00,21:09:00,STR00431_RCTH,9,,,,,
TR0055Up,22:08:00,22:18:00,STR00440_RKAW,10,,,,,
TR0055Up,22:42:00,22:44:00,STR00441_RWUN,11,,,,,
TR0055Up,23:07:00,23:19:00,STR00443_RGYO,12,,,,,
TR0055Up,25:28:00,25:30:00,STR00448_RINN,13,,,,,
TR0055Up,25:50:00,26:00:00,STR00449_RNAB,14,,,,,
TR0055Up,26:58:00,27:00:00,STR00451_RMAW,15,,,,,
TR0055Up,28:48:00,28:58:00,STR00455_RMOH,16,,,,,
TR0055Up,29:23:00,29:25:00,STR00456_RNMA,17,,,,,
TR0055Up,29:57:00,29:59:00,STR00458_RHOP,18,,,,,
TR0055Up,30:34:00,30:36:00,STR00460_RPBA,19,,,,,
TR0055Up,31:07:00,31:16:00,STR00462_RTNI,20,,,,,
TR0055Up,31:36:00,31:38:00,STR00463_RSAH,21,,,,,
TR0055Up,32:18:00,32:20:00,STR00465_RMOK,22,,,,,
TR0055Up,32:45:00,32:47:00,STR00466_RNMT,23,,,,,
TR0055Up,33:10:00,33:25:00,STR00469_RPYI,24,,,,,
TR0055Up,34:45:00,34:45:00,STR00480_RMYI,25,,,,,
TR0056Dn,7:45:00,7:45:00,STR00480_RMYI,1,,,,,
TR0056Dn,8:24:00,8:26:00,STR00469_RPYI,2,,,,,
TR0056Dn,9:07:00,9:13:00,STR00467_RMAY,3,,,,,
TR0056Dn,9:32:00,9:34:00,STR00466_RNMT,4,,,,,
TR0056Dn,9:56:00,9:58:00,STR00465_RMOK,5,,,,,
TR0056Dn,10:35:00,10:46:00,STR00463_RSAH,6,,,,,
TR0056Dn,11:27:00,11:29:00,STR00460_RPBA,7,,,,,
TR0056Dn,12:03:00,12:05:00,STR00458_RHOP,8,,,,,
TR0056Dn,12:39:00,12:41:00,STR00456_RNMA,9,,,,,
TR0056Dn,13:05:00,13:15:00,STR00455_RMOH,10,,,,,
TR0056Dn,14:56:00,15:02:00,STR00451_RMAW,11,,,,,
TR0056Dn,15:59:00,16:09:00,STR00449_RNAB,12,,,,,
TR0056Dn,16:26:00,16:28:00,STR00448_RINN,13,,,,,
TR0056Dn,18:31:00,18:33:00,STR00443_RGYO,14,,,,,
TR0056Dn,18:55:00,18:57:00,STR00441_RWUN,15,,,,,
TR0056Dn,19:19:00,19:36:00,STR00440_RKAW,16,,,,,
TR0056Dn,20:35:00,20:37:00,STR00431_RCTH,17,,,,,
TR0056Dn,20:51:00,20:57:00,STR00430_RCKY,18,,,,,
TR0056Dn,21:34:00,21:36:00,STR00428_RKYU,19,,,,,
TR0056Dn,22:03:00,22:05:00,STR00427_RKAN,20,,,,,
TR0056Dn,23:05:00,23:07:00,STR00424_RHTP,21,,,,,
TR0056Dn,23:39:00,23:41:00,STR00422_RKHI,22,,,,,
TR0056Dn,24:17:00,24:19:00,STR00420_RSBO,23,,,,,
TR0056Dn,25:11:00,25:14:00,STR00416_RWET,24,,,,,
TR0056Dn,27:58:00,28:00:00,STR00410_RYHT,25,,,,,
TR0056Dn,28:15:00,28:15:00,STR00056_RMDL,26,,,,,
TR0057Up,16:20:00,16:20:00,STR00056_RMDL,1,,,,,
TR0057Up,17:12:00,17:14:00,STR00410_RYHT,2,,,,,
TR0057Up,19:04:00,19:10:00,STR00417_RMOT,3,,,,,
TR0057Up,19:35:00,19:37:00,STR00420_RSBO,4,,,,,
TR0057Up,20:15:00,20:17:00,STR00422_RKHI,5,,,,,
TR0057Up,21:42:00,22:06:00,STR00427_RKAN,6,,,,,
TR0057Up,22:33:00,22:35:00,STR00428_RKYU,7,,,,,
TR0057Up,24:05:00,24:35:00,STR00434_RKOE,8,,,,,
TR0057Up,24:57:00,25:12:00,STR00440_RKAW,9,,,,,
TR0057Up,25:36:00,25:38:00,STR00441_RWUN,10,,,,,
TR0057Up,26:25:00,26:27:00,STR00444_RNAN,11,,,,,
TR0057Up,27:41:00,27:43:00,STR00446_RMEZ,12,,,,,
TR0057Up,28:14:00,28:16:00,STR00448_RINN,13,,,,,
TR0057Up,28:36:00,28:46:00,STR00449_RNAB,14,,,,,
TR0057Up,31:32:00,31:34:00,STR00455_RMOH,15,,,,,
TR0057Up,32:07:00,32:09:00,STR00456_RNMA,16,,,,,
TR0057Up,33:11:00,33:13:00,STR00458_RHOP,17,,,,,
TR0057Up,33:48:00,33:50:00,STR00460_RPBA,18,,,,,
TR0057Up,34:06:00,34:08:00,STR00461_RMIN,19,,,,,
TR0057Up,35:23:00,35:25:00,STR00465_RMOK,20,,,,,
TR0057Up,35:48:00,35:50:00,STR00466_RNMT,21,,,,,
TR0057Up,37:30:00,37:30:00,STR00480_RMYI,22,,,,,
TR0058Dn,15:10:00,15:10:00,STR00480_RMYI,1,,,,,
TR0058Dn,16:49:00,16:51:00,STR00466_RNMT,2,,,,,
TR0058Dn,17:13:00,17:15:00,STR00465_RMOK,3,,,,,
TR0058Dn,18:18:00,18:30:00,STR00461_RMIN,4,,,,,
TR0058Dn,18:45:00,18:47:00,STR00460_RPBA,5,,,,,
TR0058Dn,19:20:00,19:22:00,STR00458_RHOP,6,,,,,
TR0058Dn,19:56:00,19:58:00,STR00456_RNMA,7,,,,,
TR0058Dn,20:29:00,20:33:00,STR00455_RMOH,8,,,,,
TR0058Dn,22:44:00,23:01:00,STR00450_RPIN,9,,,,,
TR0058Dn,23:12:00,23:52:00,STR00449_RNAB,10,,,,,
TR0058Dn,23:53:00,23:55:00,STR00448_RINN,11,,,,,
TR0058Dn,24:26:00,25:00:00,STR00446_RMEZ,12,,,,,
TR0058Dn,26:09:00,26:28:00,STR00444_RNAN,13,,,,,
TR0058Dn,27:14:00,27:16:00,STR00441_RWUN,14,,,,,
TR0058Dn,27:36:00,27:51:00,STR00440_RKAW,15,,,,,
TR0058Dn,28:15:00,28:17:00,STR00434_RKOE,16,,,,,
TR0058Dn,29:41:00,29:43:00,STR00428_RKYU,17,,,,,
TR0058Dn,30:10:00,30:12:00,STR00427_RKAN,18,,,,,
TR0058Dn,31:44:00,31:50:00,STR00422_RKHI,19,,,,,
TR0058Dn,32:26:00,32:28:00,STR00420_RSBO,20,,,,,
TR0058Dn,35:02:00,35:04:00,STR00410_RYHT,21,,,,,
TR0058Dn,36:20:00,36:20:00,STR00056_RMDL,22,,,,,
TR0061Up,16:00:00,16:00:00,STR00001_RRGN,1,,,,,
TR0061Up,18:46:00,18:48:00,STR00740,2,,,,,
TR0061Up,19:08:00,19:10:00,STR00746,3,,,,,
TR0061Up,20:14:00,20:16:00,STR00764,4,,,,,
TR0061Up,20:26:00,20:28:00,STR00768,5,,,,,
TR0061Up,20:53:00,20:55:00,STR00772,6,,,,,
TR0061Up,21:23:00,21:24:00,STR00782,7,,,,,
TR0061Up,21:59:00,22:01:00,STR00804,8,,,,,
TR0061Up,24:09:00,24:19:00,STR00816,9,,,,,
TR0061Up,25:12:00,24:00:00,STR00820,10,,,,,
TR0061Up,28:04:00,28:06:00,STR00828,11,,,,,
TR0061Up,28:31:00,28:33:00,STR00830,12,,,,,
TR0061Up,29:15:00,29:17:00,STR00834,13,,,,,
TR0061Up,29:41:00,29:43:00,STR00836,14,,,,,
TR0061Up,30:26:00,30:28:00,STR00840,15,,,,,
TR0061Up,31:00:00,31:02:00,STR00842,16,,,,,
TR0061Up,31:39:00,31:41:00,STR00848,17,,,,,
TR0061Up,32:35:00,32:37:00,STR00854,18,,,,,
TR0061Up,33:30:00,33:40:00,STR00858,19,,,,,
TR0061Up,34:49:00,34:51:00,STR00864,20,,,,,
TR0061Up,34:58:00,35:00:00,STR00866,21,,,,,
TR0061Up,35:10:00,35:10:00,STR00868,22,,,,,
TR0062Dn,15:20:00,15:20:00,STR00868,1,,,,,
TR0062Dn,15:30:00,15:32:00,STR00866,2,,,,,
TR0062Dn,15:39:00,15:41:00,STR00864,3,,,,,
TR0062Dn,16:50:00,17:00:00,STR00858,4,,,,,
TR0062Dn,17:53:00,17:55:00,STR00854,5,,,,,
TR0062Dn,18:49:00,18:51:00,STR00848,6,,,,,
TR0062Dn,19:34:00,19:36:00,STR00842,7,,,,,
TR0062Dn,20:02:00,20:04:00,STR00840,8,,,,,
TR0062Dn,20:47:00,20:49:00,STR00836,9,,,,,
TR0062Dn,21:13:00,21:15:00,STR00834,10,,,,,
TR0062Dn,21:57:00,21:59:00,STR00830,11,,,,,
TR0062Dn,22:24:00,22:26:00,STR00828,12,,,,,
TR0062Dn,25:05:00,25:15:00,STR00820,13,,,,,
TR0062Dn,26:08:00,26:18:00,STR00816,14,,,,,
TR0062Dn,28:26:00,28:28:00,STR00804,15,,,,,
TR0062Dn,29:03:00,29:04:00,STR00782,16,,,,,
TR0062Dn,29:32:00,29:34:00,STR00772,17,,,,,
TR0062Dn,29:59:00,30:01:00,STR00768,18,,,,,
TR0062Dn,30:11:00,30:13:00,STR00764,19,,,,,
TR0062Dn,31:18:00,31:20:00,STR00746,20,,,,,
TR0062Dn,31:41:00,31:43:00,STR00740,21,,,,,
TR0062Dn,34:30:00,34:30:00,STR00001_RRGN,22,,,,,
TR0063Up,07:15:00,07:15:00,STR0YC07_KEMM,1,,,,,
TR0063Up,07:39:00,07:44:00,STR0YC16_INSN,2,,,,,
TR0063Up,07:59:00,08:04:00,STR0YC20_DANY,3,,,,,
TR0063Up,08:32:00,08:35:00,STR00708,4,,,,,
TR0063Up,09:02:00,09:13:00,STR00712,5,,,,,
TR0063Up,09:35:00,09:37:00,STR00716,6,,,,,
TR0063Up,10:00:00,10:02:00,STR00720,7,,,,,
TR0063Up,10:26:00,10:29:00,STR00724,8,,,,,
TR0063Up,10:45:00,10:47:00,STR00726,9,,,,,
TR0063Up,11:05:00,11:09:00,STR00730,10,,,,,
TR0063Up,11:26:00,11:28:00,STR00732,11,,,,,
TR0063Up,11:44:00,11:46:00,STR00734,12,,,,,
TR0063Up,12:01:00,12:03:00,STR00736,13,,,,,
TR0063Up,12:18:00,12:21:00,STR00740,14,,,,,
TR0063Up,12:37:00,12:39:00,STR00742,15,,,,,
TR0063Up,12:57:00,13:07:00,STR00746,16,,,,,
TR0063Up,13:40:00,13:42:00,STR00752,17,,,,,
TR0063Up,14:06:00,14:11:00,STR00756,18,,,,,
TR0063Up,14:26:00,14:29:00,STR00758,19,,,,,
TR0063Up,14:52:00,14:57:00,STR00760,20,,,,,
TR0063Up,15:25:00,15:30:00,STR00764,21,,,,,
TR0063Up,15:56:00,16:01:00,STR00768,22,,,,,
TR0063Up,16:26:00,16:31:00,STR00770,23,,,,,
TR0063Up,16:48:00,16:56:00,STR00772,24,,,,,
TR0063Up,17:24:00,17:39:00,STR00778,25,,,,,
TR0063Up,18:05:00,18:13:00,STR00782,26,,,,,
TR0063Up,18:46:00,19:01:00,STR00786,27,,,,,
TR0063Up,19:39:00,19:42:00,STR00790,28,,,,,
TR0063Up,20:20:00,20:20:00,STR00794,29,,,,,
TR0064Dn,01:30:00,01:30:00,STR00794,1,,,,,
TR0064Dn,01:53:00,02:03:00,STR00790,2,,,,,
TR0064Dn,02:29:00,02:44:00,STR00786,3,,,,,
TR0064Dn,03:16:00,03:21:00,STR00782,4,,,,,
TR0064Dn,03:45:00,04:00:00,STR00778,5,,,,,
TR0064Dn,04:28:00,04:33:00,STR00772,6,,,,,
TR0064Dn,04:50:00,04:55:00,STR00770,7,,,,,
TR0064Dn,05:20:00,05:25:00,STR00768,8,,,,,
TR0064Dn,05:50:00,06:26:00,STR00764,9,,,,,
TR0064Dn,06:56:00,07:01:00,STR00760,10,,,,,
TR0064Dn,07:26:00,07:27:00,STR00758,11,,,,,
TR0064Dn,07:41:00,07:44:00,STR00756,12,,,,,
TR0064Dn,08:08:00,08:10:00,STR00752,13,,,,,
TR0064Dn,08:43:00,08:58:00,STR00746,14,,,,,
TR0064Dn,09:10:00,09:13:00,STR00742,15,,,,,
TR0064Dn,09:29:00,09:32:00,STR00740,16,,,,,
TR0064Dn,09:46:00,10:05:00,STR00736,17,,,,,
TR0064Dn,10:20:00,10:22:00,STR00734,18,,,,,
TR0064Dn,10:38:00,10:40:00,STR00732,19,,,,,
TR0064Dn,10:55:00,11:08:00,STR00730,20,,,,,
TR0064Dn,11:25:00,11:27:00,STR00726,21,,,,,
TR0064Dn,11:43:00,11:46:00,STR00724,22,,,,,
TR0064Dn,12:10:00,12:12:00,STR00720,23,,,,,
TR0064Dn,12:35:00,12:38:00,STR00716,24,,,,,
TR0064Dn,13:05:00,13:07:00,STR00712,25,,,,,
TR0064Dn,13:34:00,13:37:00,STR00708,26,,,,,
TR0064Dn,14:13:00,14:25:00,STR0YC20_DANY,27,,,,,
TR0064Dn,14:40:00,14:45:00,STR0YC16_INSN,28,,,,,
TR0064Dn,15:15:00,15:15:00,STR0YC07_KEMM,29,,,,,
TR0069Up,06:15:00,06:15:00,STR0YC07_KEMM,1,,,,,
TR0069Up,06:35:00,06:40:00,STR0YC16_INSN,2,,,,,
TR0069Up,06:53:00,06:55:00,STR0YC20_DANY,3,,,,,
TR0069Up,07:10:00,07:13:00,STR00708,4,,,,,
TR0069Up,07:30:00,07:33:00,STR00712,5,,,,,
TR0069Up,07:46:00,07:48:00,STR00716,6,,,,,
TR0069Up,08:03:00,08:05:00,STR00720,7,,,,,
TR0069Up,08:20:00,08:41:00,STR00724,8,,,,,
TR0069Up,08:58:00,09:00:00,STR00726,9,,,,,
TR0069Up,09:15:00,09:17:00,STR00730,10,,,,,
TR0069Up,09:32:00,09:35:00,STR00732,11,,,,,
TR0069Up,09:47:00,09:49:00,STR00734,12,,,,,
TR0069Up,10:02:00,10:03:00,STR00736,13,,,,,
TR0069Up,10:22:00,10:27:00,STR00740,14,,,,,
TR0069Up,10:43:00,10:45:00,STR00742,15,,,,,
TR0069Up,11:00:00,11:15:00,STR00746,16,,,,,
TR0069Up,11:30:00,11:32:00,STR07002,17,,,,,
TR0069Up,11:41:00,11:42:00,STR07004,18,,,,,
TR0069Up,12:02:00,12:05:00,STR07006,19,,,,,
TR0069Up,12:12:00,12:13:00,STR07008,20,,,,,
TR0069Up,12:23:00,12:24:00,STR07010,21,,,,,
TR0069Up,12:33:00,12:34:00,STR07012,22,,,,,
TR0069Up,12:50:00,12:53:00,STR07014,23,,,,,
TR0069Up,12:59:00,13:00:00,STR07016,24,,,,,
TR0069Up,13:30:00,13:30:00,STR07018,25,,,,,
TR0070Dn,15:00:00,15:00:00,STR07018,1,,,,,
TR0070Dn,15:13:00,15:14:00,STR07016,2,,,,,
TR0070Dn,15:21:00,15:25:00,STR07014,3,,,,,
TR0070Dn,15:28:00,15:29:00,STR07012,4,,,,,
TR0070Dn,15:38:00,15:39:00,STR07010,5,,,,,
TR0070Dn,15:49:00,15:50:00,STR07008,6,,,,,
TR0070Dn,16:02:00,16:05:00,STR07006,7,,,,,
TR0070Dn,16:17:00,16:18:00,STR07004,8,,,,,
TR0070Dn,16:27:00,16:30:00,STR07002,9,,,,,
TR0070Dn,16:55:00,17:25:00,STR00746,10,,,,,
TR0070Dn,17:37:00,17:39:00,STR00742,11,,,,,
TR0070Dn,17:49:00,17:54:00,STR00740,12,,,,,
TR0070Dn,18:08:00,18:42:00,STR00736,13,,,,,
TR0070Dn,18:56:00,18:57:00,STR00734,14,,,,,
TR0070Dn,19:11:00,19:14:00,STR00732,15,,,,,
TR0070Dn,19:29:00,19:34:00,STR00730,16,,,,,
TR0070Dn,19:48:00,19:51:00,STR00726,17,,,,,
TR0070Dn,20:02:00,20:07:00,STR00724,18,,,,,
TR0070Dn,20:24:00,20:26:00,STR00720,19,,,,,
TR0070Dn,20:42:00,20:44:00,STR00716,20,,,,,
TR0070Dn,20:58:00,21:03:00,STR00712,21,,,,,
TR0070Dn,21:23:00,21:28:00,STR00708,22,,,,,
TR0070Dn,21:46:00,22:01:00,STR0YC20_DANY,23,,,,,
TR0070Dn,22:19:00,22:29:00,STR0YC16_INSN,24,,,,,
TR0070Dn,22:50:00,22:50:00,STR0YC07_KEMM,25,,,,,
TR0071Up,13:00:00,13:00:00,STR00001_RRGN,1,,,,,
TR0071Up,13:00:00,13:00:00,STR00001_RRGN,1,,,,,
TR0071Up,14:59:00,15:02:00,STR00724,2,,,,,
TR0071Up,16:15:00,16:23:00,STR00740,3,,,,,
TR0071Up,16:50:00,17:00:00,STR00746,4,,,,,
TR0071Up,17:36:00,17:39:00,STR00756,5,,,,,
TR0071Up,18:05:00,18:08:00,STR00760,6,,,,,
TR0071Up,18:28:00,18:31:00,STR00764,7,,,,,
TR0071Up,18:49:00,18:52:00,STR00768,8,,,,,
TR0071Up,19:14:00,19:17:00,STR00770,9,,,,,
TR0071Up,19:34:00,19:37:00,STR00772,10,,,,,
TR0071Up,19:55:00,19:57:00,STR00778,11,,,,,
TR0071Up,20:13:00,20:16:00,STR00782,12,,,,,
TR0071Up,20:42:00,20:44:00,STR00786,13,,,,,
TR0071Up,21:30:00,21:30:00,STR00794,14,,,,,
TR0072Dn,23:30:00,23:30:00,STR00794,1,,,,,
TR0072Dn,24:01:00,24:03:00,STR00786,2,,,,,
TR0072Dn,24:21:00,24:24:00,STR00782,3,,,,,
TR0072Dn,24:41:00,24:44:00,STR00778,4,,,,,
TR0072Dn,25:04:00,25:07:00,STR00772,5,,,,,
TR0072Dn,25:22:00,25:25:00,STR00770,6,,,,,
TR0072Dn,25:48:00,25:51:00,STR00768,7,,,,,
TR0072Dn,26:11:00,26:14:00,STR00764,8,,,,,
TR0072Dn,26:34:00,26:37:00,STR00760,9,,,,,
TR0072Dn,27:08:00,27:11:00,STR00756,10,,,,,
TR0072Dn,27:50:00,27:55:00,STR00746,11,,,,,
TR0072Dn,28:24:00,28:27:00,STR00740,12,,,,,
TR0072Dn,29:39:00,29:42:00,STR00724,13,,,,,
TR0072Dn,31:50:00,31:50:00,STR00001_RRGN,14,,,,,
TR0085Up,4:30:00,4:30:00,STR00013_RBGO,1,,,,,
TR0085Up,4:44:00,4:46:00,STR00305_RKAL,2,,,,,
TR0085Up,5:08:00,5:13:00,STR00307_RNPT,3,,,,,
TR0085Up,5:35:00,5:45:00,STR00309_RWOR,4,,,,,
TR0085Up,6:05:00,6:10:00,STR00311_RABY,5,,,,,
TR0085Up,6:22:00,6:24:00,STR00313_RSTK,6,,,,,
TR0085Up,6:46:00,6:56:00,STR00315_RTZY,7,,,,,
TR0085Up,7:20:00,7:30:00,STR00317_RMPL,8,,,,,
TR0085Up,7:54:00,7:59:00,STR00319_RKKT,9,,,,,
TR0085Up,8:15:00,8:20:00,STR00321_RBYG,10,,,,,
TR0085Up,8:35:00,8:40:00,STR00323_RKHO,11,,,,,
TR0085Up,8:59:00,9:04:00,STR00325_RMYG,12,,,,,
TR0085Up,9:22:00,9:27:00,STR00327_RTSA,13,,,,,
TR0085Up,9:51:00,9:58:00,STR00329_RHPL,14,,,,,
TR0085Up,10:18:00,10:20:00,STR00331_RDWN,15,,,,,
TR0085Up,10:40:00,11:05:00,STR00333_RTZE,16,,,,,
TR0085Up,11:29:00,11:32:00,STR00335_RNKL,17,,,,,
TR0085Up,11:49:00,11:59:00,STR00337_RTHT,18,,,,,
TR0085Up,12:28:00,12:33:00,STR00339_RYNY,19,,,,,
TR0085Up,12:58:00,13:03:00,STR00341_RZIN,20,,,,,
TR0085Up,13:22:00,13:27:00,STR00343_RPAU,21,,,,,
TR0085Up,13:41:00,13:44:00,STR00345_RKCH,22,,,,,
TR0085Up,14:09:00,14:29:00,STR00347_RTPK,23,,,,,
TR0085Up,14:49:00,15:00:00,STR00349_RMTY,24,,,,,
TR0085Up,15:35:00,15:35:00,STR00351_RMAW,25,,,,,
TR0086Dn,9:00:00,9:00:00,STR00351_RMAW,1,,,,,
TR0086Dn,9:40:00,9:41:00,STR00349_RMTY,2,,,,,
TR0086Dn,10:01:00,10:11:00,STR00347_RTPK,3,,,,,
TR0086Dn,10:46:00,10:48:00,STR00345_RKCH,4,,,,,
TR0086Dn,11:02:00,11:07:00,STR00343_RPAU,5,,,,,
TR0086Dn,11:26:00,11:31:00,STR00341_RZIN,6,,,,,
TR0086Dn,11:56:00,12:31:00,STR00339_RYNY,7,,,,,
TR0086Dn,13:00:00,13:10:00,STR00337_RTHT,8,,,,,
TR0086Dn,13:27:00,13:52:00,STR00335_RNKL,9,,,,,
TR0086Dn,14:16:00,14:19:00,STR00333_RTZE,10,,,,,
TR0086Dn,14:38:00,14:40:00,STR00331_RDWN,11,,,,,
TR0086Dn,15:00:00,15:05:00,STR00329_RHPL,12,,,,,
TR0086Dn,15:29:00,15:32:00,STR00327_RTSA,13,,,,,
TR0086Dn,15:54:00,15:57:00,STR00325_RMYG,14,,,,,
TR0086Dn,16:15:00,16:21:00,STR00323_RKHO,15,,,,,
TR0086Dn,16:36:00,16:41:00,STR00321_RBYG,16,,,,,
TR0086Dn,17:00:00,17:21:00,STR00319_RKKT,17,,,,,
TR0086Dn,17:45:00,17:50:00,STR00317_RMPL,18,,,,,
TR0086Dn,18:20:00,18:30:00,STR00315_RTZY,19,,,,,
TR0086Dn,18:56:00,18:59:00,STR00313_RSTK,20,,,,,
TR0086Dn,19:11:00,19:16:00,STR00311_RABY,21,,,,,
TR0086Dn,19:38:00,19:43:00,STR00309_RWOR,22,,,,,
TR0086Dn,20:03:00,20:08:00,STR00307_RNPT,23,,,,,
TR0086Dn,20:27:00,20:34:00,STR00305_RKAL,24,,,,,
TR0086Dn,20:50:00,20:50:00,STR00013_RBGO,25,,,,,
TR0089Dn,7:15:00,7:15:00,STR00001_RRGN,1,,,,,
TR0089Dn,9:02:00,9:04:00,STR00013_RBGO,2,,,,,
TR0089Dn,11:55:00,11:57:00,STR00323_RKHO,3,,,,,
TR0089Dn,16:50:00,16:50:00,STR00351_RMAW,4,,,,,
TR0090Up,8:00:00,8:00:00,STR00351_RMAW,1,,,,,
TR0090Up,12:31:00,12:33:00,STR00323_RKHO,2,,,,,
TR0090Up,15:22:00,15:24:00,STR00013_RBGO,3,,,,,
TR0090Up,17:30:00,17:30:00,STR00001_RRGN,4,,,,,
TR0119Up,7:00:00,7:00:00,STR00858,1,,,,,
TR0119Up,7:19:00,7:21:00,STR01022_RPLI,2,,,,,
TR0119Up,7:48:00,7:50:00,STR01020_RPHT,3,,,,,
TR0119Up,8:15:00,8:17:00,STR01018_RKZI,4,,,,,
TR0119Up,8:31:00,8:33:00,STR01016_RTMT,5,,,,,
TR0119Up,9:19:00,9:24:00,STR01014_RMGN,6,,,,,
TR0119Up,10:38:00,10:40:00,STR01010_RNHG,7,,,,,
TR0119Up,11:12:00,11:14:00,STR01008_RWEL,8,,,,,
TR0119Up,11:32:00,11:34:00,STR01006_RSPG,9,,,,,
TR0119Up,12:02:00,12:07:00,STR01004_RMYT,10,,,,,
TR0119Up,13:12:00,13:17:00,STR01002_RTDU,11,,,,,
TR0119Up,13:47:00,13:49:00,STR00052_RPAL,12,,,,,
TR0119Up,14:30:00,14:30:00,STR00056_RMDL,13,,,,,
TR0120Dn,21:00:00,21:00:00,STR00056_RMDL,1,,,,,
TR0120Dn,21:41:00,21:43:00,STR00052_RPAL,2,,,,,
TR0120Dn,22:13:00,22:18:00,STR01002_RTDU,3,,,,,
TR0120Dn,23:38:00,23:43:00,STR01004_RMYT,4,,,,,
TR0120Dn,24:21:00,24:23:00,STR01006_RSPG,5,,,,,
TR0120Dn,24:43:00,24:45:00,STR01008_RWEL,6,,,,,
TR0120Dn,25:24:00,25:26:00,STR01010_RNHG,7,,,,,
TR0120Dn,26:21:00,26:26:00,STR01014_RMGN,8,,,,,
TR0120Dn,27:10:00,27:12:00,STR01016_RTMT,9,,,,,
TR0120Dn,27:34:00,27:36:00,STR01018_RKZI,10,,,,,
TR0120Dn,27:56:00,27:58:00,STR01020_RPHT,11,,,,,
TR0120Dn,28:23:00,28:26:00,STR01022_RPLI,12,,,,,
TR0120Dn,28:50:00,28:50:00,STR00858,13,,,,,
TR0123Up,14:30:00,14:30:00,STR00056_RMDL,1,,,,,
TR0123Up,14:35:00,14:36:00,STR00055_RMYH,2,,,,,
TR0123Up,14:40:00,14:41:00,STR01102_RAMA,3,,,,,
TR0123Up,14:54:00,15:00:00,STR01104_RSKY,4,,,,,
TR0123Up,15:05:00,15:06:00,STR01106_RSGG,5,,,,,
TR0123Up,15:11:00,15:12:00,STR00410_RYHT,6,,,,,
TR0123Up,15:21:00,15:22:00,STR01108_RNTY,7,,,,,
TR0123Up,15:32:00,15:34:00,STR01110_RNPW,8,,,,,
TR0123Up,16:14:00,16:16:00,STR01112_RMMU,9,,,,,
TR0123Up,16:50:00,16:51:00,STR01114_RALL,10,,,,,
TR0123Up,17:22:00,17:23:00,STR01116_RCHU,11,,,,,
TR0123Up,17:44:00,17:45:00,STR01118_RKYM,12,,,,,
TR0123Up,18:33:00,18:39:00,STR01120_RATH,13,,,,,
TR0123Up,19:01:00,19:10:00,STR01122_RMYW,14,,,,,
TR0124Dn,6:21:00,6:21:00,STR01122_RMYW,1,,,,,
TR0124Dn,6:43:00,6:44:00,STR01120_RATH,2,,,,,
TR0124Dn,7:37:00,7:38:00,STR01118_RKYM,3,,,,,
TR0124Dn,7:59:00,8:00:00,STR01116_RCHU,4,,,,,
TR0124Dn,8:31:00,8:32:00,STR01114_RALL,5,,,,,
TR0124Dn,9:07:00,9:08:00,STR01112_RMMU,6,,,,,
TR0124Dn,9:47:00,9:52:00,STR01110_RNPW,7,,,,,
TR0124Dn,10:02:00,10:03:00,STR01108_RNTY,8,,,,,
TR0124Dn,10:18:00,10:30:00,STR00410_RYHT,9,,,,,
TR0124Dn,10:35:00,10:36:00,STR01106_RSGG,10,,,,,
TR0124Dn,10:45:00,10:47:00,STR01104_RSKY,11,,,,,
TR0124Dn,11:00:00,11:01:00,STR01102_RAMA,12,,,,,
TR0124Dn,11:06:00,11:07:00,STR00055_RMYH,13,,,,,
TR0124Dn,11:20:00,11:20:00,STR00056_RMDL,14,,,,,
TR0131Up,04:00:00,04:00:00,STR00056_RMDL,1,,,,,
TR0131Up,04:12:00,04:15:00,STR00055_RMYH,2,,,,,
TR0131Up,04:25:00,04:27:00,STR00502,3,,,,,
TR0131Up,04:52:00,04:57:00,STR00504,4,,,,,
TR0131Up,05:10:00,05:25:00,STR00506,5,,,,,
TR0131Up,05:57:00,06:00:00,STR00508,6,,,,,
TR0131Up,06:33:00,06:38:00,STR00510,7,,,,,
TR0131Up,07:08:00,07:13:00,STR00512,8,,,,,
TR0131Up,07:27:00,07:29:00,STR00514,9,,,,,
TR0131Up,07:52:00,08:22:00,STR00516,10,,,,,
TR0131Up,08:39:00,08:41:00,STR00518,11,,,,,
TR0131Up,09:04:00,09:06:00,STR00520,12,,,,,
TR0131Up,09:21:00,09:23:00,STR00522,13,,,,,
TR0131Up,09:41:00,09:43:00,STR00524,14,,,,,
TR0131Up,10:23:00,10:33:00,STR00526,15,,,,,
TR0131Up,11:03:00,11:08:00,STR00528,16,,,,,
TR0131Up,11:58:00,12:25:00,STR00530,17,,,,,
TR0131Up,12:51:00,12:53:00,STR00532,18,,,,,
TR0131Up,13:19:00,13:39:00,STR00534,19,,,,,
TR0131Up,13:58:00,14:00:00,STR00536,20,,,,,
TR0131Up,14:33:00,14:35:00,STR00538,21,,,,,
TR0131Up,14:55:00,15:15:00,STR00540,22,,,,,
TR0131Up,16:05:00,16:07:00,STR00542,23,,,,,
TR0131Up,16:47:00,16:49:00,STR00544,24,,,,,
TR0131Up,17:39:00,17:41:00,STR00546,25,,,,,
TR0131Up,18:06:00,18:08:00,STR00548,26,,,,,
TR0131Up,18:32:00,18:35:00,STR00550,27,,,,,
TR0131Up,19:35:00,19:35:00,STR00552,28,,,,,
TR0132Dn,05:00:00,05:00:00,STR00552,1,,,,,
TR0132Dn,05:59:00,06:01:00,STR00550,2,,,,,
TR0132Dn,06:24:00,06:26:00,STR00548,3,,,,,
TR0132Dn,06:52:00,07:02:00,STR00546,4,,,,,
TR0132Dn,07:47:00,07:52:00,STR00544,5,,,,,
TR0132Dn,08:32:00,08:37:00,STR00542,6,,,,,
TR0132Dn,09:25:00,09:40:00,STR00540,7,,,,,
TR0132Dn,10:03:00,10:05:00,STR00538,8,,,,,
TR0132Dn,10:43:00,10:45:00,STR00536,9,,,,,
TR0132Dn,11:05:00,11:25:00,STR00534,10,,,,,
TR0132Dn,11:50:00,11:52:00,STR00532,11,,,,,
TR0132Dn,12:22:00,12:30:00,STR00530,12,,,,,
TR0132Dn,13:23:00,13:25:00,STR00528,13,,,,,
TR0132Dn,13:55:00,14:00:00,STR00526,14,,,,,
TR0132Dn,14:40:00,14:42:00,STR00524,15,,,,,
TR0132Dn,15:00:00,15:02:00,STR00522,16,,,,,
TR0132Dn,15:17:00,15:19:00,STR00520,17,,,,,
TR0132Dn,15:44:00,15:46:00,STR00518,18,,,,,
TR0132Dn,16:05:00,17:40:00,STR00516,19,,,,,
TR0132Dn,18:10:00,18:12:00,STR00514,20,,,,,
TR0132Dn,18:25:00,18:35:00,STR00512,21,,,,,
TR0132Dn,19:20:00,19:30:00,STR00510,22,,,,,
TR0132Dn,20:07:00,20:12:00,STR00508,23,,,,,
TR0132Dn,21:02:00,21:22:00,STR00506,24,,,,,
TR0132Dn,21:35:00,21:40:00,STR00504,25,,,,,
TR0132Dn,22:00:00,22:02:00,STR00502,26,,,,,
TR0132Dn,22:12:00,22:27:00,STR00055_RMYH,27,,,,,
TR0132Dn,22:40:00,22:40:00,STR00056_RMDL,28,,,,,
TR0142Dn,6:00:00,6:00:00,STR00950_RYAK,1,,,,,
TR0142Dn,9:10:00,9:40:00,STR00940_RSNY,2,,,,,
TR0142Dn,10:40:00,11:10:00,STR00930_RHEH,3,,,,,
TR0142Dn,12:20:00,12:35:00,STR00920_RABAN,4,,,,,
TR0142Dn,13:10:00,13:25:00,STR00910_RKLW,5,,,,,
TR0142Dn,20:45:00,20:45:00,STR00040_RTHZ,6,,,,,
TR0143Up,5:00:00,5:00:00,STR00040_RTHZ,1,,,,,
TR0143Up,11:35:00,11:40:00,STR00910_RKLW,2,,,,,
TR0143Up,12:15:00,12:30:00,STR00920_RABAN,3,,,,,
TR0143Up,13:40:00,13:45:00,STR00930_RHEH,4,,,,,
TR0143Up,14:50:00,15:20:00,STR00940_RSNY,5,,,,,
TR0143Up,19:00:00,19:00:00,STR00950_RYAK,6,,,,,
TR0171Up,7:15:00,7:15:00,STR00351_RMAW,1,,,,,
TR0171Up,7:38:00,7:39:00,STR00352,2,,,,,
TR0171Up,7:46:00,7:47:00,STR00353,3,,,,,
TR0171Up,8:01:00,8:02:00,STR00354,4,,,,,
TR0171Up,8:20:00,8:22:00,STR00355,5,,,,,
TR0171Up,8:29:00,8:30:00,STR00356,6,,,,,
TR0171Up,8:36:00,9:03:00,STR00357,7,,,,,
TR0171Up,9:21:00,9:22:00,STR00358,8,,,,,
TR0171Up,9:33:00,9:35:00,STR00359,9,,,,,
TR0171Up,9:50:00,9:51:00,STR00360,10,,,,,
TR0171Up,10:08:00,10:09:00,STR00361,11,,,,,
TR0171Up,10:23:00,10:30:00,STR00362,12,,,,,
TR0171Up,10:51:00,10:53:00,STR00363,13,,,,,
TR0171Up,11:03:00,11:04:00,STR00364,14,,,,,
TR0171Up,11:13:00,11:14:00,STR00365,15,,,,,
TR0171Up,11:23:00,11:24:00,STR00366,16,,,,,
TR0171Up,11:30:00,11:31:00,STR00367,17,,,,,
TR0171Up,11:40:00,11:41:00,STR00368,18,,,,,
TR0171Up,11:51:00,11:52:00,STR00369,19,,,,,
TR0171Up,12:02:00,12:03:00,STR00370,20,,,,,
TR0171Up,12:28:00,12:30:00,STR00371,21,,,,,
TR0171Up,12:50:00,12:52:00,STR00372,22,,,,,
TR0171Up,13:14:00,13:16:00,STR00373,23,,,,,
TR0171Up,13:31:00,13:32:00,STR00374,24,,,,,
TR0171Up,13:42:00,13:43:00,STR00375,25,,,,,
TR0171Up,13:57:00,13:58:00,STR00376,26,,,,,
TR0171Up,14:20:00,14:20:00,STR00377,27,,,,,
TR0172Dn,6:30:00,6:30:00,STR00377,1,,,,,
TR0172Dn,6:55:00,6:56:00,STR00376,2,,,,,
TR0172Dn,7:10:00,7:11:00,STR00375,3,,,,,
TR0172Dn,7:21:00,7:22:00,STR00374,4,,,,,
TR0172Dn,7:36:00,7:38:00,STR00373,5,,,,,
TR0172Dn,8:00:00,8:02:00,STR00372,6,,,,,
TR0172Dn,8:22:00,8:28:00,STR00371,7,,,,,
TR0172Dn,8:53:00,8:54:00,STR00370,8,,,,,
TR0172Dn,9:04:00,9:05:00,STR00369,9,,,,,
TR0172Dn,9:15:00,9:16:00,STR00368,10,,,,,
TR0172Dn,9:25:00,9:26:00,STR00367,11,,,,,
TR0172Dn,9:32:00,9:33:00,STR00366,12,,,,,
TR0172Dn,9:42:00,9:43:00,STR00365,13,,,,,
TR0172Dn,9:52:00,9:53:00,STR00364,14,,,,,
TR0172Dn,10:03:00,10:05:00,STR00363,15,,,,,
TR0172Dn,10:27:00,10:29:00,STR00362,16,,,,,
TR0172Dn,10:43:00,10:44:00,STR00361,17,,,,,
TR0172Dn,11:01:00,11:02:00,STR00360,18,,,,,
TR0172Dn,11:15:00,11:17:00,STR00359,19,,,,,
TR0172Dn,11:30:00,11:31:00,STR00358,20,,,,,
TR0172Dn,11:49:00,11:51:00,STR00357,21,,,,,
TR0172Dn,11:57:00,11:58:00,STR00356,22,,,,,
TR0172Dn,12:05:00,12:07:00,STR00355,23,,,,,
TR0172Dn,12:25:00,12:26:00,STR00354,24,,,,,
TR0172Dn,12:40:00,12:41:00,STR00353,25,,,,,
TR0172Dn,12:48:00,12:49:00,STR00352,26,,,,,
TR0172Dn,13:10:00,13:10:00,STR00351_RMAW,27,,,,,
TR0175Up,18:25:00,18:25:00,STR00001_RRGN,1,,,,,
TR0175Up,20:14:00,20:19:00,STR00013_RBGO,2,,,,,
TR0175Up,21:06:00,21:08:00,STR00309_RWOR,3,,,,,
TR0175Up,21:57:00,22:00:00,STR00315_RTZY,4,,,,,
TR0175Up,23:04:00,23:07:00,STR00323_RKHO,5,,,,,
TR0175Up,23:22:00,23:31:00,STR00325_RMYG,6,,,,,
TR0175Up,23:48:00,23:50:00,STR00327_RTSA,7,,,,,
TR0175Up,24:10:00,24:19:00,STR00329_RHPL,8,,,,,
TR0175Up,25:25:00,25:27:00,STR00337_RTHT,9,,,,,
TR0175Up,26:27:00,26:29:00,STR00343_RPAU,10,,,,,
TR0175Up,28:00:00,28:30:00,STR00351_RMAW,11,,,,,
TR0175Up,29:34:00,29:36:00,STR00357,12,,,,,
TR0175Up,30:05:00,30:06:00,STR00359,13,,,,,
TR0175Up,30:43:00,30:45:00,STR00362,14,,,,,
TR0175Up,31:15:00,31:16:00,STR00364,15,,,,,
TR0175Up,31:42:00,31:43:00,STR00368,16,,,,,
TR0175Up,32:03:00,32:04:00,STR00370,17,,,,,
TR0175Up,32:27:00,32:29:00,STR00371,18,,,,,
TR0175Up,32:51:00,32:53:00,STR00372,19,,,,,
TR0175Up,33:17:00,33:18:00,STR00373,20,,,,,
TR0175Up,34:10:00,34:25:00,STR00377,21,,,,,
TR0175Up,34:36:00,34:37:00,STR00378,22,,,,,
TR0175Up,34:47:00,34:48:00,STR00379,23,,,,,
TR0175Up,34:55:00,34:56:00,STR00380,24,,,,,
TR0175Up,35:44:00,35:46:00,STR00381,25,,,,,
TR0175Up,36:06:00,36:07:00,STR00382,26,,,,,
TR0175Up,36:17:00,36:19:00,STR00383,27,,,,,
TR0175Up,36:43:00,36:44:00,STR00384,28,,,,,
TR0175Up,36:52:00,36:53:00,STR00385,29,,,,,
TR0175Up,36:59:00,37:00:00,STR00386,30,,,,,
TR0175Up,37:11:00,37:13:00,STR00387,31,,,,,
TR0175Up,37:31:00,37:32:00,STR00388,32,,,,,
TR0175Up,38:01:00,38:02:00,STR00389,33,,,,,
TR0175Up,38:22:00,38:23:00,STR00390,34,,,,,
TR0175Up,38:52:00,38:54:00,STR00391,35,,,,,
TR0175Up,39:12:00,39:13:00,STR00392,36,,,,,
TR0175Up,39:46:00,39:48:00,STR00393,37,,,,,
TR0175Up,40:29:00,40:30:00,STR00394,38,,,,,
TR0175Up,41:32:00,41:33:00,STR00395,39,,,,,
TR0175Up,41:51:00,41:53:00,STR00396,40,,,,,
TR0175Up,41:59:00,42:00:00,STR00397,41,,,,,
TR0175Up,42:21:00,42:22:00,STR00398,42,,,,,
TR0175Up,42:34:00,42:37:00,STR00399,43,,,,,
TR0175Up,43:00:00,43:00:00,STR00400,44,,,,,
TR0176Dn,5:40:00,5:40:00,STR00400,1,,,,,
TR0176Dn,5:58:00,6:01:00,STR00399,2,,,,,
TR0176Dn,6:09:00,6:10:00,STR00398,3,,,,,
TR0176Dn,6:29:00,6:30:00,STR00397,4,,,,,
TR0176Dn,6:36:00,6:38:00,STR00396,5,,,,,
TR0176Dn,7:59:00,8:00:00,STR00394,6,,,,,
TR0176Dn,8:41:00,8:43:00,STR00393,7,,,,,
TR0176Dn,9:16:00,9:17:00,STR00392,8,,,,,
TR0176Dn,9:35:00,9:37:00,STR00391,9,,,,,
TR0176Dn,10:06:00,10:07:00,STR00390,10,,,,,
TR0176Dn,10:27:00,10:28:00,STR00389,11,,,,,
TR0176Dn,10:57:00,10:58:00,STR00388,12,,,,,
TR0176Dn,11:16:00,11:18:00,STR00387,13,,,,,
TR0176Dn,11:29:00,11:30:00,STR00386,14,,,,,
TR0176Dn,11:36:00,11:37:00,STR00385,15,,,,,
TR0176Dn,11:45:00,11:46:00,STR00384,16,,,,,
TR0176Dn,12:10:00,12:20:00,STR00383,17,,,,,
TR0176Dn,12:30:00,12:31:00,STR00382,18,,,,,
TR0176Dn,12:53:00,12:55:00,STR00381,19,,,,,
TR0176Dn,13:43:00,13:44:00,STR00380,20,,,,,
TR0176Dn,14:01:00,14:02:00,STR00379,21,,,,,
TR0176Dn,14:12:00,14:13:00,STR00378,22,,,,,
TR0176Dn,14:23:00,14:38:00,STR00377,23,,,,,
TR0176Dn,15:29:00,15:31:00,STR00373,24,,,,,
TR0176Dn,15:56:00,15:58:00,STR00372,25,,,,,
TR0176Dn,16:18:00,16:20:00,STR00371,26,,,,,
TR0176Dn,16:44:00,16:45:00,STR00370,27,,,,,
TR0176Dn,17:05:00,17:07:00,STR00368,28,,,,,
TR0176Dn,17:33:00,17:35:00,STR00364,29,,,,,
TR0176Dn,18:05:00,18:07:00,STR00362,30,,,,,
TR0176Dn,18:47:00,18:49:00,STR00359,31,,,,,
TR0176Dn,19:17:00,19:19:00,STR00357,32,,,,,
TR0176Dn,20:25:00,20:55:00,STR00351_RMAW,33,,,,,
TR0176Dn,22:16:00,22:18:00,STR00343_RPAU,34,,,,,
TR0176Dn,23:15:00,23:17:00,STR00337_RTHT,35,,,,,
TR0176Dn,24:16:00,24:21:00,STR00329_RHPL,36,,,,,
TR0176Dn,24:40:00,24:42:00,STR00327_RTSA,37,,,,,
TR0176Dn,25:11:00,25:14:00,STR00323_RKHO,38,,,,,
TR0176Dn,25:27:00,25:33:00,STR00321_RBYG,39,,,,,
TR0176Dn,26:26:00,26:29:00,STR00315_RTZY,40,,,,,
TR0176Dn,27:20:00,27:22:00,STR00309_RWOR,41,,,,,
TR0176Dn,28:10:00,28:13:00,STR00013_RBGO,42,,,,,
TR0176Dn,30:20:00,30:20:00,STR00001_RRGN,43,,,,,
TR0135Up,18:00:00,18:00:00,STR00056_RMDL,1,,,,,
TR0135Up,18:24:00,18:27:00,STR01102_RAMA,2,,,,,
TR0135Up,18:57:00,18:59:00,STR01106_RSGG,3,,,,,
TR0135Up,19:07:00,19:12:00,STR00410_RYHT,4,,,,,
TR0135Up,19:47:00,19:49:00,STR01108_RNTY,5,,,,,
TR0135Up,20:24:00,20:26:00,STR01110_RNPW,6,,,,,
TR0135Up,20:53:00,20:55:00,STR01112_RMMU,7,,,,,
TR0135Up,21:15:00,21:17:00,STR01114_RALL,8,,,,,
TR0135Up,22:10:00,22:40:00,STR01116_RCHU,9,,,,,
TR0135Up,23:01:00,23:03:00,STR01302,10,,,,,
TR0135Up,23:20:00,23:22:00,STR01304,11,,,,,
TR0135Up,24:06:00,24:08:00,STR01308,12,,,,,
TR0135Up,24:20:00,24:22:00,STR01310,13,,,,,
TR0135Up,24:10:00,24:12:00,STR01312,14,,,,,
TR0135Up,24:44:00,24:49:00,STR01314,15,,,,,
TR0135Up,25:17:00,25:19:00,STR01316,16,,,,,
TR0135Up,25:26:00,25:27:00,STR01318,17,,,,,
TR0135Up,25:45:00,25:47:00,STR01322,18,,,,,
TR0135Up,26:15:00,26:15:00,STR00868,19,,,,,
TR0136Dn,06:30:00,06:30:00,STR00868,1,,,,,
TR0136Dn,06:50:00,06:53:00,STR01322,2,,,,,
TR0136Dn,07:10:00,07:11:00,STR01318,3,,,,,
TR0136Dn,07:18:00,07:21:00,STR01316,4,,,,,
TR0136Dn,07:45:00,07:50:00,STR01314,5,,,,,
TR0136Dn,08:00:00,08:02:00,STR01312,6,,,,,
TR0136Dn,08:11:00,08:16:00,STR01310,7,,,,,
TR0136Dn,08:28:00,08:33:00,STR01308,8,,,,,
TR0136Dn,09:19:00,09:22:00,STR01304,9,,,,,
TR0136Dn,09:39:00,09:41:00,STR01302,10,,,,,
TR0136Dn,10:03:00,10:33:00,STR01116_RCHU,11,,,,,
TR0136Dn,11:18:00,11:23:00,STR01114_RALL,12,,,,,
TR0136Dn,11:46:00,11:49:00,STR01112_RMMU,13,,,,,
TR0136Dn,12:13:00,12:15:00,STR01110_RNPW,14,,,,,
TR0136Dn,12:48:00,12:50:00,STR01108_RNTY,15,,,,,
TR0136Dn,13:25:00,13:43:00,STR00410_RYHT,16,,,,,
TR0136Dn,13:53:00,13:55:00,STR01106_RSGG,17,,,,,
TR0136Dn,14:23:00,14:36:00,STR01102_RAMA,18,,,,,
TR0136Dn,15:05:00,15:05:00,STR00056_RMDL,19,,,,,
TR0121Dn,15:10:00,15:10:00,STR01116_RCHU,1,,,,,
TR0121Dn,15:29:00,15:30:00,STR01300,2,,,,,
TR0121Dn,15:45:00,15:46:00,STR01302,3,,,,,
TR0121Dn,15:54:00,15:55:00,STR01302,4,,,,,
TR0121Dn,16:06:00,16:07:00,STR01304,5,,,,,
TR0121Dn,16:12:00,16:13:00,STR01306,6,,,,,
TR0121Dn,16:29:00,16:30:00,STR01307,7,,,,,
TR0121Dn,16:37:00,16:39:00,STR01308,8,,,,,
TR0121Dn,16:52:00,16:54:00,STR01310,9,,,,,
TR0121Dn,17:00:00,17:01:00,STR01312,10,,,,,
TR0121Dn,17:18:00,17:20:00,STR01314,11,,,,,
TR0121Dn,17:36:00,17:37:00,STR01315,12,,,,,
TR0121Dn,17:50:00,17:52:00,STR01316,13,,,,,
TR0121Dn,17:57:00,17:58:00,STR01318,14,,,,,
TR0121Dn,18:03:00,18:04:00,STR01320,15,,,,,
TR0121Dn,18:17:00,18:23:00,STR01322,16,,,,,
TR0121Dn,18:32:00,18:33:00,STR01324,17,,,,,
TR0121Dn,18:40:00,18:41:00,STR01326,18,,,,,
TR0121Dn,18:55:00,18:55:00,STR00868,19,,,,,
TR0122Up,05:30:00,05:30:00,STR00868,1,,,,,
TR0122Up,05:37:00,05:38:00,STR01326,2,,,,,
TR0122Up,05:43:00,05:44:00,STR01324,3,,,,,
TR0122Up,05:52:00,05:54:00,STR01322,4,,,,,
TR0122Up,06:09:00,06:11:00,STR01320,5,,,,,
TR0122Up,06:15:00,06:16:00,STR01318,6,,,,,
TR0122Up,06:21:00,06:23:00,STR01316,7,,,,,
TR0122Up,06:34:00,06:36:00,STR01315,8,,,,,
TR0122Up,06:50:00,06:55:00,STR01314,9,,,,,
TR0122Up,07:07:00,07:08:00,STR01312,10,,,,,
TR0122Up,07:17:00,07:19:00,STR01310,11,,,,,
TR0122Up,07:31:00,07:33:00,STR01308,12,,,,,
TR0122Up,07:56:00,07:57:00,STR01307,13,,,,,
TR0122Up,08:13:00,08:15:00,STR01306,14,,,,,
TR0122Up,08:20:00,08:22:00,STR01304,15,,,,,
TR0122Up,08:30:00,08:31:00,STR01302,16,,,,,
TR0122Up,08:39:00,08:41:00,STR01302,17,,,,,
TR0122Up,08:51:00,08:53:00,STR01300,18,,,,,
TR0122Up,09:05:00,09:05:00,STR01116_RCHU,19,,,,,
