<?xml version="1.0" encoding="UTF-8"?>
<kml xmlns="http://www.opengis.net/kml/2.2" xmlns:gx="http://www.google.com/kml/ext/2.2" xmlns:kml="http://www.opengis.net/kml/2.2" xmlns:atom="http://www.w3.org/2005/Atom">
<Document>
	<name>102-MDL-Lashio.kml</name>
	<StyleMap id="stylemap_id12">
		<Pair>
			<key>normal</key>
			<styleUrl>#style20</styleUrl>
		</Pair>
		<Pair>
			<key>highlight</key>
			<styleUrl>#style01</styleUrl>
		</Pair>
	</StyleMap>
	<Style id="style01">
		<LineStyle>
			<color>ff00ffff</color>
			<width>5</width>
		</LineStyle>
		<PolyStyle>
			<fill>0</fill>
		</PolyStyle>
	</Style>
	<Style id="style20">
		<LineStyle>
			<color>ff00ffff</color>
			<width>5</width>
		</LineStyle>
		<PolyStyle>
			<fill>0</fill>
		</PolyStyle>
	</Style>
	<Placemark>
		<name>102-MDL-Lashio</name>
		<styleUrl>#stylemap_id12</styleUrl>
		<ExtendedData>
			<SchemaData schemaUrl="C:/Users/laye/Google Drive/MMrail paths/mmrail_mimu.kmz#mmr_rlwl_250k_mimu">
				<SimpleData name="Id">0</SimpleData>
			</SchemaData>
		</ExtendedData>
		<LineString>
			<coordinates>
				97.58894718077843,22.89622413778053,0 97.58881061568192,22.89651210000222,0 97.58866957250648,22.89699845290775,0 97.5886320798973,22.89730315029888,0 97.58868944982862,22.89760677235244,0 97.58880259958626,22.89790512825208,0 97.58899611887102,22.89813792452227,0 97.58934837754033,22.89832094696492,0 97.59037406344686,22.89859614700022,0 97.59092950276924,22.89878418284359,0 97.5949655826477,22.89956715749499,0 97.59654051650787,22.89986046115349,0 97.59693073095619,22.89987905573164,0 97.5972660625247,22.89982394993156,0 97.59761486415324,22.89976051917145,0 97.59904550399264,22.89962592203331,0 97.59957736559412,22.899667449149,0 97.60124637353454,22.89981633737057,0 97.60161617230766,22.89990282851043,0 97.60201650102367,22.90005390058122,0 97.60235899067686,22.90026134837604,0 97.60266733146105,22.90057261077156,0 97.60295964529867,22.90086515302651,0 97.6038926146088,22.90194954637725,0 97.60455331014144,22.9026807065711,0 97.60506224333734,22.90306091015087,0 97.60534690197761,22.90319551158029,0 97.60561260319467,22.90330716200624,0 97.6061536730171,22.90340900238012,0 97.60653818205631,22.90339981092203,0 97.60824366247439,22.90297973149537,0 97.60914089717062,22.90265541330692,0 97.60952638953648,22.90252679220475,0 97.60983307038265,22.90249022922744,0 97.61010463362442,22.90250393071272,0 97.61050767517891,22.9025896978968,0 97.61082503559861,22.90271306277554,0 97.61112481905659,22.90289397480363,0 97.61133627999787,22.90317821209476,0 97.61152376901994,22.90345511027194,0 97.61161449045754,22.90375182990489,0 97.61167447012349,22.90407761169152,0 97.61164959563998,22.9044484580847,0 97.61152485933877,22.90472978585751,0 97.611260772317,22.90514282823632,0 97.61085712091369,22.90562010772506,0 97.61070509606587,22.90586765007244,0 97.61070450778729,22.90587956631904,0 97.61056975366982,22.90618704863056,0 97.61054287685521,22.90653511828456,0 97.61055549783347,22.90682319516223,0 97.61064355469488,22.90708642886498,0 97.61078674441743,22.90738147917409,0 97.61100216408873,22.90762217783458,0 97.61122979655265,22.90781173352075,0 97.61193317628575,22.90808089992901,0 97.61252892106862,22.90830922905769,0 97.61327026489335,22.90853410392925,0 97.61373380066431,22.90860308249891,0 97.61422803006806,22.9086232003334,0 97.61460895442065,22.90865082625679,0 97.61548364363667,22.9087075126958,0 97.61592787975296,22.90877905505394,0 97.61623593122306,22.90887596668227,0 97.61662917949708,22.9090475670111,0 97.61695409577959,22.90920213672633,0 97.6175017082431,22.90956887388849,0 97.61816708281585,22.9100153794393,0 97.6200063549682,22.91177457167128,0 97.62146272511035,22.91306585232299,0 97.62192553517271,22.91355249333103,0 97.62221867697082,22.91385776671146,0 97.62234849746893,22.91417052041233,0 97.62245018970558,22.91453816976061,0 97.62248261602248,22.91481118513769,0 97.62244994812366,22.91512020286822,0 97.62233928024602,22.91535217763135,0 97.62214507291513,22.91567287081504,0 97.62175729897373,22.91615510936048,0 97.62089419099593,22.91718960637717,0 97.62073590661545,22.91757067457611,0 97.62066659686263,22.9178493922357,0 97.62068104580399,22.91833818773304,0 97.62076908172499,22.9186648168438,0 97.62107699337901,22.91930545847928,0 97.62132113819824,22.91970860624448,0 97.6216444439612,22.92010877216544,0 97.6218887571014,22.92029469188802,0 97.62217939680531,22.92042979970733,0 97.62244001273434,22.92050114391325,0 97.62268846020706,22.92055214290333,0 97.62292723157661,22.92056934614978,0 97.62319939348723,22.92056172727581,0 97.6241402921833,22.92052938193444,0 97.625930493911,22.92046635245972,0 97.62640133599579,22.92048803768461,0 97.6266362224446,22.92056610503459,0 97.62685585991734,22.92066493487767,0 97.62704380975883,22.92079798432042,0 97.62727095649761,22.92099035457055,0 97.62745005074228,22.92117410407061,0 97.62775808121937,22.92150121489388,0 97.62792782512642,22.92175009331131,0 97.62804261104958,22.92199538932288,0 97.62809461575732,22.92228632197997,0 97.62814983871681,22.92267630617387,0 97.62821326317993,22.92293243248372,0 97.62830445616517,22.92312937750819,0 97.62842947059262,22.92329172038542,0 97.62859665752669,22.923451417423,0 97.62884080018094,22.92363241192256,0 97.62913676358087,22.92381770732246,0 97.62981515588874,22.92426572944511,0 97.63009782137794,22.92440727847093,0 97.63049672167821,22.92456570218662,0 97.63089003266967,22.92465512775975,0 97.63136254010352,22.9247156821278,0 97.63174515301381,22.92474971740687,0 97.63208715675845,22.92479919779959,0 97.63227304038179,22.92486347439015,0 97.6324873420151,22.92497117915077,0 97.6326956263102,22.92512997901832,0 97.63295374375713,22.92531075899676,0 97.63315988514209,22.92545253388467,0 97.63331176306181,22.92553046398769,0 97.63353366064364,22.92558770400323,0 97.63377267085639,22.92563662783486,0 97.63398962321135,22.92567722771035,0 97.63428915758625,22.92575398843844,0 97.63459677180678,22.92586708721343,0 97.63492802194909,22.92601464863847,0 97.63524204101904,22.92617518086865,0 97.63559823557466,22.92636810883239,0 97.63587779240227,22.92649553246017,0 97.63614738886326,22.92659291247615,0 97.63639947239335,22.92666027604968,0 97.63667018567146,22.92669629704857,0 97.63847269743854,22.92645848947759,0 97.6395006581802,22.92631988964853,0 97.64001416214396,22.92627978126589,0 97.64032101952313,22.92631262183412,0 97.64053630623263,22.92636964836664,0 97.64072699522787,22.92644514789436,0 97.64100759428966,22.92659964081593,0 97.64118717347705,22.92673174085813,0 97.64131396273763,22.92686547150214,0 97.64141752001957,22.92703274745171,0 97.64150714194913,22.92718984738061,0 97.6415772577236,22.92736957222733,0 97.64165836894514,22.92761648117988,0 97.64167026675185,22.92789028749251,0 97.6416429715776,22.92813829162491,0 97.64154766132855,22.92849178867179,0 97.64130255330575,22.92931423863251,0 97.6412711933382,22.92958902698852,0 97.64128451414091,22.92982775003608,0 97.64136356074489,22.93011302831958,0 97.64146088936298,22.93035345786872,0 97.64159805983859,22.93056000122366,0 97.64177892694204,22.93074077759617,0 97.64197470054077,22.9309014421752,0 97.64217641020895,22.93104536683092,0 97.64242980374142,22.93114019757898,0 97.6426704164511,22.93122429361251,0 97.64316893990485,22.93136470686573,0 97.64446701368487,22.93168947535142,0 97.64487280595083,22.9318304528139,0 97.64503569821035,22.93191044177171,0 97.64519388913055,22.93200364938307,0 97.64535651391931,22.93212967467895,0 97.64558762736721,22.93230586170016,0 97.64577662546239,22.93248521691385,0 97.64630925953836,22.93301236274407,0 97.64648418391653,22.93315037879045,0 97.64665919800639,22.93326433464076,0 97.64700375222188,22.93341567900044,0 97.64731336314749,22.93353344482621,0 97.64751476115025,22.93357817210935,0 97.64783596029285,22.93362559814332,0 97.64817525092488,22.93366353684922,0 97.64847750831279,22.93365336773564,0 97.64884752911408,22.93360361459176,0 97.64917076038718,22.93351592515309,0 97.64952883505461,22.93337876006788,0 97.64974996034989,22.93323701595975,0 97.65001934582982,22.93300496339935,0 97.65085701323838,22.93206225115132,0 97.65127861232801,22.93162928083975,0 97.65152939380903,22.93146763789488,0 97.6517451989105,22.93138896036496,0 97.6519332532727,22.93135603298691,0 97.65213468138542,22.93134142100584,0 97.65244996345467,22.9313954386622,0 97.65270770320181,22.93147959676069,0 97.65473887684829,22.93206009689251,0 97.65500769067384,22.93215234670297,0 97.6552377365211,22.93228385133378,0 97.65538009128447,22.93241361664914,0 97.6555010748026,22.93255537581599,0 97.65557408649534,22.93269275634805,0 97.65563879644586,22.93287304249778,0 97.65567683796598,22.93309173066969,0 97.65570396289505,22.93336896265334,0 97.65570229783999,22.93449003220083,0 97.65567672556486,22.93550246006263,0 97.65570606212252,22.93576747460839,0 97.65575089246084,22.9360118834668,0 97.65585772880637,22.93623924122131,0 97.65599460857969,22.93641014496496,0 97.6561542489558,22.93654339005383,0 97.65635463816055,22.936636558605,0 97.65654486888236,22.93668077544197,0 97.65672976286761,22.93670152486049,0 97.65696679105861,22.93668311679969,0 97.65717738481401,22.93661361506894,0 97.65895569388823,22.93571545893403,0 97.66135863276476,22.93447041969874,0 97.66168128727179,22.93431913599506,0 97.66196076970299,22.93422630834853,0 97.66217742878078,22.93417344096885,0 97.66250669009816,22.93410874819682,0 97.66271770945203,22.93410666703892,0 97.66291027463831,22.93411876295107,0 97.66311453942994,22.93415300621248,0 97.66337254333543,22.93419172893068,0 97.66363165346509,22.93427496713042,0 97.66389488859419,22.93435633052643,0 97.66417184240919,22.93449836877682,0 97.6647436664223,22.93484430718243,0 97.66508355191576,22.93503188101583,0 97.66592676655812,22.93555018751411,0 97.666899657001,22.93617208585077,0 97.66714823046861,22.93641394601596,0 97.66733711554163,22.93667130849442,0 97.66749379897098,22.9369204343681,0 97.66761168371571,22.93720727523549,0 97.66774064712378,22.93761182812551,0 97.66783081120434,22.93804815920613,0 97.66798777509551,22.93876412102873,0 97.66798232659697,22.93894804996829,0 97.66797579602672,22.93906615372734,0 97.66795360333185,22.93918141020684,0 97.66791282924214,22.93946214984981,0 97.66785062235458,22.9396211997466,0 97.66775336955932,22.93980412337679,0 97.66761803370864,22.94001767287977,0 97.66743283931582,22.94023038186309,0 97.66722448048878,22.9404159371415,0 97.66596198662838,22.94141963591522,0 97.6657979925742,22.94158014518806,0 97.66567496597317,22.94177132948202,0 97.66549509051008,22.94214823468196,0 97.66539579575866,22.94250044169547,0 97.66474838377503,22.94457866800309,0 97.66468703586394,22.94480711965617,0 97.66466860799474,22.94502425954325,0 97.66469095447556,22.94521201032862,0 97.6647553561161,22.94545923579778,0 97.66483364198552,22.94562945183973,0 97.66497257000246,22.94584950398778,0 97.66511350034602,22.94599603997088,0 97.66526945278351,22.9461396984393,0 97.66544282267861,22.94625013323445,0 97.66562857612793,22.94636244493195,0 97.66588343737119,22.94642505385106,0 97.66617911910269,22.94648509918777,0 97.66647563776391,22.94649820936525,0 97.66675627668465,22.94650572285769,0 97.66735649805798,22.94649657252667,0 97.66764103908189,22.94654649707334,0 97.66781509436551,22.9466125545304,0 97.66799243379082,22.94670814036953,0 97.66819797834671,22.94683165673648,0 97.66837535498345,22.94698206609856,0 97.66918152335795,22.94772151277813,0 97.66933167521357,22.9479392638927,0 97.66942119686287,22.94813441384529,0 97.669502727441,22.94836406777828,0 97.66988239172146,22.9496017967885,0 97.67008610624851,22.94998545880161,0 97.67029335616053,22.95019579549268,0 97.67050201925545,22.9503458619719,0 97.67073641537721,22.95048180533867,0 97.67099236117799,22.95057520447036,0 97.67119949680154,22.95061658114067,0 97.6714440459041,22.95064845276151,0 97.67166037607859,22.95066109016422,0 97.67182932043862,22.95062661369961,0 97.67198409783303,22.95058473757827,0 97.67446176585051,22.9495928563336,0 97.67479417920424,22.94950911777708,0 97.67520150100356,22.94946440145056,0 97.67552581655362,22.94942709792181,0 97.67854308954736,22.94907198946349,0 97.67884598981806,22.9490930670873,0 97.67903323345601,22.94910795252252,0 97.67919907792928,22.94915286996723,0 97.6794625097305,22.94925015585667,0 97.67965683566101,22.94934581052628,0 97.67992527396412,22.94949624991356,0 97.68011161795387,22.94966581288947,0 97.68026598881929,22.94981338267437,0 97.68045646851282,22.95007776780822,0 97.68217560820567,22.95247309495135,0 97.68269937014048,22.95321907241951,0 97.68285754341193,22.95339416030363,0 97.68301555288927,22.95352050402342,0 97.68320936875047,22.95362985281419,0 97.68340544439835,22.95373320001299,0 97.68477182352635,22.95437119799919,0 97.68500676537485,22.95444698999753,0 97.68521894786915,22.95447033578125,0 97.68542386838726,22.95447433025203,0 97.68563648951181,22.95446189975665,0 97.68588356372129,22.95440698017816,0 97.68828253648326,22.95362072296568,0 97.68963823584075,22.95322905859837,0 97.68993350077389,22.95320408393931,0 97.69020856788443,22.95321016700065,0 97.69039063130596,22.95321569990869,0 97.69074294895341,22.95326521397541,0 97.69160625337209,22.95348596442432,0 97.69187385908967,22.95358991298408,0 97.69208040044018,22.95369035686536,0 97.69226288184497,22.95378054199979,0 97.69244739898345,22.95390153272705,0 97.69362876556205,22.95486013426089,0 97.69474489196487,22.95585650858056,0 97.6949395176343,22.95606783086979,0 97.69506011509327,22.9562320769939,0 97.69532407140017,22.9565696488071,0 97.69586699559449,22.95716163514737,0 97.69610217972733,22.95735623967942,0 97.69626915870083,22.95745772701598,0 97.69698330154745,22.95789419330139,0 97.70002333798406,22.95967945497659,0 97.70130320555963,22.96043387845701,0 97.70155664797221,22.96066796439802,0 97.70175845599749,22.96093245709448,0 97.70190693519108,22.96121561647304,0 97.70203015814184,22.96152215870617,0 97.70225383845136,22.96244667455013,0 97.70236453709821,22.96285633646478,0 97.70249172814286,22.96313535309228,0 97.70268113244262,22.96340312187023,0 97.70296332339895,22.96365022807724,0 97.70636201563914,22.9664357086249,0 97.70736429788958,22.96715905790179,0 97.70761124426042,22.96728956804242,0 97.70790935231982,22.96738853490755,0 97.7082861179848,22.96745536987832,0 97.71321365027984,22.96831062862739,0 97.71561774731892,22.96878278489267,0 97.71594419112951,22.96887381734909,0 97.71624951454345,22.96897282127697,0 97.71652611496387,22.96907317517076,0 97.7196710598991,22.97055566262202,0 97.72053430979966,22.97096450905333,0 97.72079355870169,22.97108679003838,0 97.72106453254897,22.97116529339148,0 97.72132470177641,22.97117290388901,0 97.72156511943476,22.97117465042915,0 97.72183703612292,22.97110854239833,0 97.72211878232261,22.9709970724272,0 97.72426590224046,22.9698604466577,0 97.72472946605748,22.9696908833573,0 97.72500006035493,22.96964638607043,0 97.72523076617605,22.96962234278603,0 97.7254124949303,22.96962888826553,0 97.72558367502865,22.96964049165958,0 97.72575171885073,22.96966779283422,0 97.7259585747934,22.96971676366722,0 97.72615379421011,22.96978751299359,0 97.72630622767319,22.9698694523023,0 97.72650792537114,22.97001976830982,0 97.7314818459276,22.97380568584547,0 
			</coordinates>
		</LineString>
	</Placemark>
</Document>
</kml>
