<?xml version="1.0" encoding="UTF-8"?>
<kml xmlns="http://www.opengis.net/kml/2.2" xmlns:gx="http://www.google.com/kml/ext/2.2" xmlns:kml="http://www.opengis.net/kml/2.2" xmlns:atom="http://www.w3.org/2005/Atom">
<Document>
	<name>MM Connections.kml</name>
	<StyleMap id="stylemap_id7">
		<Pair>
			<key>normal</key>
			<styleUrl>#style2415</styleUrl>
		</Pair>
		<Pair>
			<key>highlight</key>
			<styleUrl>#style41</styleUrl>
		</Pair>
	</StyleMap>
	<StyleMap id="stylemap_id70">
		<Pair>
			<key>normal</key>
			<styleUrl>#style24</styleUrl>
		</Pair>
		<Pair>
			<key>highlight</key>
			<styleUrl>#style414</styleUrl>
		</Pair>
	</StyleMap>
	<Style id="style41">
		<LineStyle>
			<color>ff0000ff</color>
			<width>5</width>
		</LineStyle>
		<PolyStyle>
			<fill>0</fill>
		</PolyStyle>
	</Style>
	<Style id="style24">
		<LineStyle>
			<color>ff0000ff</color>
			<width>5</width>
		</LineStyle>
		<PolyStyle>
			<fill>0</fill>
		</PolyStyle>
	</Style>
	<StyleMap id="stylemap_id71">
		<Pair>
			<key>normal</key>
			<styleUrl>#style2412</styleUrl>
		</Pair>
		<Pair>
			<key>highlight</key>
			<styleUrl>#style416</styleUrl>
		</Pair>
	</StyleMap>
	<Style id="style410">
		<LineStyle>
			<color>ff0000ff</color>
			<width>5</width>
		</LineStyle>
		<PolyStyle>
			<fill>0</fill>
		</PolyStyle>
	</Style>
	<StyleMap id="stylemap_id72">
		<Pair>
			<key>normal</key>
			<styleUrl>#style245</styleUrl>
		</Pair>
		<Pair>
			<key>highlight</key>
			<styleUrl>#style413</styleUrl>
		</Pair>
	</StyleMap>
	<StyleMap id="stylemap_id73">
		<Pair>
			<key>normal</key>
			<styleUrl>#style2414</styleUrl>
		</Pair>
		<Pair>
			<key>highlight</key>
			<styleUrl>#style4115</styleUrl>
		</Pair>
	</StyleMap>
	<Style id="style411">
		<LineStyle>
			<color>ff0000ff</color>
			<width>5</width>
		</LineStyle>
		<PolyStyle>
			<fill>0</fill>
		</PolyStyle>
	</Style>
	<Style id="style412">
		<LineStyle>
			<color>ff0000ff</color>
			<width>5</width>
		</LineStyle>
		<PolyStyle>
			<fill>0</fill>
		</PolyStyle>
	</Style>
	<Style id="style240">
		<LineStyle>
			<color>ff0000ff</color>
			<width>5</width>
		</LineStyle>
		<PolyStyle>
			<fill>0</fill>
		</PolyStyle>
	</Style>
	<Style id="style241">
		<LineStyle>
			<color>ff0000ff</color>
			<width>5</width>
		</LineStyle>
		<PolyStyle>
			<fill>0</fill>
		</PolyStyle>
	</Style>
	<StyleMap id="stylemap_id74">
		<Pair>
			<key>normal</key>
			<styleUrl>#style2413</styleUrl>
		</Pair>
		<Pair>
			<key>highlight</key>
			<styleUrl>#style4113</styleUrl>
		</Pair>
	</StyleMap>
	<Style id="style242">
		<LineStyle>
			<color>ff0000ff</color>
			<width>5</width>
		</LineStyle>
		<PolyStyle>
			<fill>0</fill>
		</PolyStyle>
	</Style>
	<Style id="style413">
		<LineStyle>
			<color>ff0000ff</color>
			<width>5</width>
		</LineStyle>
		<PolyStyle>
			<fill>0</fill>
		</PolyStyle>
	</Style>
	<StyleMap id="stylemap_id75">
		<Pair>
			<key>normal</key>
			<styleUrl>#style249</styleUrl>
		</Pair>
		<Pair>
			<key>highlight</key>
			<styleUrl>#style412</styleUrl>
		</Pair>
	</StyleMap>
	<Style id="style414">
		<LineStyle>
			<color>ff0000ff</color>
			<width>5</width>
		</LineStyle>
		<PolyStyle>
			<fill>0</fill>
		</PolyStyle>
	</Style>
	<Style id="style243">
		<LineStyle>
			<color>ff0000ff</color>
			<width>5</width>
		</LineStyle>
		<PolyStyle>
			<fill>0</fill>
		</PolyStyle>
	</Style>
	<Style id="style244">
		<LineStyle>
			<color>ff0000ff</color>
			<width>5</width>
		</LineStyle>
		<PolyStyle>
			<fill>0</fill>
		</PolyStyle>
	</Style>
	<Style id="style245">
		<LineStyle>
			<color>ff0000ff</color>
			<width>5</width>
		</LineStyle>
		<PolyStyle>
			<fill>0</fill>
		</PolyStyle>
	</Style>
	<Style id="style246">
		<LineStyle>
			<color>ff0000ff</color>
			<width>5</width>
		</LineStyle>
		<PolyStyle>
			<fill>0</fill>
		</PolyStyle>
	</Style>
	<StyleMap id="stylemap_id76">
		<Pair>
			<key>normal</key>
			<styleUrl>#style243</styleUrl>
		</Pair>
		<Pair>
			<key>highlight</key>
			<styleUrl>#style4110</styleUrl>
		</Pair>
	</StyleMap>
	<StyleMap id="stylemap_id77">
		<Pair>
			<key>normal</key>
			<styleUrl>#style2410</styleUrl>
		</Pair>
		<Pair>
			<key>highlight</key>
			<styleUrl>#style411</styleUrl>
		</Pair>
	</StyleMap>
	<Style id="style415">
		<LineStyle>
			<color>ff0000ff</color>
			<width>5</width>
		</LineStyle>
		<PolyStyle>
			<fill>0</fill>
		</PolyStyle>
	</Style>
	<Style id="style416">
		<LineStyle>
			<color>ff0000ff</color>
			<width>5</width>
		</LineStyle>
		<PolyStyle>
			<fill>0</fill>
		</PolyStyle>
	</Style>
	<StyleMap id="stylemap_id78">
		<Pair>
			<key>normal</key>
			<styleUrl>#style246</styleUrl>
		</Pair>
		<Pair>
			<key>highlight</key>
			<styleUrl>#style4111</styleUrl>
		</Pair>
	</StyleMap>
	<Style id="style247">
		<LineStyle>
			<color>ff0000ff</color>
			<width>5</width>
		</LineStyle>
		<PolyStyle>
			<fill>0</fill>
		</PolyStyle>
	</Style>
	<StyleMap id="stylemap_id79">
		<Pair>
			<key>normal</key>
			<styleUrl>#style2411</styleUrl>
		</Pair>
		<Pair>
			<key>highlight</key>
			<styleUrl>#style417</styleUrl>
		</Pair>
	</StyleMap>
	<StyleMap id="stylemap_id710">
		<Pair>
			<key>normal</key>
			<styleUrl>#style247</styleUrl>
		</Pair>
		<Pair>
			<key>highlight</key>
			<styleUrl>#style419</styleUrl>
		</Pair>
	</StyleMap>
	<StyleMap id="stylemap_id711">
		<Pair>
			<key>normal</key>
			<styleUrl>#style244</styleUrl>
		</Pair>
		<Pair>
			<key>highlight</key>
			<styleUrl>#style418</styleUrl>
		</Pair>
	</StyleMap>
	<Style id="style248">
		<LineStyle>
			<color>ff0000ff</color>
			<width>5</width>
		</LineStyle>
		<PolyStyle>
			<fill>0</fill>
		</PolyStyle>
	</Style>
	<Style id="style417">
		<LineStyle>
			<color>ff0000ff</color>
			<width>5</width>
		</LineStyle>
		<PolyStyle>
			<fill>0</fill>
		</PolyStyle>
	</Style>
	<Style id="style249">
		<LineStyle>
			<color>ff0000ff</color>
			<width>5</width>
		</LineStyle>
		<PolyStyle>
			<fill>0</fill>
		</PolyStyle>
	</Style>
	<Style id="style418">
		<LineStyle>
			<color>ff0000ff</color>
			<width>5</width>
		</LineStyle>
		<PolyStyle>
			<fill>0</fill>
		</PolyStyle>
	</Style>
	<StyleMap id="stylemap_id712">
		<Pair>
			<key>normal</key>
			<styleUrl>#style241</styleUrl>
		</Pair>
		<Pair>
			<key>highlight</key>
			<styleUrl>#style415</styleUrl>
		</Pair>
	</StyleMap>
	<Style id="style419">
		<LineStyle>
			<color>ff0000ff</color>
			<width>5</width>
		</LineStyle>
		<PolyStyle>
			<fill>0</fill>
		</PolyStyle>
	</Style>
	<Style id="style2410">
		<LineStyle>
			<color>ff0000ff</color>
			<width>5</width>
		</LineStyle>
		<PolyStyle>
			<fill>0</fill>
		</PolyStyle>
	</Style>
	<Style id="style4110">
		<LineStyle>
			<color>ff0000ff</color>
			<width>5</width>
		</LineStyle>
		<PolyStyle>
			<fill>0</fill>
		</PolyStyle>
	</Style>
	<Style id="style4111">
		<LineStyle>
			<color>ff0000ff</color>
			<width>5</width>
		</LineStyle>
		<PolyStyle>
			<fill>0</fill>
		</PolyStyle>
	</Style>
	<Style id="style4112">
		<LineStyle>
			<color>ff0000ff</color>
			<width>5</width>
		</LineStyle>
		<PolyStyle>
			<fill>0</fill>
		</PolyStyle>
	</Style>
	<StyleMap id="stylemap_id713">
		<Pair>
			<key>normal</key>
			<styleUrl>#style242</styleUrl>
		</Pair>
		<Pair>
			<key>highlight</key>
			<styleUrl>#style4112</styleUrl>
		</Pair>
	</StyleMap>
	<Style id="style2411">
		<LineStyle>
			<color>ff0000ff</color>
			<width>5</width>
		</LineStyle>
		<PolyStyle>
			<fill>0</fill>
		</PolyStyle>
	</Style>
	<Style id="style4113">
		<LineStyle>
			<color>ff0000ff</color>
			<width>5</width>
		</LineStyle>
		<PolyStyle>
			<fill>0</fill>
		</PolyStyle>
	</Style>
	<Style id="style2412">
		<LineStyle>
			<color>ff0000ff</color>
			<width>5</width>
		</LineStyle>
		<PolyStyle>
			<fill>0</fill>
		</PolyStyle>
	</Style>
	<Style id="style2413">
		<LineStyle>
			<color>ff0000ff</color>
			<width>5</width>
		</LineStyle>
		<PolyStyle>
			<fill>0</fill>
		</PolyStyle>
	</Style>
	<Style id="style2414">
		<LineStyle>
			<color>ff0000ff</color>
			<width>5</width>
		</LineStyle>
		<PolyStyle>
			<fill>0</fill>
		</PolyStyle>
	</Style>
	<StyleMap id="stylemap_id714">
		<Pair>
			<key>normal</key>
			<styleUrl>#style248</styleUrl>
		</Pair>
		<Pair>
			<key>highlight</key>
			<styleUrl>#style410</styleUrl>
		</Pair>
	</StyleMap>
	<Style id="style4114">
		<LineStyle>
			<color>ff0000ff</color>
			<width>5</width>
		</LineStyle>
		<PolyStyle>
			<fill>0</fill>
		</PolyStyle>
	</Style>
	<Style id="style2415">
		<LineStyle>
			<color>ff0000ff</color>
			<width>5</width>
		</LineStyle>
		<PolyStyle>
			<fill>0</fill>
		</PolyStyle>
	</Style>
	<StyleMap id="stylemap_id715">
		<Pair>
			<key>normal</key>
			<styleUrl>#style240</styleUrl>
		</Pair>
		<Pair>
			<key>highlight</key>
			<styleUrl>#style4114</styleUrl>
		</Pair>
	</StyleMap>
	<Style id="style4115">
		<LineStyle>
			<color>ff0000ff</color>
			<width>5</width>
		</LineStyle>
		<PolyStyle>
			<fill>0</fill>
		</PolyStyle>
	</Style>
	<Folder>
		<name>MM Connections</name>
		<visibility>0</visibility>
		<open>1</open>
		<Placemark>
			<name>7-8 (RGN-NPT)/31-32</name>
			<visibility>0</visibility>
			<styleUrl>#stylemap_id76</styleUrl>
			<LineString>
				<tessellate>1</tessellate>
				<coordinates>
					96.16129052587723,16.78125275203945,0 96.19682138961183,19.8487245504362,0 
				</coordinates>
			</LineString>
		</Placemark>
		<Placemark>
			<name>9-10 (RGN-Thazi)</name>
			<visibility>0</visibility>
			<styleUrl>#stylemap_id72</styleUrl>
			<LineString>
				<tessellate>1</tessellate>
				<coordinates>
					96.16131484484396,16.78119673682739,0 96.05793144887858,20.8536376358408,0 
				</coordinates>
			</LineString>
		</Placemark>
		<Placemark>
			<name>11-12 (RGN-MDL)</name>
			<visibility>0</visibility>
			<styleUrl>#stylemap_id71</styleUrl>
			<LineString>
				<tessellate>1</tessellate>
				<coordinates>
					96.16132801380307,16.78129260730193,0 96.0861493301633,21.97680642717917,0 
				</coordinates>
			</LineString>
		</Placemark>
		<Placemark>
			<name>13-14 (RGN-Bago)</name>
			<visibility>0</visibility>
			<styleUrl>#stylemap_id713</styleUrl>
			<LineString>
				<tessellate>1</tessellate>
				<coordinates>
					96.1612349461272,16.78126319116866,0 96.16140635576215,16.78128677055815,0 96.47499110181107,17.33503505499348,0 
				</coordinates>
			</LineString>
		</Placemark>
		<Placemark>
			<name>15-16 (NPT-Mawlamyaing)</name>
			<visibility>0</visibility>
			<styleUrl>#stylemap_id79</styleUrl>
			<LineString>
				<tessellate>1</tessellate>
				<coordinates>
					96.19642971911931,19.84907470246331,0 97.63582106645129,16.47174147463563,0 
				</coordinates>
			</LineString>
		</Placemark>
		<Placemark>
			<name>19-20 (Thingangyun-Taungoo)</name>
			<visibility>0</visibility>
			<styleUrl>#stylemap_id714</styleUrl>
			<LineString>
				<tessellate>1</tessellate>
				<coordinates>
					96.19653045601353,16.8286247728558,0 96.20454074804222,16.83997238553323,0 96.43744515618,18.93552646720316,0 
				</coordinates>
			</LineString>
		</Placemark>
		<Placemark>
			<name>21-22 (Taungoo-Thazi)</name>
			<visibility>0</visibility>
			<styleUrl>#stylemap_id7</styleUrl>
			<LineString>
				<tessellate>1</tessellate>
				<coordinates>
					96.4373908000612,18.93547233369182,0 96.05797517789726,20.85370422647904,0 
				</coordinates>
			</LineString>
		</Placemark>
		<Placemark>
			<name>33-34/37-38/41-42/43-44/55-56/57-58 (MDL-Myitkyinar)</name>
			<visibility>0</visibility>
			<styleUrl>#stylemap_id78</styleUrl>
			<LineString>
				<tessellate>1</tessellate>
				<coordinates>
					96.08604702345292,21.97683484355533,0 97.39843946313067,25.38154791901599,0 
				</coordinates>
			</LineString>
		</Placemark>
		<Placemark>
			<name>35-36/89-90 (RGN-Mawlamyaing)</name>
			<visibility>0</visibility>
			<styleUrl>#stylemap_id73</styleUrl>
			<LineString>
				<tessellate>1</tessellate>
				<coordinates>
					96.16129052587723,16.78125275203945,0 97.63582474624947,16.47170689671434,0 
				</coordinates>
			</LineString>
		</Placemark>
		<Placemark>
			<name>45-46 (Ywa Htaung - Kawlinn)</name>
			<visibility>0</visibility>
			<styleUrl>#stylemap_id74</styleUrl>
			<LineString>
				<tessellate>1</tessellate>
				<coordinates>
					95.97110609472036,21.90500717460492,0 95.67829485458518,23.79176199209833,0 
				</coordinates>
			</LineString>
		</Placemark>
		<Placemark>
			<name>47-48 (MDL-Na Bar)</name>
			<visibility>0</visibility>
			<styleUrl>#stylemap_id77</styleUrl>
			<LineString>
				<tessellate>1</tessellate>
				<coordinates>
					96.08539504579406,21.97757174788393,0 96.18114175185485,24.25227703857514,0 
				</coordinates>
			</LineString>
		</Placemark>
		<Placemark>
			<name>49-50 (Na Bar- Myitkyinar)</name>
			<visibility>0</visibility>
			<styleUrl>#stylemap_id75</styleUrl>
			<LineString>
				<tessellate>1</tessellate>
				<coordinates>
					96.18105037838167,24.25221462872247,0 97.3985506151039,25.38157269864887,0 
				</coordinates>
			</LineString>
		</Placemark>
		<Placemark>
			<name>59-60 (Monywa-Khin-U</name>
			<visibility>0</visibility>
			<styleUrl>#stylemap_id715</styleUrl>
			<LineString>
				<tessellate>1</tessellate>
				<coordinates>
					95.13665293568076,22.1158564473242,0 95.61816780217779,22.77349405244666,0 
				</coordinates>
			</LineString>
		</Placemark>
		<Placemark>
			<name>61-62 (RGN-Pakokku)</name>
			<visibility>0</visibility>
			<styleUrl>#stylemap_id712</styleUrl>
			<LineString>
				<tessellate>1</tessellate>
				<coordinates>
					96.16126456930982,16.78142441458937,0 96.13117134705777,16.79083145053464,0 95.06490690666581,21.3495000684941,0 
				</coordinates>
			</LineString>
		</Placemark>
		<Placemark>
			<name>63-64 (Kyimyinding-Pyi)</name>
			<visibility>0</visibility>
			<styleUrl>#stylemap_id710</styleUrl>
			<LineString>
				<tessellate>1</tessellate>
				<coordinates>
					96.1263235287868,16.8066231163614,0 95.99107610886694,17.26159840169795,0 95.85442459450562,17.50068058997919,0 95.74299837466683,17.78685448115046,0 95.62040079601091,18.33923600208558,0 95.39678492505857,18.69171730494203,0 95.28433091383961,18.81851156649515,0 95.21683738652337,18.82063995710182,0 
				</coordinates>
			</LineString>
		</Placemark>
		<Placemark>
			<name>69-70 (Kyimyinding-Tharrawaw)</name>
			<visibility>0</visibility>
			<styleUrl>#stylemap_id711</styleUrl>
			<LineString>
				<tessellate>1</tessellate>
				<coordinates>
					96.12638542676683,16.80645340790247,0 95.98639993625109,17.26090096271916,0 95.85164047554497,17.49983437425637,0 95.73794931671517,17.79375660694895,0 95.70068401713554,17.81119561341131,0 95.62224757657921,17.81075239035463,0 95.53204327896476,17.78264777137236,0 95.47049299405992,17.72070692394333,0 
				</coordinates>
			</LineString>
		</Placemark>
		<Placemark>
			<name>71-72 (RGN-Pyi)</name>
			<visibility>0</visibility>
			<styleUrl>#stylemap_id70</styleUrl>
			<LineString>
				<tessellate>1</tessellate>
				<coordinates>
					96.1611952722851,16.78128683133797,0 96.13149725171904,16.78964909974761,0 96.01297783080551,17.24211600671436,0 95.75642735527363,17.79387854566908,0 95.64315569784277,18.32922158638115,0 95.29916815340491,18.80729664346116,0 95.27934060521903,18.81994929920209,0 95.21932152296671,18.82254954059572,0 
				</coordinates>
			</LineString>
		</Placemark>
	</Folder>
</Document>
</kml>
