<?xml version="1.0" encoding="UTF-8"?>
<kml xmlns="http://www.opengis.net/kml/2.2" xmlns:gx="http://www.google.com/kml/ext/2.2" xmlns:kml="http://www.opengis.net/kml/2.2" xmlns:atom="http://www.w3.org/2005/Atom">
<Document>
	<name>W01-W06-Yangon-Kyautpadaung.kml</name>
	<open>1</open>
	<StyleMap id="stylemap_id7">
		<Pair>
			<key>normal</key>
			<styleUrl>#style24</styleUrl>
		</Pair>
		<Pair>
			<key>highlight</key>
			<styleUrl>#style41</styleUrl>
		</Pair>
	</StyleMap>
	<Style id="style24">
		<LineStyle>
			<color>ff00ff00</color>
			<width>5</width>
		</LineStyle>
		<PolyStyle>
			<fill>0</fill>
		</PolyStyle>
	</Style>
	<Style id="style41">
		<LineStyle>
			<color>ff00ff00</color>
			<width>5</width>
		</LineStyle>
		<PolyStyle>
			<fill>0</fill>
		</PolyStyle>
	</Style>
	<Placemark>
		<name>W01-W06-Yangon-Kyautpadaung</name>
		<styleUrl>#stylemap_id7</styleUrl>
		<ExtendedData>
			<SchemaData schemaUrl="W01-W06-Yangon-Kyautpadaung.kml">
				<SimpleData name="Id">0</SimpleData>
			</SchemaData>
		</ExtendedData>
		<LineString>
			<coordinates>
				96.12829817745579,16.7962779397121,0 96.12803892744216,16.79690804454753,0 96.12712530612085,16.79868628319663,0 96.12669562046148,16.79958220416422,0 96.12645269258663,16.80004768918007,0 96.12628769525162,16.80048674495214,0 96.12623170646326,16.80088357476551,0 96.12623036869708,16.80131088117443,0 96.12620732883738,16.80237480394067,0 96.12617119883959,16.80332859569903,0 96.12622692571041,16.80480454698409,0 96.12619018000231,16.80990414671831,0 96.126130502973,16.81703613178228,0 96.12618696295937,16.81889105142018,0 96.12619265859105,16.81934659558738,0 96.12615862768907,16.81979349489202,0 96.12607502462365,16.82026420389905,0 96.12508452558053,16.82355818916748,0 96.12441307248142,16.82577780093312,0 96.12236861103975,16.83252453728618,0 96.12098870569216,16.83712166258692,0 96.1204516276253,16.83937435031635,0 96.11972380792732,16.84187532285029,0 96.11904365900912,16.84443654943992,0 96.11712541861857,16.85194655606267,0 96.11614891582741,16.85570181614605,0 96.11517240785965,16.85977557843125,0 96.11367925458062,16.86464759783761,0 96.11280404657144,16.86804394445098,0 96.11195704718529,16.87126620349713,0 96.11125878494426,16.87375910211171,0 96.11104517695128,16.87445713369806,0 96.10890331864817,16.87971421764329,0 96.10870958535233,16.88026777288555,0 96.10858363564574,16.88063726504774,0 96.10752284423523,16.88327200557913,0 96.1072764329242,16.88393751880694,0 96.10630023276148,16.88629851589522,0 96.1047801795653,16.88978748340883,0 96.10442057169301,16.8906825265222,0 96.10408459699224,16.89152527829667,0 96.10375692995785,16.8920281611628,0 96.10334729068335,16.89258761888512,0 96.1028798941673,16.89312444014156,0 96.10241761254068,16.89369735198627,0 96.10177599561233,16.89449763711636,0 96.10130479900076,16.89506507809176,0 96.09937149471689,16.89737648684112,0 96.09799676392721,16.8990995861387,0 96.09533070604071,16.90234602968452,0 96.09477780242843,16.90305748717966,0 96.09417841579857,16.90398033564122,0 96.09373382629671,16.90477942927747,0 96.09342604033353,16.90555132267241,0 96.09294169497662,16.90686821540143,0 96.09269345246507,16.90823762611413,0 96.09260540638145,16.90934259647435,0 96.09260524508855,16.91056959973438,0 96.09267204661686,16.9116795070068,0 96.09288090857538,16.91602750183736,0 96.0931371542826,16.92081264285789,0 96.09354534309331,16.92707164445984,0 96.09373652820217,16.93149742421803,0 96.09378140552592,16.93380681775038,0 96.09390402546755,16.93524957006329,0 96.09389173280435,16.9352379845217,0 96.09391733942229,16.93762525130911,0 96.0938617843338,16.93841145353443,0 96.09366703603379,16.93924862124765,0 96.09349954522506,16.93992461475325,0 96.09322457700286,16.94101044615923,0 96.09288683298691,16.94209306554136,0 96.09246267414126,16.94348709000796,0 96.09185425327493,16.94553606745177,0 96.09159643134508,16.94640917894362,0 96.09079359821807,16.94904651964779,0 96.0896601376617,16.95288860150011,0 96.08891891261855,16.95536643836275,0 96.08813105343354,16.95804388485655,0 96.08732498828131,16.96081662427732,0 96.08578500977365,16.96600100827837,0 96.08530934885678,16.96760848227265,0 96.08451877589293,16.9703725852731,0 96.08368948038228,16.97317199268796,0 96.08308128410437,16.97522891158662,0 96.08238345391922,16.97745945431492,0 96.0809472799077,16.98241724644814,0 96.08006715798112,16.98548231380801,0 96.07907028920947,16.98879387903334,0 96.07820494054447,16.99176918628523,0 96.07721102899934,16.99504307778796,0 96.07673960185107,16.99667346992785,0 96.07622328550352,16.99843582991213,0 96.07558534624866,17.00061310813504,0 96.07462485850844,17.00422513166974,0 96.07268156641592,17.01153163248553,0 96.07054231933412,17.01983518080949,0 96.06965050739422,17.02307788690029,0 96.0684216113999,17.02758039585612,0 96.06656932226134,17.03453758082997,0 96.06507735653894,17.04011076531279,0 96.06420994362928,17.04346925351979,0 96.06286104867971,17.04864622114835,0 96.06144794214647,17.0536255444612,0 96.06034219165635,17.05776964422778,0 96.05944985624318,17.061061434195,0 96.05831277997052,17.06534209593466,0 96.05701152178636,17.07026423767002,0 96.05633608427564,17.07274092986691,0 96.05540181007891,17.07630840416581,0 96.05402046246954,17.08147539885463,0 96.05318714379355,17.08467870126292,0 96.05281356674797,17.08608308041611,0 96.05148418522047,17.09104219582533,0 96.05045924159346,17.09489383943675,0 96.04882934363039,17.10089206651222,0 96.04815704388895,17.1033530097991,0 96.04752796594805,17.10584884441466,0 96.04376177995562,17.11960672224427,0 96.04344083660692,17.12078346230554,0 96.04332650807859,17.1212027905227,0 96.04323318765293,17.12166101347269,0 96.04313577725603,17.12226869083443,0 96.04309421264499,17.12278530333126,0 96.04309058769329,17.12319644648244,0 96.04312271782288,17.12374174186535,0 96.04318409736418,17.12426326773002,0 96.04328878513007,17.12478736351713,0 96.04346774089572,17.12544106354797,0 96.04423950680554,17.12743799935996,0 96.04566002745813,17.1312051985989,0 96.04742819499694,17.1357969274537,0 96.04851663951442,17.13863852551256,0 96.0491979125799,17.14043667193882,0 96.04934296911605,17.14085310828638,0 96.04946560939166,17.14137531448896,0 96.04957742736107,17.1420160997383,0 96.0496288679431,17.14248400399913,0 96.04962132502881,17.14322687367055,0 96.04949148513865,17.14464118320778,0 96.04915700331969,17.14836712118805,0 96.04885321904192,17.15154767415238,0 96.04846653386679,17.15528854288523,0 96.04836019841083,17.15653501052794,0 96.04833252882573,17.15700895755512,0 96.04833296216445,17.1573727686147,0 96.04833450492777,17.15783084075195,0 96.04853121678082,17.15941785718693,0 96.04911395411877,17.16349550475873,0 96.0495539230112,17.16647386154122,0 96.04993139064962,17.1694582507871,0 96.0499873056298,17.17036848432754,0 96.05003529483436,17.17151257610361,0 96.05002111017215,17.17326580218499,0 96.05022092138781,17.17668785166155,0 96.05027806816632,17.1800793867111,0 96.05029121295654,17.18240955929401,0 96.05006309013805,17.18445108261776,0 96.04999855505798,17.18533294459936,0 96.04968469790092,17.18727901195599,0 96.04956944092376,17.18801638365106,0 96.04941478666292,17.1888471623447,0 96.04915908315559,17.18980773797702,0 96.04859245192965,17.19154377213928,0 96.04806262894704,17.19295451306923,0 96.0473017895882,17.19476358149935,0 96.04592292166217,17.19737478746989,0 96.04350820503152,17.20121744643623,0 96.03997463142076,17.2068037576369,0 96.03803687570679,17.20991669361844,0 96.03554819794717,17.21383554407502,0 96.03400412890825,17.21631681394684,0 96.03281541726742,17.21827739079993,0 96.03223736850137,17.21919628468396,0 96.03205166540698,17.21946456016175,0 96.03181433712688,17.21975386806076,0 96.03146296227087,17.22011912082563,0 96.03096105916787,17.22058999061178,0 96.02889192005989,17.22228529457154,0 96.02804688661703,17.22297088542929,0 96.02725643480383,17.22362788035508,0 96.02618373233594,17.22443540629174,0 96.02557112764413,17.22493386931843,0 96.02520698810784,17.22525191351771,0 96.02499913292716,17.22547002002314,0 96.02461406492441,17.22589174861282,0 96.02432616539244,17.22622193337726,0 96.02409283924267,17.22651380611539,0 96.02277433719037,17.22845737565949,0 96.0221460751019,17.22937035197315,0 96.02181622848475,17.22984813208811,0 96.02154713672979,17.23026813328481,0 96.02139061944271,17.23056687155282,0 96.02121340855159,17.2309625490264,0 96.02102412007005,17.23152224251833,0 96.02063128502428,17.23265030765228,0 96.02047378420463,17.2330711104479,0 96.02034246377481,17.23341823424266,0 96.02017171320392,17.23373808924634,0 96.01973996676077,17.23440531335594,0 96.01871359351277,17.23584477734533,0 96.01772954751185,17.23722383232084,0 96.01706458713446,17.23797634152176,0 96.01655239476769,17.23840191638855,0 96.01588187990873,17.23887016641277,0 96.01090937054855,17.24222523595251,0 96.01036724985953,17.24261787258826,0 96.00998209177691,17.24293963102703,0 96.00955889691247,17.24330054764913,0 96.00875325310597,17.24407314826777,0 96.00594018933808,17.24682841654076,0 96.0041498816547,17.24856312939406,0 96.00346751507482,17.24912022344858,0 96.00278550390567,17.24950537782488,0 96.00166234938617,17.25000231132688,0 95.99752488221949,17.25179644109722,0 95.99535580845736,17.25276318452608,0 95.99426880645527,17.25327026854772,0 95.99341733193762,17.25364743252677,0 95.99299431574048,17.25385505056404,0 95.99244707026082,17.25412134180742,0 95.99189529345026,17.25444698325529,0 95.99145616184957,17.25476444119808,0 95.99100696866664,17.25516455418788,0 95.99051448106678,17.25566756185871,0 95.99018492180849,17.25601373746419,0 95.98980584496451,17.25652775035052,0 95.98940686873952,17.2570735240446,0 95.98892038251131,17.25809386859105,0 95.9880545449081,17.25995451546174,0 95.98626430339714,17.26402100412507,0 95.9854003412426,17.2658425978516,0 95.98460989919006,17.26756631191636,0 95.98397372687045,17.26897377444564,0 95.98347156132486,17.27011962380426,0 95.98328886639187,17.27060705989703,0 95.98309872372782,17.27116907569926,0 95.98295789465669,17.27172293552632,0 95.98288547253368,17.27245426195215,0 95.98267562794729,17.27491781855985,0 95.98238956542099,17.2799964150975,0 95.98217751468621,17.28311206614875,0 95.98206233709243,17.28487529830808,0 95.98198023909458,17.28598521184982,0 95.98195199991476,17.28673657319762,0 95.98179359456157,17.28767850960746,0 95.98162501230141,17.28830967289214,0 95.98127998408485,17.28912303368516,0 95.98094427776407,17.28970522266625,0 95.98049463448338,17.29040226851116,0 95.9778946299669,17.29440632689164,0 95.97436931548968,17.29973047811766,0 95.97129390314106,17.30435404024739,0 95.96859438411602,17.30835240051195,0 95.96628019985727,17.31171995250359,0 95.96291845339263,17.31670108271131,0 95.96080902998828,17.31980293596329,0 95.9588113314411,17.3226351091671,0 95.95816838397694,17.32360103237721,0 95.95757043468591,17.32446517974303,0 95.95684412057605,17.32536431201957,0 95.95380628072698,17.32815439605466,0 95.95172104904449,17.33007527380717,0 95.95008932098786,17.33158844122278,0 95.94899797516375,17.33258863790306,0 95.94873630489346,17.33282482094048,0 95.94845636597513,17.33308582638154,0 95.94809412459955,17.33346199186916,0 95.94789514839887,17.33369002817018,0 95.94767494450383,17.33397670968931,0 95.94747615627919,17.33424087095559,0 95.94726445247116,17.33456587988724,0 95.94705429497742,17.33490248729502,0 95.94693074975285,17.3351246557071,0 95.94675850594264,17.33541984146081,0 95.94664038181121,17.33569482882181,0 95.94655221430902,17.33598016122497,0 95.94641275905264,17.33633921327186,0 95.94633642029925,17.33664270084866,0 95.94620694541651,17.33709639489477,0 95.94613742087475,17.33751009962588,0 95.94609962382118,17.33789241627835,0 95.94602756374491,17.33841586828453,0 95.94619247128374,17.34095601453991,0 95.94638884083072,17.34481074285102,0 95.94643514642053,17.34599883003212,0 95.94657026007394,17.34807493323083,0 95.94664335435337,17.34959174747887,0 95.94665282179034,17.34998906967348,0 95.94665325369851,17.35043010476104,0 95.94661208047721,17.35092136609813,0 95.94655224787493,17.35137539367253,0 95.94649155865413,17.35175890819884,0 95.94639704936198,17.35217594252859,0 95.94623714739323,17.35270782539868,0 95.94563337434634,17.3539704657103,0 95.94480031083505,17.35558910975676,0 95.94452483099076,17.35618414453061,0 95.94429834660016,17.3567372209595,0 95.94374039516383,17.35775357607475,0 95.94296501256426,17.3592599180674,0 95.94063904203512,17.36385349022408,0 95.94040258219101,17.36437580148285,0 95.93964537403171,17.36591348419304,0 95.93889573661014,17.36743344587367,0 95.93801275904539,17.36918419639703,0 95.93723711363465,17.37065494288125,0 95.93698219697643,17.37121093765055,0 95.93651860982097,17.37197802695578,0 95.93618279613922,17.37269823682846,0 95.93461278868519,17.37582045048989,0 95.93246724909231,17.38012916928177,0 95.93089556989784,17.3833696587645,0 95.93067783843658,17.38373358599797,0 95.93044800457319,17.38412323470739,0 95.93020225618444,17.3844935532356,0 95.9287192313957,17.38640987635528,0 95.92842818427107,17.38678991192527,0 95.9281258633805,17.38728469537735,0 95.92654559366102,17.39043169124582,0 95.92283741531,17.39749319363603,0 95.92254546432346,17.39809615151951,0 95.91590937784486,17.41113817438834,0 95.90941568266871,17.42406392188322,0 95.90508092499694,17.43252022412772,0 95.90277782131662,17.43721078603488,0 95.9005499754318,17.44171464645299,0 95.89664455273824,17.44991859909444,0 95.89469624822979,17.45415861565624,0 95.89295880345686,17.45785341485239,0 95.89118789813064,17.46163892594271,0 95.89052003385136,17.46302176884002,0 95.89006893661855,17.46398482504349,0 95.88910102065445,17.46604389624388,0 95.88791454607247,17.46857172032162,0 95.88725766349099,17.46994511115929,0 95.88706359330669,17.47027722478863,0 95.88684057675279,17.47062486093604,0 95.88640183240283,17.47113101520051,0 95.88614433889407,17.4713956008174,0 95.88576915437501,17.47176867068937,0 95.88536465739155,17.47208788844284,0 95.88471220501634,17.47239832948104,0 95.88154788939062,17.47389555578724,0 95.8813011532513,17.47400967976825,0 95.88089223130619,17.47418542132373,0 95.88044864871921,17.4743852293525,0 95.87997778022401,17.47462685962722,0 95.87962095363307,17.47486265855441,0 95.87923617628371,17.47514190221107,0 95.87875710335767,17.47552769930652,0 95.87609256758468,17.47752384917773,0 95.87091600819258,17.48165644434277,0 95.8655709105704,17.48585361206448,0 95.863723594589,17.48738884323596,0 95.86259888789323,17.48828853738312,0 95.86169101740053,17.48916180704776,0 95.8596669589225,17.49125217658077,0 95.85865540337697,17.49242668467104,0 95.8580770922697,17.49309541093871,0 95.85724760099308,17.49424885066159,0 95.85569544711052,17.49706913280476,0 95.85347698256526,17.50087742807291,0 95.85040086603192,17.50613486278788,0 95.8483763852017,17.50959359220627,0 95.84658122725074,17.51265242417927,0 95.8435389387316,17.51792577489518,0 95.84202456140393,17.52056370909008,0 95.83966859265057,17.52454369236442,0 95.83650016343061,17.52988395847526,0 95.83355112926191,17.53484280574048,0 95.82993002283328,17.54105680139258,0 95.82666127351506,17.5467462896378,0 95.82431399792617,17.5507405567383,0 95.82236450144964,17.55407284765562,0 95.81980381173692,17.55843059272702,0 95.81757810538251,17.5623787642523,0 95.8134625307473,17.5697551335231,0 95.81093902007987,17.57416268839889,0 95.8090635721191,17.57736000323953,0 95.80533542872645,17.5837673476971,0 95.80279251071485,17.58819277002996,0 95.80064235925602,17.59191310334355,0 95.79685802882496,17.59839681052734,0 95.79523900772409,17.60110076389401,0 95.79499464515331,17.60153304796939,0 95.79453978774161,17.6022983808451,0 95.79406576069371,17.60337330933264,0 95.79343854066281,17.60542714462298,0 95.79205837194149,17.60970565240935,0 95.79030379306775,17.61453866844973,0 95.78874695816376,17.61955151048787,0 95.78738590613359,17.62363069918399,0 95.7862350412054,17.62719007548735,0 95.7855628869021,17.6292313595483,0 95.78538294541443,17.62988756120463,0 95.78520460600478,17.63077390752623,0 95.78494278784108,17.63267985507644,0 95.78490778129934,17.63393620253998,0 95.78481342832438,17.63521491773526,0 95.78431696028159,17.63753263988469,0 95.78330842591629,17.64083060487992,0 95.7820660241451,17.6446946262683,0 95.78045227906961,17.64980708455983,0 95.77964551096984,17.65226171833646,0 95.77799265320296,17.65690339145199,0 95.77601266231179,17.66202480368926,0 95.77563180823164,17.66303151805379,0 95.77531182012234,17.66385164567046,0 95.77481859508077,17.66568036349378,0 95.7742612679011,17.66770458816894,0 95.77079274064336,17.6826796472929,0 95.76712863154047,17.69958608324977,0 95.76415862369645,17.71324297649155,0 95.76155906005842,17.72450371970087,0 95.76013805867821,17.7306762443046,0 95.75899185704353,17.73546259439915,0 95.75739075011485,17.74328173099124,0 95.75616403044,17.74862331411192,0 95.75519754779481,17.75295931518039,0 95.75307715837973,17.76194519935853,0 95.75194765289291,17.76582054458902,0 95.75099557739642,17.76923666444266,0 95.74947306896848,17.77490045317896,0 95.74756079544504,17.78181108718942,0 95.74671262907502,17.78476514057583,0 95.74569257860657,17.78918152054381,0 95.74570787368654,17.78929348329542,0 95.74385807212397,17.79752921952996,0 95.74249798086699,17.80401320943209,0 95.74169627125573,17.80796597111539,0 95.74073533375045,17.81315815160687,0 95.73754520945671,17.82962873925938,0 95.73565525227124,17.83911332938632,0 95.7340324006958,17.84674244663049,0 95.73274924384526,17.85377920499962,0 95.73182070805402,17.85825075337467,0 95.73101964298976,17.86237727824716,0 95.73074566757533,17.86406459524473,0 95.73056020993137,17.86529115670902,0 95.7303638652447,17.86646489372221,0 95.72949556555551,17.8702276395477,0 95.72806663165079,17.87726296393002,0 95.72760807421102,17.87963505617844,0 95.72681723073495,17.8836421558514,0 95.72590727498115,17.8885096100315,0 95.72523497169412,17.89202322976126,0 95.72462668786497,17.89540193867847,0 95.7234563095213,17.90114246800484,0 95.72241478301953,17.90649689528674,0 95.72130469978147,17.91264186545101,0 95.7202347773467,17.91818727741845,0 95.71948007208606,17.92219152334221,0 95.71886321930448,17.92565083277899,0 95.71756720395533,17.93192801445515,0 95.71605698205551,17.93940086952503,0 95.71567230677508,17.94210879464087,0 95.71559642644495,17.94335007645982,0 95.71526014499985,17.9449705350468,0 95.71455139143869,17.94813839586821,0 95.71373901567591,17.9522505891069,0 95.7119425962314,17.95949901045475,0 95.7109112277204,17.96410932464337,0 95.71013561782449,17.96819377988926,0 95.70953706162932,17.97118221766793,0 95.70882754454911,17.97506586913758,0 95.70804633848327,17.97887010447028,0 95.70737053066222,17.98234578462924,0 95.70695455250765,17.98426732064673,0 95.70642221503123,17.98619200223552,0 95.70577506079127,17.98860083885848,0 95.70524262814669,17.99101263183125,0 95.70476081752446,17.99296859681765,0 95.70398526307976,17.99663858789242,0 95.70347747085368,17.99916557368257,0 95.70215765849021,18.00519064808822,0 95.69872443766434,18.02068832028661,0 95.69649291179125,18.02997647827746,0 95.69456266207867,18.03824363688988,0 95.6932967419728,18.04317920399742,0 95.69078237367287,18.05376350243138,0 95.68800214992378,18.06506949529938,0 95.68199562894105,18.08905949908681,0 95.67633078275084,18.11267303724237,0 95.67283108454265,18.12654973795904,0 95.67244832416914,18.12811582157901,0 95.67203186257513,18.13010209438719,0 95.67189541229453,18.1313962441873,0 95.67178489923127,18.13234004687438,0 95.67164756320184,18.1332756951332,0 95.67142831182088,18.13473413382418,0 95.6711588519035,18.13602232295789,0 95.67093838697514,18.13710568614674,0 95.67054000756664,18.13880471505742,0 95.67021032665879,18.14032330535541,0 95.66961525220594,18.14266839739667,0 95.66932851957503,18.14351998996196,0 95.66806153762903,18.1469622633663,0 95.6676461393368,18.14828598196883,0 95.66738793921111,18.14941407882358,0 95.66692618835828,18.15147450734,0 95.66419795852711,18.1625227869026,0 95.6615413472778,18.17361150179853,0 95.66032049014945,18.17865015446312,0 95.6562341165872,18.19534459135026,0 95.65429665933456,18.20356377256494,0 95.65305325998961,18.20942399732354,0 95.65075484971146,18.21903481404307,0 95.64649276469734,18.24040338964958,0 95.64509524437644,18.24775887595093,0 95.63912649846971,18.27580983664275,0 95.63610676588513,18.28899550423775,0 95.63417902440088,18.29699459944624,0 95.63094077938627,18.30964754428635,0 95.62826424790494,18.32127760838277,0 95.62648369984242,18.32903069631296,0 95.62521806195578,18.33324471518569,0 95.62458326978255,18.33576798014024,0 95.62436657617437,18.33674527423757,0 95.62412288457323,18.33744835521707,0 95.62389012469825,18.33793391604186,0 95.62345558625923,18.338687746555,0 95.62125640332967,18.34169747885845,0 95.61498586018118,18.35081181105065,0 95.61157212007227,18.35556735702733,0 95.60976344586931,18.35778567963574,0 95.60898029901824,18.35870656680003,0 95.60720378857558,18.36056821715497,0 95.59997930711887,18.36836057775199,0 95.59638169223044,18.37226455399992,0 95.59180152510251,18.37746674541363,0 95.59142337123737,18.37789650512186,0 95.59114407544267,18.37822707324859,0 95.59089862744719,18.37858836035136,0 95.59064327600308,18.37895719441356,0 95.59033165713036,18.37944401706736,0 95.59003301303032,18.38003672010356,0 95.5897121636754,18.38069628062271,0 95.58842534706061,18.38347370672672,0 95.5873699174055,18.38555851789389,0 95.58615064778552,18.38827398837346,0 95.58569082212357,18.38906107973494,0 95.58541565334856,18.38950957560954,0 95.58517295296188,18.38982780134893,0 95.58423166896462,18.3910985620301,0 95.57896130817308,18.39830541648333,0 95.57612753949937,18.40206398005297,0 95.5708432981934,18.40909385510815,0 95.56710573929118,18.4138457236829,0 95.56350082652848,18.41849169553214,0 95.55832955995868,18.42521110845178,0 95.5563153069192,18.42785357724607,0 95.5387859335041,18.45082204407678,0 95.5384015416867,18.45121460315918,0 95.53791855828834,18.4515818597435,0 95.53764190496244,18.45186563868804,0 95.53732641440757,18.45230964035154,0 95.53653855891297,18.453574010682,0 95.53628159932116,18.45405476361711,0 95.53598720380572,18.45448785495604,0 95.53550690124322,18.45513897686531,0 95.53023514711987,18.46197166525741,0 95.52637547001923,18.46699705054093,0 95.52390392214591,18.47009052397001,0 95.5212016187638,18.47356819500143,0 95.51906316889279,18.47628727869302,0 95.51711773229457,18.47877664379949,0 95.51419643777788,18.48243992264412,0 95.51392186529968,18.48283633519301,0 95.51372564525259,18.48326629061966,0 95.51337014453385,18.48395599579552,0 95.5121364958753,18.48674256451467,0 95.51074217443976,18.48982220633303,0 95.51034852209639,18.49062550762489,0 95.51011853733128,18.49111353069041,0 95.50980964623849,18.49166425476179,0 95.50905855383471,18.49301117243987,0 95.50626994813099,18.49754255838193,0 95.49697461550306,18.51281751158395,0 95.49554566913706,18.51519853525553,0 95.49150519557345,18.52185426534641,0 95.48899233422566,18.5260640172006,0 95.48563613802182,18.53164685862964,0 95.48405997243609,18.53418922352779,0 95.48366420601039,18.53469508166639,0 95.48212738718618,18.5367237752432,0 95.48159499597426,18.53740235696392,0 95.48113213306755,18.53798195864242,0 95.48069594915236,18.5385050677281,0 95.48017795326621,18.53907222733033,0 95.47972911275538,18.53950970375131,0 95.4793827795575,18.5398423856678,0 95.47818729107785,18.54082840345371,0 95.47592569867314,18.54246784351993,0 95.47396591802313,18.54395380890642,0 95.47219045898223,18.54529101043512,0 95.47119110428811,18.54616047881423,0 95.47071538879199,18.54662938374684,0 95.47029984585362,18.54712890096475,0 95.47006078723152,18.54748230592345,0 95.46947092989254,18.54843947996913,0 95.468830147944,18.55009535590641,0 95.46794869857155,18.55249766134004,0 95.46672034558215,18.55582205653541,0 95.46569774628978,18.55860933208473,0 95.46360859404098,18.56437881201833,0 95.46320851822411,18.56540308304986,0 95.46286264839453,18.56609418481616,0 95.46254920956308,18.56666655337376,0 95.42516477958978,18.62819880724859,0 95.41750271762921,18.64074681416739,0 95.41669481741938,18.64211202973122,0 95.4160882726479,18.6431167191692,0 95.41579775983206,18.64360507610395,0 95.41537956992715,18.64443809382248,0 95.41517016556874,18.64514306003629,0 95.41487959672999,18.64629057962314,0 95.4138089106219,18.64967959607306,0 95.40717316914359,18.66867496498167,0 95.40307370585653,18.68061163611532,0 95.4025351346837,18.68197693862378,0 95.40188468778548,18.6834782768797,0 95.40136479268811,18.68434938385537,0 95.40085351735124,18.68520427486131,0 95.39987704340058,18.68664702285517,0 95.39900151401159,18.6879049199062,0 95.39779155026416,18.68930390570988,0 95.3870270982586,18.70184442254979,0 95.37567582668825,18.7150272318601,0 95.37097157684242,18.72050915900508,0 95.36574242712895,18.72653557346316,0 95.3647400728909,18.72777776196089,0 95.36421742198071,18.72861638725584,0 95.36356767268319,18.72965749956402,0 95.36169441712907,18.73267446867898,0 95.35929231834044,18.73664115649152,0 95.35757129420587,18.73952550791201,0 95.35306321480732,18.74684123280563,0 95.34921502760192,18.75315008385026,0 95.34668033496062,18.75728463548661,0 95.34388987518801,18.76181752592201,0 95.34312785842093,18.76300202124596,0 95.3427809868459,18.76352513034277,0 95.34244056389798,18.76399420952419,0 95.3420154564908,18.76450104260271,0 95.34123731350027,18.76548173532718,0 95.34044921868981,18.76634748090747,0 95.33931789590925,18.76747407815351,0 95.33838316632131,18.76836385162113,0 95.33436987517889,18.77221386863048,0 95.3254966829201,18.78075756352715,0 95.32087962043229,18.78527475625456,0 95.31720017098253,18.78884611081201,0 95.31325266150503,18.79256702327986,0 95.31058081407029,18.79512479603777,0 95.30890600954743,18.79671962280844,0 95.30792595529232,18.79770204958207,0 95.3066887862027,18.79894273921177,0 95.30532879733198,18.80028986163781,0 95.30091224839289,18.804540966954,0 95.2975628947172,18.80784926363438,0 95.29600028702976,18.8093788657566,0 95.29522335892838,18.81010908828797,0 95.29431086413379,18.8109778519786,0 95.2937696099613,18.81151597610619,0 95.29287113079559,18.81241691117151,0 95.29225909117113,18.81293399849933,0 95.29109138257267,18.81397161688403,0 95.28970401145892,18.81499204241981,0 95.28914701693682,18.81538636639695,0 95.28853170562644,18.81580802626166,0 95.28781226463286,18.81625059230019,0 95.28717299270714,18.81658298004714,0 95.28646380296198,18.81696985830436,0 95.28555419291841,18.81740996269167,0 95.28465630558253,18.81778590235004,0 95.28286389166787,18.81847734215549,0 95.28221250564336,18.8187337092901,0 95.28151017469516,18.81895995943922,0 95.28072869902685,18.81917800332629,0 95.27984012516045,18.81944261680216,0 95.27894580489145,18.8196571620695,0 95.27769261750115,18.81991638782381,0 95.27682265068944,18.82008853378796,0 95.27567806188446,18.82029511741824,0 95.27449870509041,18.8203836590586,0 95.27376434711533,18.82043699041581,0 95.27292287552204,18.82048335925708,0 95.27157928805585,18.82052223128343,0 95.27059791078555,18.82052231942535,0 95.27059514540983,18.82052285343568,0 95.27039684738823,18.82055164338145,0 95.27017585671523,18.82059601919648,0 95.26989848037361,18.82066504794564,0 95.26964099089595,18.82074798944603,0 95.26948543148868,18.82082864520276,0 95.26929242382674,18.82096387586307,0 95.26912353991729,18.82121239036555,0 95.26900641814991,18.82151460374513,0 95.26896816903656,18.82188518701196,0 95.26907522531133,18.82235324363714,0 95.2693426753869,18.82273910738737,0 95.26958737583172,18.82294230477808,0 95.27276907454294,18.82469498842424,0 95.27473387919608,18.82581689242482,0 95.27608391059687,18.82648566098777,0 95.279604416485,18.82800179273749,0 95.27999766249954,18.82817586533031,0 95.28042879999505,18.82839085144907,0 95.28060017489383,18.82848681700397,0 95.28084209013488,18.82869194738052,0 95.28097315499744,18.82886374003396,0 95.28108273173929,18.82906036854236,0 95.28113720178536,18.82928797769622,0 95.28117818880018,18.82953494786831,0 95.28118345482555,18.82972915924349,0 95.2811435337655,18.8299385735483,0 95.28107271299153,18.8301687786231,0 95.28043928207622,18.83131752040261,0 95.27969684191677,18.83270081260442,0 95.27958653524722,18.83293026915834,0 95.27948500867504,18.83320656492587,0 95.27941547668347,18.83349029494376,0 95.27939685418892,18.83373058351669,0 95.27938169385486,18.83396962051777,0 95.27940174204169,18.83417856294585,0 95.27942005465847,18.83437339410381,0 95.2795139472632,18.83469141821967,0 95.27971051774414,18.83512123357177,0 95.28033184089466,18.83632756314043,0 95.28352439081066,18.84197852685858,0 95.28477467055436,18.84429036534364,0 95.28564955532646,18.84591068398512,0 95.28592271165773,18.84647073882332,0 95.28603463317246,18.846808555752,0 95.28611279807745,18.84743157989115,0 95.28695108310949,18.8634741576964,0 95.28700179498974,18.86404492635895,0 95.28701923154078,18.86452659207905,0 95.28696765036649,18.86489814196852,0 95.28688186712846,18.86534598822233,0 95.28440377172518,18.87176370777221,0 95.28431599570352,18.87201481377553,0 95.28425984739825,18.87229258348753,0 95.2819509961961,18.88490891604959,0 95.27765558255356,18.90802595033444,0 95.27689480315105,18.91213113020647,0 95.27573350084937,18.9183944947136,0 95.27473784153581,18.92362594778152,0 95.27366795177223,18.92935707509916,0 95.27358380962889,18.92976413539937,0 95.27347353593464,18.93019720864864,0 95.27338254552758,18.93048429973966,0 95.27317784031541,18.93095275263067,0 95.27071148684152,18.93654088249132,0 95.26801145761093,18.94275302133826,0 95.26785585674672,18.94315429036407,0 95.26776776492761,18.94332070723677,0 95.26769062823509,18.94343070573838,0 95.26637638165701,18.94509591884052,0 95.26624355081565,18.94527462292133,0 95.26615317555437,18.94545506130882,0 95.26606986729668,18.94564571638694,0 95.26587785735093,18.94618669658365,0 95.26440222904523,18.9502764162949,0 95.26265940615194,18.95494921125486,0 95.25886710946223,18.96354418853218,0 95.25587673963827,18.97035217979598,0 95.25318242982537,18.97637799166161,0 95.25156293566678,18.98013442731837,0 95.25132884938056,18.98066056269979,0 95.25117683721761,18.98095789712189,0 95.25107570792105,18.98115815643199,0 95.25095978422331,18.98132413328309,0 95.25079529079835,18.9815204441761,0 95.25057255572521,18.98173687511854,0 95.24610258795165,18.98560398592566,0 95.24529321710591,18.98634167473756,0 95.24461687065981,18.98700953531623,0 95.24436081276197,18.98729025766845,0 95.24309952240326,18.98862106949036,0 95.24018832018923,18.99169837446318,0 95.23682934256055,18.99526457912251,0 95.23682842500068,18.9952714543867,0 95.2338892791294,18.99835740901758,0 95.22928772456126,19.00321696509612,0 95.22592740562931,19.00672450493131,0 95.21967488198659,19.01333722802748,0 95.21895697922588,19.0141141846508,0 95.21853598686094,19.01449008002753,0 95.2162900081365,19.01620733309771,0 95.20906018426292,19.02178817179794,0 95.20464239289012,19.02527259842501,0 95.19981592586045,19.02907164285479,0 95.19954686094989,19.02930094623608,0 95.19725360271917,19.03125058106814,0 95.19678325432747,19.03166426732792,0 95.19636608670329,19.03196350779125,0 95.19564881291649,19.03240639369225,0 95.19496531971885,19.03290056170511,0 95.19313059881253,19.03432717973857,0 95.19137527947041,19.035691848389,0 95.18909902092169,19.03749657306142,0 95.18853619148538,19.03792314155804,0 95.18814298303224,19.03833586985336,0 95.18785968545971,19.03872245288224,0 95.18771497196715,19.03898750110032,0 95.18753877348719,19.03941486742075,0 95.18745800993726,19.03985899126333,0 95.1873863324542,19.04042209325509,0 95.1872308819664,19.04495032660127,0 95.18650876078534,19.06211886735007,0 95.18630286390211,19.06643786755674,0 95.18609410673081,19.07175244438228,0 95.18609654925908,19.07219291262086,0 95.18608851469685,19.07262848520011,0 95.18612716520708,19.0729764274004,0 95.18740520789237,19.08117188570009,0 95.18791175428024,19.08471426840541,0 95.18808839060101,19.08574103989746,0 95.18812126037344,19.0861527185517,0 95.18805126854447,19.08662854584213,0 95.18526168086281,19.09723762051802,0 95.1843119796294,19.10055445634543,0 95.18427013003053,19.10082395187482,0 95.18428000861084,19.10113627352018,0 95.18432229592466,19.10169436279817,0 95.18433954484659,19.10217287901815,0 95.1842622833021,19.10257727340062,0 95.18414007137889,19.10295594298723,0 95.18398389721361,19.10320636698859,0 95.18382388261779,19.10347442680293,0 95.18356235138036,19.10407545820198,0 95.18301606531071,19.10560604071224,0 95.18216145131005,19.10793304864224,0 95.1820988556281,19.10827061295016,0 95.18203959770054,19.10872430289013,0 95.18198559558287,19.10906124588788,0 95.18193219218917,19.10938870217846,0 95.18184596097387,19.10979219304563,0 95.18082219869557,19.11357832678395,0 95.18046223720815,19.11494947837873,0 95.18000141628637,19.11675878147369,0 95.1788472668938,19.12081852299941,0 95.17843661103572,19.12246326203244,0 95.17790663718719,19.12405276519667,0 95.17741756710068,19.12552984260815,0 95.17734162040514,19.12592994410878,0 95.17732050745217,19.1262398296278,0 95.17738155951808,19.1273420959169,0 95.17749187601721,19.1291260109646,0 95.17755568791255,19.12938771765679,0 95.17767233953983,19.12968758697528,0 95.17793168849119,19.13036117786798,0 95.17811965309745,19.13094629212602,0 95.1787647733709,19.13259377521838,0 95.17930399990809,19.13365188552757,0 95.1797163146412,19.13442313835856,0 95.18064909414248,19.13630632396921,0 95.18182122872172,19.13858884170058,0 95.18196187176049,19.13893333991925,0 95.18208623295064,19.13914843640051,0 95.18217450967893,19.1394572222595,0 95.18225019594402,19.1397670399491,0 95.1823728986887,19.14071025150745,0 95.18247034610069,19.14165406666214,0 95.18257208693996,19.14201656882091,0 95.18268069451777,19.14230023071325,0 95.18293109344847,19.142713638604,0 95.18317155361982,19.14301813857272,0 95.1835367220113,19.14337030175996,0 95.18461229316463,19.14404839830917,0 95.18500245856583,19.14431269751058,0 95.18544069781648,19.14471023303148,0 95.18583163349163,19.14519037633745,0 95.18884644687816,19.14987167618126,0 95.19564611989281,19.15983265752066,0 95.19661792374824,19.16138096657097,0 95.20222075112405,19.16967286509984,0 95.20665397588319,19.17623795754865,0 95.20787391595363,19.17798166654536,0 95.20817659574848,19.17853478207723,0 95.20839955215155,19.17912802770633,0 95.2109896439551,19.18651704663177,0 95.21233245238044,19.19036995494648,0 95.21312376150814,19.19249590084451,0 95.21342562113691,19.19288616241695,0 95.21395437031391,19.1933819143566,0 95.21479095794581,19.19387937553421,0 95.21545348175954,19.19463254877544,0 95.22669075633,19.21082403337847,0 95.22694447532605,19.21121824204689,0 95.22714155033245,19.21153780815849,0 95.22727413340432,19.21202934879232,0 95.22848634590871,19.2164981657518,0 95.22863850441206,19.21723793937522,0 95.22865365155499,19.21778757062791,0 95.22862733731952,19.21815409169356,0 95.22634200332976,19.22645042090379,0 95.22586094167836,19.22811660869489,0 95.22570231299778,19.22844097183723,0 95.22551638329455,19.22869937434496,0 95.22530281253594,19.22893048644871,0 95.22520420451575,19.22904554762943,0 95.22488213330425,19.22929691122967,0 95.21623784478938,19.23354150190719,0 95.21590991103454,19.23375990279921,0 95.21561589540072,19.23402374492756,0 95.21542327177262,19.23426162359525,0 95.21527694204968,19.23451408793422,0 95.21514530979727,19.23483342766065,0 95.2150620676228,19.23513037881693,0 95.21497688251647,19.23551113351155,0 95.21496728509537,19.2359812980608,0 95.21506749177141,19.23648900502415,0 95.21646055323383,19.24082840195802,0 95.22041480064949,19.25355880182224,0 95.2224670700854,19.26017258432252,0 95.22399993758489,19.26505237228853,0 95.22488607561544,19.26786844398693,0 95.22659209313366,19.27343309922664,0 95.22965578219659,19.28351683566716,0 95.23019517610733,19.28544423781863,0 95.23863141371885,19.31361945577381,0 95.23870272175944,19.31387064284623,0 95.23875049559585,19.31420032078268,0 95.23872677045165,19.31454306594487,0 95.23866353633414,19.31486297035925,0 95.23788129933928,19.31910122230257,0 95.23773299868149,19.31966838597697,0 95.23721246551145,19.32041212108696,0 95.23607511734998,19.32176888553074,0 95.23559904672959,19.32240422420173,0 95.22688726970485,19.34544423768159,0 95.22551051899286,19.34895874780526,0 95.2240889005429,19.35296416271115,0 95.22392555108023,19.35339326689809,0 95.22389229258111,19.3538573727592,0 95.2239395718301,19.35435921673994,0 95.2241925428542,19.35530649441811,0 95.22500582039459,19.3579465225233,0 95.22601914557859,19.36141475771772,0 95.22813770975252,19.36863971719943,0 95.22895640902893,19.37163586792387,0 95.22918317068378,19.37361326182009,0 95.22992716370098,19.37996583960539,0 95.23129636746207,19.39224466328162,0 95.2315418000733,19.3942290772915,0 95.23157505791862,19.39463025083083,0 95.23170780044487,19.39501074007496,0 95.23212238785999,19.39561058492982,0 95.23345978650229,19.39755162724754,0 95.23893872053253,19.403738864969,0 95.23925467398249,19.40421960526723,0 95.2394728239031,19.40467903305078,0 95.23973241964949,19.40533984901867,0 95.24079883623161,19.40834509782106,0 95.24110953634784,19.40979903681413,0 95.24149673732244,19.4121593284118,0 95.24154865905732,19.41249333257226,0 95.24151427002553,19.41274708013644,0 95.24137714367957,19.41319143830525,0 95.24119619434062,19.41357416785088,0 95.24076297336073,19.41436097658427,0 95.23950590129265,19.41638095357979,0 95.23925137784397,19.41685848653578,0 95.23903458970217,19.41756011254012,0 95.23858771362544,19.42010326652478,0 95.23783162350536,19.42451166339725,0 95.23561332111454,19.43283099371206,0 95.23500904369516,19.43518451483934,0 95.23493285230784,19.43549063666865,0 95.23481966451131,19.4361269345116,0 95.23476948330155,19.43674730851621,0 95.2351010770345,19.4463921123725,0 95.23528374312384,19.4523836734614,0 95.23539137817019,19.45297659801128,0 95.23570280381803,19.45352532440477,0 95.23610531563023,19.45400907476111,0 95.23671757765494,19.45445159094559,0 95.23885547587744,19.45634961655874,0 95.23943145119313,19.45706180306172,0 95.23965792251218,19.45748995918823,0 95.23978997084453,19.4581157170258,0 95.23985244990237,19.45967574572952,0 95.23987959977197,19.46024781093949,0 95.23997317728286,19.46071943187886,0 95.24007530166949,19.46099526146321,0 95.24177613897226,19.46469757875898,0 95.24208145243397,19.46557537593883,0 95.24220187350204,19.46622304924844,0 95.24250454887773,19.46998026210206,0 95.24249709176245,19.4703034777911,0 95.24242366842508,19.47062557363404,0 95.24139909535481,19.47486136970937,0 95.24127110910936,19.47551640428459,0 95.24114761118092,19.47604951836568,0 95.2411520430904,19.4764599195323,0 95.24123216882236,19.47690805875056,0 95.2414687112401,19.47763818749854,0 95.24178717680506,19.47875744649339,0 95.24257673576335,19.48353596798069,0 95.24261440013666,19.48395112703249,0 95.24259234356362,19.48427159276179,0 95.24249958431493,19.48464015118196,0 95.24232283769554,19.48512841612005,0 95.24206413822446,19.48575881378341,0 95.24069366753976,19.48903031362592,0 95.24042267193293,19.48976291408806,0 95.24036834674435,19.49009346121482,0 95.24031309907019,19.49045310825256,0 95.24035652029924,19.49075478971406,0 95.24045558735249,19.49103462516862,0 95.24057660459546,19.49129804207051,0 95.24078951059362,19.49157791996258,0 95.24113939989135,19.49212896280119,0 95.24137529849608,19.49249801356765,0 95.24180486184046,19.49316530103874,0 95.24674054755212,19.50172976209045,0 95.24700242419573,19.50219473953294,0 95.24717826855397,19.50258029070466,0 95.24731528180995,19.50291177477057,0 95.24741535702981,19.50323408747087,0 95.24752414882262,19.50363564634675,0 95.24885195712574,19.51014671510581,0 95.24905298979584,19.51073336200631,0 95.24928310137148,19.51117445315928,0 95.24954540196208,19.51148973127056,0 95.2498682549123,19.51181782179123,0 95.25025628578914,19.51218168463916,0 95.25061879362499,19.51245489393716,0 95.2510130939956,19.51263173699195,0 95.25158336071984,19.512812870442,0 95.2575589125229,19.51402839089155,0 95.25911373667177,19.5143537356793,0 95.25974741818622,19.51457491641513,0 95.26020126762833,19.5147452705655,0 95.26713310747414,19.51727639667253,0 95.26987801398471,19.51827700641889,0 95.27035907393534,19.51841318926577,0 95.27079205934454,19.51852619330025,0 95.2713111702833,19.51857472958886,0 95.27991509947073,19.51903286977689,0 95.2804069737002,19.51906343582237,0 95.2807982220064,19.51908549940744,0 95.28120772025011,19.51917597298266,0 95.28157381102436,19.51933251468519,0 95.28183864620407,19.51945714794096,0 95.28210763092041,19.51963922444418,0 95.28239171878116,19.51988982357921,0 95.28266788446332,19.52013763156655,0 95.28295643398025,19.52040972803183,0 95.28323641509471,19.52069351186085,0 95.28342622095717,19.5209104827242,0 95.28361431353643,19.52115046626687,0 95.28377521984284,19.52153861322158,0 95.28391772244771,19.52214124195924,0 95.2840668301272,19.52284919299272,0 95.28453687047541,19.52493955468652,0 95.28508096436514,19.52718220441966,0 95.28527494049786,19.52762988130948,0 95.28550943598917,19.52795487350213,0 95.28579187967728,19.52827243922092,0 95.28607167113873,19.52849311212886,0 95.28644534040721,19.52870922281126,0 95.28684358116114,19.52892246056587,0 95.28831520710789,19.52966121928578,0 95.28858692976978,19.529819508541,0 95.28883635546599,19.53005752045366,0 95.28924462867879,19.53048869747151,0 95.29164110603463,19.53306265845747,0 95.29187465595152,19.53345830124457,0 95.29200470705125,19.53380439062356,0 95.29207152469142,19.53414183251467,0 95.29211375656342,19.53444804783646,0 95.29211650922984,19.53472917885421,0 95.29209542662937,19.53501265276547,0 95.29202720720566,19.53537235770818,0 95.29184485017935,19.53580220092237,0 95.29115827988701,19.53706252947557,0 95.28891480837217,19.54109748778147,0 95.28670247881561,19.54508767638988,0 95.28658632424269,19.54542822547045,0 95.28648559032764,19.54582350452103,0 95.28643334033608,19.54619808292635,0 95.28585412076166,19.55304092851696,0 95.28537166793907,19.55854799353438,0 95.28479458140488,19.56511594170467,0 95.28435740662494,19.57048826980451,0 95.28442201672006,19.57103113566087,0 95.28453691886102,19.57143490211211,0 95.28473110637377,19.57180210339814,0 95.28502945913422,19.57214463096683,0 95.28536098784778,19.57243836120057,0 95.28573331549262,19.5726906346397,0 95.28737487210074,19.57345473877429,0 95.29005869880589,19.57472512800897,0 95.29411739173816,19.57656320243025,0 95.29451185095905,19.5766873179155,0 95.29490042123405,19.57678935339446,0 95.30040748156289,19.57751258907387,0 95.30199742106018,19.57773655380199,0 95.30236289510472,19.57784243189368,0 95.3026909553881,19.57800759322619,0 95.30305630284387,19.57823362727522,0 95.30336997612027,19.57849576100212,0 95.30364267875434,19.57881734501884,0 95.30383604723781,19.57904582677855,0 95.30399968960934,19.57938282084797,0 95.30415531481771,19.57975567011005,0 95.3054403322349,19.58373685292163,0 95.30567341198656,19.58416112455959,0 95.30595339414602,19.58456391580986,0 95.30630405322987,19.58499621689187,0 95.3076567188903,19.58657737209141,0 95.30793915528314,19.58693096501463,0 95.30820408955006,19.58729889906349,0 95.30839364095792,19.58765174343303,0 95.30851012846192,19.58798167770172,0 95.30856859768997,19.58828620341031,0 95.30859733331921,19.58856218906678,0 95.30823994533148,19.59227265647889,0 95.30806887781925,19.59329609096366,0 95.30793615403981,19.59367584969155,0 95.30773682413059,19.59406694431121,0 95.30740794416452,19.59441034068253,0 95.3071536763896,19.59470729226576,0 95.30684400602087,19.59505578079544,0 95.30663575770136,19.5954276246918,0 95.30649224853649,19.59578202230282,0 95.3064371117071,19.59613108900164,0 95.30642678508617,19.59647324377941,0 95.30646739156208,19.59687728978432,0 95.30695635404106,19.59999721562057,0 95.30710856736293,19.60093628859843,0 95.30714353114657,19.6015380109627,0 95.30710683899473,19.60198789861101,0 95.30707784352582,19.60235047881685,0 95.30676938342624,19.60355981609106,0 95.30648186430669,19.60445044289621,0 95.30540917241505,19.60848591271392,0 95.30534311677749,19.60885507972897,0 95.30531636836085,19.60917463316638,0 95.3054008730479,19.60960404809449,0 95.30550923006817,19.60995421368802,0 95.30626628446414,19.61259104045204,0 95.30838759680745,19.62252645879983,0 95.30869905750596,19.62354215063554,0 95.30889082532167,19.62403752529978,0 95.30907829811233,19.62441811106958,0 95.30933901083473,19.62481187497897,0 95.30957143361007,19.62508051927326,0 95.31008120355989,19.62558590051394,0 95.31680455790296,19.63124519976765,0 95.32561835115196,19.63774394502084,0 95.33325944014661,19.64325218032408,0 95.33925221452938,19.64752681364033,0 95.34005135840954,19.64810635942167,0 95.34045543529581,19.6484689000937,0 95.34077385834694,19.64876172314789,0 95.34114313774144,19.64932200448287,0 95.34137626941305,19.64973083591918,0 95.34275159361604,19.65293964544113,0 95.34307620375242,19.65365454468213,0 95.34329761596402,19.65395974224943,0 95.34356776641684,19.65421574820856,0 95.34375381184694,19.65441110648577,0 95.34403940493371,19.65463988537034,0 95.34448039780001,19.65485906304155,0 95.34537518190619,19.65522416892227,0 95.34585173143742,19.65535924747213,0 95.34729114870069,19.6554908732457,0 95.35114725623033,19.65543221210255,0 95.35183539195685,19.65548285859704,0 95.3523677863362,19.65564637484932,0 95.35268489211804,19.65584705265554,0 95.35298773267346,19.65611559080897,0 95.35321062079038,19.65642742598876,0 95.35343981734093,19.65686087224897,0 95.35361467693213,19.65725343367507,0 95.35380438278492,19.65757998054932,0 95.35408342319002,19.65787083537621,0 95.35441055853835,19.65819123908814,0 95.35480673023476,19.65843378305105,0 95.35632996994832,19.65936229184381,0 95.35689959525149,19.65975786605283,0 95.35727458998954,19.66007484030466,0 95.35759680688136,19.66036412421387,0 95.357854522156,19.66068742238398,0 95.35812438294779,19.66115310361023,0 95.36070673023363,19.66560092160121,0 95.36214484136075,19.66803790728639,0 95.36238223087227,19.66858648521676,0 95.36245321709669,19.66898865978327,0 95.36249468507302,19.66943296725185,0 95.36244145520227,19.66980346769836,0 95.36208657549653,19.67067735729235,0 95.36094417241715,19.67352250270092,0 95.36078453243887,19.67399491493652,0 95.36072592325992,19.67438097509379,0 95.36074249641446,19.67479261614853,0 95.36086286155806,19.67518210896517,0 95.36189130711942,19.67714705479436,0 95.36525480017605,19.68334662182192,0 95.36556515068179,19.68383338044979,0 95.36600412310791,19.68429677155406,0 95.36774262481515,19.68602023969274,0 95.3682621372264,19.68655330790801,0 95.36854947829026,19.68684485674892,0 95.36877019325564,19.68708603643493,0 95.36893225658477,19.6873033122625,0 95.3690527562943,19.68759344834492,0 95.36915813485049,19.68794982639243,0 95.36940468705826,19.69151629041734,0 95.36937249825225,19.69187597729887,0 95.36927979612587,19.69230866104522,0 95.36920122026206,19.69262530632712,0 95.36914453115537,19.69302346435299,0 95.36914586190024,19.69342283220033,0 95.36917964000048,19.69383589753643,0 95.36937842641054,19.69429912673952,0 95.36958088151002,19.69468967431441,0 95.36991614320762,19.69529580318778,0 95.37212050266926,19.69887618766118,0 95.37239608926301,19.69934755175991,0 95.37260199511394,19.69973156052454,0 95.37260761300405,19.6997482757366,0 95.37277973920483,19.70015657255877,0 95.37284623288235,19.70054422228698,0 95.37285554741358,19.70096737873264,0 95.37278191457855,19.70349789732726,0 95.37280773081889,19.70390425818232,0 95.37286606212408,19.70426436722835,0 95.37300022757314,19.70466907339234,0 95.37317312340484,19.70497609773919,0 95.37482986760723,19.70705366723873,0 95.3750364928475,19.70728061725786,0 95.37521902368459,19.70754356535981,0 95.375358635574,19.70782998139329,0 95.37546896117058,19.70812597262788,0 95.37554854595439,19.70845493633918,0 95.37557569557457,19.70877624807051,0 95.37556021093876,19.70908240027051,0 95.37496709985128,19.7117893460735,0 95.37485329170364,19.7122819794332,0 95.3748129064828,19.71270757609247,0 95.37479694903496,19.71302229812397,0 95.37480403656468,19.71328211991038,0 95.37486031662357,19.71373818410429,0 95.3760414803472,19.71863322490232,0 95.37677559474152,19.72150901424359,0 95.37692505296428,19.72199377018766,0 95.37708310622803,19.72234645789377,0 95.37728102906004,19.7226455626845,0 95.38065958064425,19.72712582765819,0 95.38345701917363,19.73085075884438,0 95.38709844903389,19.73568605193971,0 95.38753430656507,19.73629234355753,0 95.38793963059889,19.73668213914299,0 95.39041712951075,19.73902393321322,0 95.39490555034456,19.74316114059229,0 95.39580497565135,19.74395407940892,0 95.39607123985699,19.74415107332035,0 95.39629119950445,19.74430298977356,0 95.39654598637389,19.74447534549667,0 95.39687642667741,19.74464054219619,0 95.40296089684699,19.74731640861174,0 95.40870806598258,19.74982951546013,0 95.41309105477058,19.75182776471133,0 95.41345909212528,19.7520180260603,0 95.4137159362873,19.75218135267475,0 95.41394306391241,19.75233812942783,0 95.41419313326635,19.75258966066415,0 95.41445314899542,19.75287957449271,0 95.4169377006898,19.75689601818041,0 95.42050657699102,19.76252701612181,0 95.42539969397437,19.77024660369317,0 95.42566947722646,19.77075167124026,0 95.4258648840252,19.77119494028046,0 95.42598104699457,19.77152361877486,0 95.42681362696369,19.77454340558266,0 95.42878686945306,19.78180860358251,0 95.42978670741688,19.7853181078525,0 95.42984613564255,19.78568184971099,0 95.42991167659069,19.78602032227884,0 95.42997661054099,19.78646498983428,0 95.42999288983467,19.79135467042511,0 95.43002323247239,19.79542797976756,0 95.43006065101825,19.79590029527852,0 95.43013560085359,19.79622939341565,0 95.43022920257036,19.79654444206194,0 95.4303208820981,19.79681380312923,0 95.43243873184048,19.80102825647933,0 95.43412509151334,19.80437162662454,0 95.43625057042817,19.80861770594197,0 95.4372011707525,19.81045916158252,0 95.43737047468666,19.81074696572722,0 95.43752483660498,19.81098323627273,0 95.43776026362346,19.8113076533645,0 95.43852460394865,19.81226024974905,0 95.43940951729213,19.81338102158843,0 95.44617197215814,19.82193909427573,0 95.45004630493563,19.82683287528275,0 95.4520859276039,19.82942871423563,0 95.45232035576163,19.82969437216136,0 95.45255358624044,19.82990941001621,0 95.45273348753022,19.83006939002303,0 95.45297955463555,19.83021970596431,0 95.45330562974998,19.8304119123093,0 95.45363274269352,19.83056048870049,0 95.46126386903987,19.83336617106752,0 95.47002764281739,19.83664892597319,0 95.47033042705222,19.83677816528486,0 95.47060984537231,19.83694067719246,0 95.47088075450184,19.83714377611734,0 95.47109781023558,19.83731441126333,0 95.4777377545532,19.84381178696846,0 95.48624560311838,19.85220586078189,0 95.49132364517986,19.8571882919785,0 95.49861531121427,19.86443753204823,0 95.50153004171155,19.86730461852325,0 95.50193925930536,19.86771470764157,0 95.50224032047676,19.86795495353184,0 95.50256240058425,19.8682123968529,0 95.50288937782538,19.86839710342137,0 95.50319962397096,19.86855451991512,0 95.50347891360302,19.86865170756992,0 95.50380401586932,19.86878282446528,0 95.50413875635401,19.86887802130747,0 95.50446572928243,19.86892220077839,0 95.50492647460632,19.86896337087763,0 95.51087763096774,19.86918231101558,0 95.51671474463052,19.86941548500728,0 95.52457954008702,19.8697241797766,0 95.53121102364018,19.86997995854809,0 95.53607060382184,19.87020583718709,0 95.53663414301887,19.8702191948597,0 95.53695998097213,19.8701891966919,0 95.53729346461151,19.87012373116986,0 95.53769138279348,19.87003606071066,0 95.53801018283249,19.86992104454987,0 95.53833132932957,19.86981231798144,0 95.53901145720438,19.86949249496309,0 95.54105205598353,19.86833521045796,0 95.54328031414032,19.86706852496551,0 95.54364118621254,19.86690935604748,0 95.54401186092096,19.86680410026739,0 95.54438745435336,19.86674134242603,0 95.54471493261227,19.86667536466832,0 95.54526424095175,19.86665572769208,0 95.5505028030977,19.86636514158074,0 95.55684020594552,19.8660372245552,0 95.56056543859312,19.86582481506525,0 95.56109873427657,19.86575039757325,0 95.56145597644427,19.86568420319463,0 95.56186143398877,19.86558748181265,0 95.5623289098489,19.86546467692987,0 95.56295499811562,19.86526379309849,0 95.5636911029591,19.86502803327906,0 95.56403795544986,19.864927195645,0 95.56436785427064,19.86485040452251,0 95.5646609044403,19.86481239286451,0 95.56499719926237,19.86478355945591,0 95.56532002757488,19.86479758211755,0 95.56576710072891,19.8648503205141,0 95.56654574176891,19.86501529229195,0 95.56717110661666,19.86519327643729,0 95.56765207174142,19.86534811531787,0 95.56798943402245,19.86551285388634,0 95.56829837494118,19.86568180906159,0 95.56859205048339,19.86589640020051,0 95.56890646036467,19.86615187375338,0 95.56918654801075,19.86642705505636,0 95.56942636855362,19.8667210569317,0 95.56965739537169,19.86705664196269,0 95.56987808126597,19.86743490814776,0 95.57020989072321,19.86809807848461,0 95.57039263843925,19.86861854068495,0 95.57043829803618,19.86924241524503,0 95.5704111829002,19.86995506076015,0 95.57036000636708,19.8705757785226,0 95.57028015231835,19.87082824828134,0 95.57017634847554,19.87109841683721,0 95.57004937544745,19.87138510161994,0 95.56984583153545,19.87170639486271,0 95.56965082531495,19.87200427760361,0 95.56820465919817,19.87381580255314,0 95.5682047148385,19.87380780648861,0 95.5657163338974,19.87714598590695,0 95.56515317849622,19.87787123741805,0 95.56490530273997,19.87820844064112,0 95.56467527854332,19.87865108777721,0 95.56451867978484,19.87905823241243,0 95.56438513212771,19.87952389687122,0 95.56428630176973,19.880076883408,0 95.56296433139208,19.88875709891966,0 95.56164520397319,19.89723803289614,0 95.56051037008641,19.90466723969337,0 95.55948605638167,19.91132374848145,0 95.5584964254639,19.91778900965966,0 95.55710987935737,19.92683542839551,0 95.55639403352559,19.93139830884569,0 95.55545888346849,19.93768536103764,0 95.55454647667416,19.94340305782914,0 95.55355031707795,19.94990556902067,0 95.55257870045604,19.95615137406721,0 95.55094349360724,19.96685914178176,0 95.5497782079043,19.97433496971706,0 95.54837452733472,19.98368834729622,0 95.54745561195078,19.98959111132394,0 95.54639807774721,19.99662142050752,0 95.54626837700894,19.99754090295747,0 95.54618152386155,19.99789362467577,0 95.54600923799553,19.99828726692383,0 95.54583246900896,19.99858837256559,0 95.54560989513651,19.99889439974469,0 95.54532334129425,19.99915762845251,0 95.5449854656482,19.99939013890681,0 95.54436716092306,19.99970679723334,0 95.54010043602926,20.00184738007947,0 95.53624529925465,20.00382319751913,0 95.5362422390195,20.00382516336116,0 95.53583020696226,20.00403862462331,0 95.53545297487973,20.00424087678358,0 95.5351521347674,20.00443984363732,0 95.53493428188718,20.0046090514566,0 95.53468806835666,20.0048400382046,0 95.53448954264351,20.00504853639734,0 95.53426011955334,20.00533789013226,0 95.53410800854424,20.00558471577999,0 95.53174651281323,20.00999989352224,0 95.52872512085321,20.01561819632823,0 95.52012417697701,20.0315437920112,0 95.51436686666747,20.04208616704479,0 95.51382319877833,20.04309768933123,0 95.51104369015003,20.0470357591839,0 95.5097598674526,20.04892476588255,0 95.50947477413661,20.04950104313737,0 95.49763039464972,20.07687474655091,0 95.49422229365199,20.0847425458385,0 95.48904256139996,20.09700720804442,0 95.48575265528962,20.10460923044302,0 95.48539615409061,20.10543924468743,0 95.4850800128954,20.10612986380262,0 95.48488965706069,20.10675005862911,0 95.4847831836417,20.10715190970425,0 95.48468520383283,20.10778268593616,0 95.48472818366584,20.10858366383335,0 95.48609485547492,20.12883443846679,0 95.48679194168348,20.13876393641496,0 95.4869430492374,20.1413700522384,0 95.48692744728183,20.1423329747715,0 95.48677454415031,20.14296089873668,0 95.48653861036269,20.14353763419757,0 95.48610958307786,20.14419588139892,0 95.48526381544721,20.14517991442039,0 95.48335341136149,20.14725727259117,0 95.47557218345547,20.15697216806568,0 95.46780554666842,20.16632713909559,0 95.46155755272524,20.17344355767254,0 95.45737932847841,20.1782762673612,0 95.45704375409332,20.17873431832028,0 95.45674973769378,20.179233285779,0 95.45653892447362,20.17963192444102,0 95.45596237335613,20.18127816597134,0 95.44838151948916,20.20263343588649,0 95.44341435194828,20.21646357334721,0 95.43749215911807,20.23309054360299,0 95.43715804676221,20.23394783561811,0 95.43695412419545,20.23457914818954,0 95.43689005693635,20.23521284170991,0 95.43682729106945,20.26018592739648,0 95.43679432471197,20.26088793633967,0 95.43669669937695,20.26155221840034,0 95.4364789995344,20.26233251430356,0 95.43432436563742,20.26876878987673,0 95.42996338463462,20.28183096396179,0 95.42805597672935,20.28740345727521,0 95.42727262333197,20.28979209520473,0 95.42706899771784,20.29028542323313,0 95.42680313963925,20.29086907205439,0 95.42107364048229,20.30191551323959,0 95.41145213988916,20.32097733047322,0 95.41126635097939,20.32153228598461,0 95.41118117285068,20.32200108508295,0 95.41115265028709,20.32246009607426,0 95.41119163181133,20.32297973636418,0 95.41412148859452,20.33536364919038,0 95.41625767470077,20.34434406398873,0 95.41650048421974,20.34523925210306,0 95.41666146254497,20.34583364918056,0 95.41692273220343,20.34633106234063,0 95.41722550827426,20.34683718514681,0 95.4176586594903,20.34733402430049,0 95.42243300730613,20.35207245328393,0 95.42365124147582,20.35328506777591,0 95.42407897887421,20.35382292030968,0 95.42437903967928,20.35439214535334,0 95.42455100890942,20.35494919731417,0 95.4246861802278,20.35578518457965,0 95.42650933010762,20.36987362254205,0 95.4268714453903,20.3727878485826,0 95.42694021303069,20.37363970474728,0 95.42694099540478,20.3742097328563,0 95.4268034288651,20.37480709555463,0 95.42659828161615,20.3754271458158,0 95.42623872189263,20.37617444026261,0 95.42357113486364,20.38177201791799,0 95.42059438026398,20.38782758545064,0 95.41782917106728,20.39347061069246,0 95.4154977156355,20.39830277850783,0 95.415081247945,20.39911389493472,0 95.41491163473208,20.3995577124639,0 95.41479480630571,20.39993764472952,0 95.41472568464255,20.40033171774086,0 95.41327913371762,20.40977805168217,0 95.41288776443506,20.41235356274025,0 95.41283718884844,20.41286069655828,0 95.41284541289649,20.41329139051011,0 95.41290451124219,20.41367851206115,0 95.41302329025106,20.41401530266531,0 95.41322200965384,20.41436315378295,0 95.41348011799649,20.41471995938219,0 95.41390145061432,20.41510769650671,0 95.4207357670481,20.42047083288121,0 95.42214064073141,20.42156045318106,0 95.4224585567556,20.42185499116631,0 95.42266789415722,20.42211964542151,0 95.42284492142814,20.42239880660952,0 95.42296469342354,20.42266484174383,0 95.4229638771068,20.42267445316142,0 95.42308052840598,20.42299523448886,0 95.42313762317141,20.42334396427023,0 95.42313337302922,20.42405335914561,0 95.42306378993121,20.42701831372597,0 95.42298047798676,20.42765957092889,0 95.42290693757659,20.4280375505347,0 95.42280192947557,20.42836730570289,0 95.42265434129182,20.42870536834886,0 95.41995586792051,20.43366489210742,0 95.4191584239606,20.43500340733527,0 95.41890406207476,20.43530064037848,0 95.41861165454694,20.43557241354275,0 95.41825048337165,20.43585529740815,0 95.4143047836929,20.4387367522396,0 95.41121963135922,20.44093672313992,0 95.41089474652586,20.44123642155191,0 95.41061386685998,20.44156755968408,0 95.41037749861999,20.44190672151652,0 95.41012539316088,20.44231381545432,0 95.40991677277843,20.44280456138451,0 95.40898427774836,20.44503986166412,0 95.40883122130344,20.44554082268274,0 95.40881668110728,20.44581660904814,0 95.40883845289825,20.44610790497047,0 95.40887711522774,20.44636917409412,0 95.40895659026178,20.44667912442614,0 95.40910155235503,20.44700595486461,0 95.40927194325418,20.44735859847713,0 95.41177758156313,20.45147387783661,0 95.41201748888942,20.45196900101796,0 95.41211234128492,20.45228574359804,0 95.41216557227837,20.45259447978764,0 95.41216519957946,20.45286491654397,0 95.41213359877285,20.45311036561479,0 95.41203163403472,20.45339334197814,0 95.41184583555503,20.45370742689449,0 95.41147659208447,20.45409017766732,0 95.40920188724658,20.45649648080531,0 95.40778906738544,20.45793334851985,0 95.40753422225821,20.45826926576254,0 95.40737718427023,20.45854570355845,0 95.4072712840179,20.45881689481585,0 95.40624515402573,20.46283919369553,0 95.40606949748928,20.46343301999425,0 95.4059840995903,20.46374282908691,0 95.40587716488901,20.46399215087938,0 95.40571736835176,20.46426655965406,0 95.40551588925531,20.46455135106976,0 95.40261497691489,20.4678535020679,0 95.39959088467307,20.47121753479814,0 95.3990606877702,20.47179272477888,0 95.39876039708378,20.47207317907412,0 95.39845471463229,20.47227829308906,0 95.39796055944689,20.47254376255501,0 95.39690345557581,20.47298139212163,0 95.39657150788759,20.47316868125819,0 95.39629760082904,20.47338614532044,0 95.39602673992805,20.47365329260573,0 95.39580961133187,20.4739189500711,0 95.39479347312154,20.475297251485,0 95.39427679147431,20.47599919530918,0 95.39404098861228,20.47625293101702,0 95.39378625432948,20.47644934181421,0 95.39377357499478,20.47645859248858,0 95.39350272874215,20.47660163209152,0 95.39317335259381,20.47672814371908,0 95.392827833829,20.47682051253336,0 95.39222554057953,20.47684226524003,0 95.38629856507254,20.47686322993922,0 95.38515408819383,20.47690727384814,0 95.38478218359056,20.4769353510969,0 95.38452208917268,20.47700260586341,0 95.38427782513899,20.47709829169923,0 95.38404883780503,20.47720549530407,0 95.38380988372185,20.47736104275835,0 95.38363218552718,20.47753003234808,0 95.38337112522137,20.47783185828234,0 95.37757334029129,20.48430624408525,0 95.3773152891835,20.4845596565762,0 95.37707347454342,20.48474833544299,0 95.376819134804,20.48490621034354,0 95.37658464586274,20.48503435996664,0 95.3763127568097,20.48515477307511,0 95.37603981953464,20.48523789846344,0 95.3756117545816,20.48530368374015,0 95.373110259344,20.48550402202955,0 95.37279137742826,20.48555061152793,0 95.37250673222205,20.48564732918259,0 95.37223918795378,20.48576399770489,0 95.37200811670908,20.48590846087764,0 95.37177108345821,20.48611615109218,0 95.37009541594627,20.48806151793076,0 95.36975241712005,20.48844999773989,0 95.36952127075728,20.48871457368985,0 95.36931145853329,20.48891327307203,0 95.36909290482815,20.48907925856042,0 95.36879145802016,20.48927033875383,0 95.3684980264805,20.48943052795879,0 95.36794907311881,20.48964055758268,0 95.36374813757041,20.49127783711665,0 95.36330126810226,20.49146762623139,0 95.36302294248587,20.49160965987293,0 95.36278303193441,20.49175553979528,0 95.36261395252353,20.49191709107102,0 95.36246030758625,20.49211416823473,0 95.36133439445328,20.49383730276776,0 95.36112225351278,20.49411004241466,0 95.36093487130047,20.49432437035503,0 95.36072179253593,20.49451884468607,0 95.36047582543132,20.49469944946965,0 95.35964669217255,20.49520487339616,0 95.3565736267638,20.49701521214119,0 95.35590534457762,20.49743379446784,0 95.35555297692076,20.4977107415138,0 95.35532195533718,20.4979286988824,0 95.35492830832931,20.49839225708498,0 95.35268440310692,20.50144312805197,0 95.35239914028055,20.50187210685708,0 95.35223961343843,20.50213956697322,0 95.35216057712216,20.50236328480522,0 95.35213853213469,20.50262309620715,0 95.35212922645614,20.50288565722201,0 95.35248967209421,20.50521134618255,0 95.35287328836583,20.50766618200455,0 95.35292830035999,20.50810211681973,0 95.35295440038006,20.50841655936498,0 95.35295332759144,20.50866404185663,0 95.35292231345269,20.5089400343146,0 95.35283129192443,20.5092343051182,0 95.35269479439127,20.5095523076479,0 95.34949418830415,20.51470314793026,0 95.34492349117329,20.52193766430683,0 95.34426612076135,20.52295726333374,0 95.34393081192557,20.52336126898975,0 95.34360798648147,20.52364940928065,0 95.34359986342005,20.52366116579737,0 95.34325943374419,20.52391312010072,0 95.3428564547073,20.52411308828198,0 95.33837881841936,20.52645183771326,0 95.33681490730486,20.52724239916901,0 95.33644028939713,20.52747883812323,0 95.33617628801018,20.52772864211742,0 95.3358637120196,20.5280660437827,0 95.33567665715961,20.52840658370833,0 95.33540540824528,20.52887078457015,0 95.33413375641251,20.53155667452455,0 95.33329719168638,20.53341264535025,0 95.33065295253219,20.53897952539005,0 95.33041125963813,20.53952931628661,0 95.33025294094418,20.54002621665545,0 95.33009238722889,20.54063537692239,0 95.32995314935262,20.54117743332077,0 95.32886334594431,20.54505628725867,0 95.32766701854165,20.54943640358971,0 95.32607686327802,20.55521303408148,0 95.32563424803217,20.55644976395315,0 95.32450889701272,20.55934558387305,0 95.32215505772304,20.5653817527837,0 95.32199576696669,20.5658191548817,0 95.32191351255797,20.56606636434553,0 95.32186220960908,20.56633814872465,0 95.32183711044968,20.56661226524184,0 95.32193232810029,20.56757680318564,0 95.32280806593478,20.57395843802985,0 95.32329878896658,20.57743578531019,0 95.32353942476968,20.57921986955688,0 95.32362889913871,20.57953000666817,0 95.32372617512178,20.57983728973225,0 95.32385180342493,20.58014481303615,0 95.32592441770626,20.58407839648555,0 95.32752118313806,20.58714054632059,0 95.32781159634266,20.58768116085904,0 95.32794364741426,20.58795515577493,0 95.32800892728145,20.58822892945962,0 95.32804838762124,20.58853574393404,0 95.32802208390088,20.58882381135875,0 95.32797201284282,20.58909106010798,0 95.32781570839744,20.58944894047556,0 95.32734890560781,20.59027229434397,0 95.32612336997252,20.59238086603382,0 95.32595054656834,20.59274144281341,0 95.32583026167552,20.59316262913077,0 95.32557180508967,20.59432036237624,0 95.32536720566303,20.59535517739945,0 95.32531924563604,20.59575318588695,0 95.32530101365828,20.596057085289,0 95.32535256529056,20.59637775585601,0 95.32541891561623,20.59668553890176,0 95.32565480642791,20.59732004277797,0 95.32706032640679,20.60079291121703,0 95.32717821429888,20.60113853680876,0 95.32727658525191,20.60146488745864,0 95.32733168985263,20.60176368633519,0 95.32735099257869,20.60208338938758,0 95.32735046626846,20.6020883200734,0 95.32729328535949,20.60246084317748,0 95.32717888533163,20.60281275201734,0 95.32703633837052,20.60315275560083,0 95.32632895914293,20.60409515605723,0 95.32447765929494,20.60646328875105,0 95.32420580489847,20.60688321969458,0 95.32405059512811,20.60721717931562,0 95.32389280950827,20.60766511621319,0 95.32370967193144,20.608362422642,0 95.3215056741321,20.61700201055713,0 95.32023880986849,20.62200293026574,0 95.32006090990232,20.62262256534821,0 95.31986283772655,20.62304505499678,0 95.31961567056857,20.62338297501285,0 95.31926643514426,20.62372495520332,0 95.3178112406267,20.62504725236996,0 95.3156749421495,20.62680331331005,0 95.31180758546284,20.62998077482929,0 95.31124321341775,20.63035510700069,0 95.31066526530738,20.63068704839311,0 95.30997120909012,20.63104114369078,0 95.30931869563349,20.63136194951133,0 95.30884841980993,20.63163571082706,0 95.30852994593562,20.63184588624199,0 95.30823709203229,20.63209341663499,0 95.30793181490627,20.63242536357168,0 95.3076705849048,20.63278107859822,0 95.30665911384625,20.63447151407502,0 95.30366406278434,20.63949732800805,0 95.30187189324232,20.64246344314113,0 95.30154044054456,20.64285776497701,0 95.30113444368018,20.64318148824613,0 95.3005261823333,20.64353654637187,0 95.29703453871542,20.64544914390766,0 95.29632099994103,20.6458494682479,0 95.29588720926061,20.64617984576363,0 95.29556992776018,20.64654306986847,0 95.29536153010385,20.64688525623536,0 95.2951976196313,20.6472550524208,0 95.2950056800904,20.64774316275764,0 95.29406853023916,20.65017828222355,0 95.29399250474326,20.65056542990081,0 95.29399063889274,20.65091644562662,0 95.29403886513055,20.65125504242007,0 95.29417599540784,20.65160673629834,0 95.29442805938912,20.65210577947649,0 95.29624426573473,20.65576002662485,0 95.29654752723052,20.65641109598737,0 95.29668981293438,20.65689492001571,0 95.29679970261054,20.65809252206215,0 95.29720806123329,20.66340200925785,0 95.29727937947573,20.66408126953454,0 95.29735489678053,20.66443654354961,0 95.29743518406376,20.66472324265942,0 95.29763917585964,20.6651665660063,0 95.29899312974303,20.66835591080779,0 95.2990029991623,20.66866928265001,0 95.29896804846901,20.66900877846978,0 95.29887463650772,20.66937955336642,0 95.29720787931089,20.67269887382742,0 95.29599261043009,20.67507537360704,0 95.29576140621263,20.67549040401824,0 95.29552618429146,20.67580342992259,0 95.29524211734153,20.67604693187129,0 95.29483739388958,20.67631212428972,0 95.29114289417223,20.67840237169828,0 95.29018384427816,20.67896338802949,0 95.2898613217494,20.67921642031054,0 95.28961937110915,20.67948187305718,0 95.28942935381421,20.6797290297339,0 95.28921021547518,20.68006986100343,0 95.28863085538325,20.68154183687724,0 95.28722246612362,20.68494925837897,0 95.286874186159,20.68586822211494,0 95.28448908799091,20.69174816315259,0 95.28431249950752,20.69214767377806,0 95.28413760873329,20.69249991422652,0 95.28389745457997,20.69283687814012,0 95.28367287951811,20.69305224940663,0 95.28342628973272,20.69325133018128,0 95.28276512128404,20.69364266986435,0 95.27990369507815,20.6953970397886,0 95.27524352972996,20.69825341012835,0 95.27485203080281,20.69851940905215,0 95.27465995496846,20.69871950837744,0 95.27448330933146,20.69893660706869,0 95.27432910949584,20.69921297119602,0 95.2718424552619,20.70498718135787,0 95.26903703331888,20.71145662704246,0 95.26596278259385,20.71855004282958,0 95.2647133141501,20.72148896654075,0 95.26448914044083,20.72201796809271,0 95.26432243503831,20.72236423498859,0 95.26416490433175,20.72264737797485,0 95.26383424963368,20.72307518668941,0 95.26332218973995,20.72365723365996,0 95.25729051899174,20.73007074017243,0 95.25121414935708,20.73663157426795,0 95.25062428673937,20.73727179157483,0 95.2503428347279,20.73761974852755,0 95.25012567917365,20.73800911682591,0 95.24993973154068,20.73845788146588,0 95.24972069243574,20.73907071320933,0 95.24860769514693,20.74250983923011,0 95.24708910332896,20.74712354538096,0 95.24475665226738,20.75434225848526,0 95.24391236630584,20.75696430118606,0 95.24375631009364,20.75750250297813,0 95.24365698384366,20.75792630244422,0 95.2435504414795,20.75856763459576,0 95.24344162402457,20.75953803133772,0 95.24316505204145,20.76258880680535,0 95.24311306597799,20.76297859301795,0 95.2430310899494,20.76347550055998,0 95.24286100324271,20.76393076171565,0 95.24265889638558,20.76435328888832,0 95.24205121632244,20.76575226629606,0 95.24180125982142,20.76644458678979,0 95.24167203537067,20.76694790486063,0 95.24159278068446,20.76744479442516,0 95.24154945643647,20.76789329059927,0 95.24144024131209,20.7713864006356,0 95.24136008380506,20.77465645693264,0 95.24125796784333,20.77507615667073,0 95.24112772722076,20.77544716035519,0 95.24087246364908,20.77584201558507,0 95.24062155567944,20.77615427548599,0 95.24036884863911,20.77635970512314,0 95.24005711881691,20.77657401559215,0 95.23827160198285,20.77738286367754,0 95.23672832086223,20.77815405635653,0 95.23640724419441,20.77840906463432,0 95.23610987724156,20.77866654650531,0 95.23587998435087,20.77896074651099,0 95.23567692471369,20.77925304101615,0 95.23425625531448,20.78219768719723,0 95.23336355197243,20.78415589890607,0 95.23321705041698,20.78451125183063,0 95.23312780144386,20.7848174442662,0 95.23307453110355,20.78508851518832,0 95.23310726053069,20.78544312162307,0 95.23319251974517,20.7857613284216,0 95.23336737016979,20.78617512300927,0 95.23540795023419,20.78960829287433,0 95.23741187284857,20.79279149542881,0 95.23754307245154,20.79305302765444,0 95.23763124016739,20.79330563682797,0 95.23767902033269,20.7935643608404,0 95.23768345757686,20.79389828113535,0 95.23762828724529,20.79422400794407,0 95.23751962804093,20.7945101387849,0 95.23731306339195,20.7948437947646,0 95.23709070041488,20.79512555132878,0 95.23605699728817,20.79623147745581,0 95.23185829623422,20.80075514089847,0 95.2314503222063,20.80113704055309,0 95.23118043230228,20.8013284276426,0 95.23091835527431,20.80145398500818,0 95.23064741080341,20.80154153084763,0 95.23039222223258,20.8015752540786,0 95.22953198770217,20.80165661142772,0 95.22132522485967,20.80220983600491,0 95.22078406354511,20.80227241711923,0 95.22034337562883,20.80242058052777,0 95.21998051939869,20.80260637230943,0 95.21963085974075,20.80283838817735,0 95.21929929797342,20.80310447167695,0 95.2190200305436,20.80346492170585,0 95.21882618943052,20.80382916535797,0 95.21867015803072,20.80428145633967,0 95.21838879573269,20.8050437351607,0 95.21705799616863,20.80867580087734,0 95.21673392553575,20.80954520573802,0 95.216573032811,20.80988028938685,0 95.21640052237467,20.81013495683279,0 95.21621555325416,20.81038012998917,0 95.21591691753697,20.81061017648284,0 95.21554318090421,20.81079818826374,0 95.21380979980523,20.81141968042695,0 95.21177348333663,20.81214504923324,0 95.2113272693242,20.81232370043336,0 95.21104648337668,20.81246258388091,0 95.21078028053314,20.8126305398348,0 95.21040534864314,20.81291336882331,0 95.20885217579448,20.81432351871696,0 95.20688969946943,20.81605926448799,0 95.20657614308306,20.81640083427834,0 95.20637265850843,20.81666049349174,0 95.20621009573686,20.81693143161102,0 95.20603587067213,20.81728149039537,0 95.20572883122078,20.81817765497669,0 95.20525657014071,20.8197114706565,0 95.20511224800183,20.82003752686225,0 95.20492311893693,20.82027514732364,0 95.20471815627121,20.82051164878896,0 95.20440618303501,20.82076991547272,0 95.20415995320735,20.82092514207921,0 95.2037630150262,20.82114188674248,0 95.19927160316745,20.82281348069812,0 95.19877091657457,20.82295164259819,0 95.19825316458481,20.82303551875888,0 95.19780683531047,20.82307207655348,0 95.1972734949359,20.82302880892588,0 95.18996066030644,20.82224221376963,0 95.18745231670282,20.82199189836586,0 95.18701095044972,20.82202185821988,0 95.18653249338658,20.82207718318836,0 95.18612843746318,20.82217751769695,0 95.1856867957613,20.82233949831327,0 95.18533434215739,20.82250273072105,0 95.18105740211959,20.8245924748968,0 95.17952899972789,20.82533228006987,0 95.17909066161337,20.82554786954231,0 95.17880716766601,20.82574190397358,0 95.17855767569913,20.82594469767711,0 95.17838100886968,20.82621231108228,0 95.17819502345158,20.82649996760514,0 95.17805505764015,20.82692009983385,0 95.17794938719705,20.82748825329426,0 95.17788185070432,20.82792929435932,0 95.17775607589887,20.82832880342258,0 95.17763083377253,20.82866542181511,0 95.17745149762132,20.82893904474264,0 95.17726471606949,20.82916767418525,0 95.17699247603274,20.82946169663192,0 95.17422275874394,20.8321488785316,0 95.17344023277136,20.83271645177412,0 95.17266237201615,20.83324674204983,0 95.1695162544502,20.83524412003456,0 95.16703001831922,20.83684335399707,0 95.1666340171752,20.83707441417612,0 95.16624555092234,20.83724439642131,0 95.16591912791245,20.83731309610511,0 95.16556526996391,20.83733681178097,0 95.16523422659063,20.83730772433816,0 95.1648589595537,20.83718813691025,0 95.16210151141743,20.83616472195539,0 95.15658099744,20.8341264647046,0 95.15125759741777,20.83219045512437,0 95.14863544173379,20.83117951126453,0 95.14809901533153,20.83099661100566,0 95.14770703054961,20.83094286581751,0 95.14727000895762,20.83089621238226,0 95.14217194196534,20.8306587832623,0 95.14163421364012,20.83066636446609,0 95.14120368615937,20.83068886181152,0 95.14080159033581,20.83072866988302,0 95.13929669905011,20.8309999625646,0 95.13659855452414,20.83144819690871,0 95.13595558113093,20.8315517997981,0 95.13548750753022,20.83170398225092,0 95.13513145878949,20.83185497412747,0 95.13475423184281,20.83205032835624,0 95.1315889387574,20.83397197649562,0 95.1312867058258,20.83412765496707,0 95.13104345214424,20.83421136176186,0 95.1308038458352,20.83426841243409,0 95.13049293205472,20.83429343985621,0 95.13021612422887,20.83429084961118,0 95.12989282269365,20.83422663781182,0 95.1295784971538,20.8341232410572,0 95.12923502918139,20.83393997366534,0 95.12895881370605,20.83371800475071,0 95.12871522579181,20.83349082672339,0 95.12424234296154,20.8294058677508,0 95.12157809425776,20.8269276308583,0 95.11932132547044,20.8247973031282,0 95.1188750019367,20.82440450128454,0 
			</coordinates>
		</LineString>
	</Placemark>
</Document>
</kml>
