<?xml version="1.0" encoding="UTF-8"?>
<kml xmlns="http://www.opengis.net/kml/2.2" xmlns:gx="http://www.google.com/kml/ext/2.2" xmlns:kml="http://www.opengis.net/kml/2.2" xmlns:atom="http://www.w3.org/2005/Atom">
<Document>
	<name>W07-Kyaukpadaung-NyaungU.kml</name>
	<open>1</open>
	<Style id="style50">
		<LineStyle>
			<color>ff00aa00</color>
			<width>3</width>
		</LineStyle>
		<PolyStyle>
			<fill>0</fill>
		</PolyStyle>
	</Style>
	<Style id="style380">
		<LineStyle>
			<color>ff00aa00</color>
			<width>3</width>
		</LineStyle>
		<PolyStyle>
			<fill>0</fill>
		</PolyStyle>
	</Style>
	<StyleMap id="stylemap_id9">
		<Pair>
			<key>normal</key>
			<styleUrl>#style50</styleUrl>
		</Pair>
		<Pair>
			<key>highlight</key>
			<styleUrl>#style380</styleUrl>
		</Pair>
	</StyleMap>
	<Placemark>
		<name>W07-Kyaukpadaung-NyaungU</name>
		<styleUrl>#stylemap_id9</styleUrl>
		<ExtendedData>
			<SchemaData schemaUrl="C:/Users/laye/Google Drive/MMrail paths/mmrail_250k.kmz#mmr_rlwl_250k_mimu">
				<SimpleData name="Id">0</SimpleData>
			</SchemaData>
		</ExtendedData>
		<LineString>
			<coordinates>
				95.11838560446223,20.8239203554576,0 95.1177956579221,20.82349481459879,0 95.11722804341754,20.82316535650244,0 95.11669812682797,20.8229554271376,0 95.11604027535867,20.82281796716302,0 95.10339843131963,20.82088035295365,0 95.10261994151118,20.82074407442907,0 95.1019701857565,20.82064096768257,0 95.1014364224453,20.82057477052239,0 95.10089416966791,20.82059114992358,0 95.10034161972259,20.82068053997441,0 95.09981067672754,20.82086351555915,0 95.09919680385868,20.82118728977227,0 95.09564037772198,20.82341642561973,0 95.09496629657947,20.82391699681186,0 95.09457687557128,20.82442244487096,0 95.09425613935576,20.82497488164546,0 95.09183240465787,20.82992197548798,0 95.09142591795572,20.83063280967221,0 95.0910596620773,20.83107966195781,0 95.09076395849088,20.83139866863774,0 95.09020120986075,20.83178217132303,0 95.08972280894606,20.83203980942496,0 95.08912575106213,20.83227506960827,0 95.08844085182376,20.83246021525136,0 95.08599397399738,20.83328669989914,0 95.08563803371072,20.83343707272622,0 95.08526341105934,20.83365685575884,0 95.084936676016,20.8339469785537,0 95.08468784560701,20.83424870821527,0 95.08123812253797,20.84068190595875,0 95.08065993139016,20.84173742197975,0 95.08038844254212,20.84228137773163,0 95.08020005352257,20.84287997898294,0 95.08008828059138,20.84350626741698,0 95.08006543826824,20.84409173321757,0 95.08069587268398,20.85115993536565,0 95.08204391177769,20.86702675252747,0 95.08307254188766,20.8757998039486,0 95.08314727811975,20.87654405778977,0 95.0831527856318,20.87691087369007,0 95.08307834888134,20.87734776119254,0 95.08299152940271,20.87766915443566,0 95.08278776816385,20.87805574448971,0 95.08194902099794,20.87949587537056,0 95.07956804720314,20.88354859153706,0 95.07919054403705,20.88411325167678,0 95.07894132224337,20.88442973114678,0 95.07857681059295,20.88475165650032,0 95.07799272236032,20.88522942228441,0 95.07716120693705,20.88593969526611,0 95.0769132510477,20.88613054032909,0 95.07669864226324,20.88627010500504,0 95.07629695853208,20.88645514078117,0 95.07244994549539,20.88817308811278,0 95.07204612089552,20.88833796040294,0 95.07173066478265,20.88843531457178,0 95.07139609092515,20.8885286230521,0 95.07097723675707,20.88854722097791,0 95.07045406506687,20.88853943645255,0 95.06859455811157,20.88839452096553,0 95.06822353750974,20.88840192428246,0 95.06784626263487,20.88842063740199,0 95.06744975341886,20.8884825575751,0 95.06708470746938,20.88854925842381,0 95.06537138943669,20.88891281046584,0 95.06492270719545,20.88902320020851,0 95.06455767103404,20.88916311709075,0 95.06418508593443,20.8893659048494,0 95.06347784881675,20.88978595534761,0 95.06135763894928,20.89126343266817,0 95.06109945856117,20.89145577106767,0 95.06064716945436,20.89186856049408,0 95.05673878145548,20.89534995455144,0 95.0565882435766,20.89549316023073,0 95.0516110515492,20.89909192734984,0 95.0513514902617,20.89928539151555,0 95.05107824352997,20.89952694259315,0 95.05091866565641,20.89970391090005,0 95.0507069958792,20.89998844563938,0 95.05059386760244,20.90025067958328,0 95.0504711789887,20.90053756941181,0 95.05033783061587,20.90106287164704,0 95.0491617872555,20.90528412335967,0 95.04899573832269,20.90573870034871,0 95.04890519865417,20.90593968194622,0 95.04873516414442,20.9061844592728,0 95.04857715488586,20.90640651148579,0 95.04828502195697,20.90668214680416,0 95.04800817627771,20.90689076278967,0 95.047589604937,20.90711632826897,0 95.04723146858891,20.90724969262907,0 95.04689491081894,20.90733120223795,0 95.0465708658332,20.90733625453781,0 95.04315645880318,20.90727493959756,0 95.04269297121874,20.90732391424058,0 95.04228678179221,20.90742652641515,0 95.04191467787949,20.90757792160034,0 95.04164489250046,20.90775047069407,0 95.04133561591939,20.90797301024171,0 95.04108421511357,20.9082190346667,0 95.04080626720621,20.90857609425558,0 95.04030594489922,20.90928168419179,0 95.04018308590008,20.90957400019801,0 95.04006593743408,20.90987580731734,0 95.04000186147597,20.91021272400716,0 95.0399702646216,20.91053970104543,0 95.04000516839979,20.91086677681287,0 95.04005277710969,20.91117951745939,0 95.0401654355758,20.91151463783301,0 95.04034905471099,20.91185177474636,0 95.04054788330768,20.91215538808535,0 95.04076480957824,20.91241198824869,0 95.04100825440725,20.91262966310864,0 95.04130960307998,20.91285435227377,0 95.04173299892561,20.9130689654031,0 95.04214185314633,20.91321128858582,0 95.04258202790797,20.91325076837441,0 95.0430007318861,20.91326723680049,0 95.04336490875764,20.91327950222059,0 95.04377318218674,20.91327995387841,0 95.04408540873456,20.91329949063179,0 95.04442457199136,20.91333692646946,0 95.04480029545897,20.91340518774757,0 95.04508709663794,20.91349722339378,0 95.04533869045731,20.91362280423579,0 95.04558964367877,20.91377805508373,0 95.0458306011156,20.91397733114614,0 95.04607654160085,20.91418937292124,0 95.04629328607419,20.91447926046987,0 95.04646204300335,20.91477196231768,0 95.04656279484797,20.91505616350111,0 95.04664931460069,20.91533376971066,0 95.04669818697444,20.91565010711539,0 95.04669986745607,20.91590696179443,0 95.04668698319186,20.91618983418015,0 95.0466372045351,20.91645515315501,0 95.04630422697737,20.91732871013828,0 95.04494931303357,20.92037139834393,0 95.04454680049879,20.92149033936838,0 95.04445448711262,20.92196608034632,0 95.04434824374603,20.92252652625211,0 95.04433678104635,20.92289264717923,0 95.04432258671713,20.92353473328456,0 95.04437206045051,20.92405904904278,0 95.04498459744565,20.92765072622959,0 95.04612308592542,20.93401049021669,0 95.04682764187277,20.93799262347714,0 95.04683212253276,20.93848322099334,0 95.04676571362678,20.93885436199344,0 95.04663863262239,20.9391766712498,0 95.04641612723044,20.93952924485255,0 95.04616032248774,20.93986008881214,0 95.04587541964098,20.94012678241597,0 95.04558823784343,20.9402625767477,0 95.04525166959181,20.94039120378288,0 95.04484726980203,20.94050191591222,0 95.04443392034116,20.9405385806654,0 95.04397415953554,20.94051758660459,0 95.04241254143059,20.9402990837027,0 95.03982203073956,20.93984161498489,0 95.03900683800384,20.9398028179927,0 95.03867844269594,20.93986911939334,0 95.03867210444453,20.93987235159328,0 95.03829442089973,20.93997591809831,0 95.03795794931682,20.94012491705386,0 95.03760013730184,20.94036729548868,0 95.03759297801676,20.94037095714791,0 95.03733143783524,20.94057289154807,0 95.0369235069883,20.94095538327647,0 95.03656457474621,20.94146298566475,0 95.03480727204226,20.94373916192587,0 95.03435113780073,20.94422445492135,0 95.03386814525469,20.94470097051861,0 95.0335517092484,20.94504715146437,0 95.03336848887129,20.94545750740978,0 95.03319976045961,20.94586249080572,0 95.03293063853027,20.94694023789253,0 95.03276079982581,20.94744338716966,0 95.03267095195271,20.94766842667251,0 95.03249172188581,20.94797204950424,0 95.03224266162182,20.94827279375516,0 95.03200584999276,20.94855309076661,0 95.03107075097994,20.94969760373038,0 95.03081736012081,20.95016327675784,0 95.03073158709397,20.95038374699049,0 95.0306708655126,20.95060677507274,0 95.03061092150524,20.95081685609051,0 95.03059676418241,20.95104321334522,0 95.03061846722254,20.95159647924578,0 95.03083182819586,20.95385894453215,0 95.03086208106056,20.95415866851695,0 95.030873277612,20.95437599255948,0 95.03086827365644,20.95457420328625,0 95.03081464626911,20.95483460094432,0 95.03074574687315,20.95506804800091,0 95.03060208987213,20.95536860769972,0 95.03045680095116,20.95564183315985,0 95.03024682611853,20.95592590976775,0 95.02999348931803,20.95616895197126,0 95.02973760193214,20.95634979993037,0 95.02944088413257,20.95653401661068,0 95.02913428012356,20.95667845293978,0 95.02885432053699,20.95675265547968,0 95.02855936638478,20.95682546023758,0 95.02827410752053,20.95687149241246,0 95.02796026798653,20.95686782948684,0 95.02757545222467,20.95685460321022,0 95.02649356024243,20.95677038540364,0 95.02616361860521,20.95671330263076,0 95.02592530537842,20.95664184157466,0 95.02566187196042,20.95652716580483,0 95.02537446155451,20.95641058434533,0 95.02519536601542,20.95627222086972,0 95.02497665656,20.95609320889475,0 95.02330434197847,20.95440949855417,0 95.02287880882416,20.95399131229826,0 95.02263196860005,20.95377590581617,0 95.02239359687202,20.95361679925102,0 95.02220773492523,20.95351566217823,0 95.02197671925215,20.95341935663526,0 95.02179132574585,20.95336496595977,0 95.02158981945463,20.9532997260292,0 95.02135337513316,20.95325294403206,0 95.02111813494858,20.95320863307036,0 95.0208138489561,20.95321841971579,0 95.0205155700608,20.95325386486606,0 95.01864106919287,20.95372317836729,0 95.01830150889548,20.95382174386175,0 95.01795098854281,20.95387389922933,0 95.01595094808283,20.9541342105502,0 95.01574614290342,20.95418224351161,0 95.01557585883478,20.95422829281483,0 95.01539126186823,20.95429322200651,0 95.01510811254084,20.95443350459338,0 95.01494608837388,20.95452845306776,0 95.01470962704208,20.95468583508566,0 95.01432983500234,20.95506375389861,0 95.01380985782694,20.95570546123551,0 95.01231489873747,20.95766403230945,0 95.01101362938887,20.9593216156862,0 95.01060193734433,20.95982100736677,0 95.01030699500231,20.96010687139071,0 95.00996725215529,20.960385205188,0 95.00969008947473,20.96060270613679,0 95.00863599423187,20.96131649009357,0 95.0082554654043,20.96160553671425,0 95.00803530244916,20.96177233126041,0 95.00781895602478,20.96198603253021,0 95.00762113629699,20.96219871396555,0 95.00744439385774,20.96241425326932,0 95.0072524822963,20.96264559417233,0 95.00707741638533,20.96290508630651,0 95.00692528267035,20.9631328631523,0 95.00679374652285,20.96341591826013,0 95.00666422050534,20.96372161995165,0 95.00640432073763,20.96434175605348,0 95.00522868766402,20.96740580173737,0 95.00511219136517,20.96775603508726,0 95.00503560420073,20.96802886799957,0 95.00495140249599,20.96838585526272,0 95.00489356637777,20.96868442983582,0 95.00475987555018,20.96974165047318,0 95.0041589528941,20.97445253202085,0 95.00357541367767,20.97927236257016,0 95.00311325681345,20.9842341408583,0 95.00248832163173,20.99134412477989,0 95.00246026508029,20.99192543259312,0 95.00252131381451,20.99252643585144,0 95.00263134820443,20.9930056840483,0 95.00279125038026,20.99347724931354,0 95.00306269952085,20.99400545575572,0 95.00385468250349,20.9956340887166,0 95.00405958316985,20.99602552997441,0 95.00419700899073,20.99639672644268,0 95.0042931088998,20.99681503874112,0 95.00473934993848,20.99884494516732,0 95.00493586685766,20.999835826871,0 95.00497336172352,21.00026980444055,0 95.00496444032065,21.00063047452902,0 95.00490163426326,21.00100659319103,0 95.00480305289659,21.00134910927192,0 95.00363093264662,21.00550389986224,0 95.0024202116422,21.00966462187536,0 95.00238039819539,21.01004263500642,0 95.00237608703702,21.0104030343303,0 95.0024209405951,21.01075175098127,0 95.00254348530388,21.01109131340538,0 95.0027892192826,21.01154610115145,0 95.00313788476025,21.01223769809073,0 95.00530016829175,21.01614613683838,0 95.00552785476607,21.01667657236311,0 95.00564557398684,21.0170680146608,0 95.00568172877429,21.01742974488316,0 95.00565546075225,21.01783381796363,0 95.00554085451451,21.01828221998264,0 95.00528552900094,21.01884541342874,0 95.0045927217373,21.02029394204902,0 95.00432355305688,21.02076465673642,0 95.00305082880824,21.0224960693417,0 95.00218401468824,21.02366539762035,0 95.00192919167047,21.02414135210076,0 95.00171243020083,21.02458997746014,0 95.00154939307622,21.02505180404586,0 95.00146278447913,21.02538286745512,0 95.0014085787389,21.02575033819303,0 95.00142723570016,21.02619217458006,0 95.00160418906913,21.03071851332907,0 95.00160026167151,21.03118028887845,0 95.00165683891501,21.03155383964474,0 95.00180410913742,21.03196451050749,0 95.00197339679404,21.03246241393426,0 95.00215776825542,21.03284199419376,0 95.002562471152,21.03368450699905,0 95.00271368077088,21.03413790195661,0 95.0028229999398,21.03446226336257,0 95.00287706549774,21.0348603168065,0 95.00287200717183,21.03525001619514,0 95.00286012105977,21.03550319980623,0 95.00280913013509,21.03588107948542,0 95.00267733656983,21.03632803972435,0 95.00164543302046,21.04027298005683,0 95.00036690248437,21.04506778732858,0 95.00007408605056,21.04617302708465,0 94.99995158575241,21.04652305171923,0 94.99981316587501,21.04681244407655,0 94.99963287464954,21.04708958670091,0 94.99902598324584,21.04779256547507,0 94.99368408556909,21.05329232112774,0 94.99341447133706,21.05361037493672,0 94.99316621021097,21.05391086971236,0 94.99263472813243,21.05487838235561,0 94.99236535617513,21.0553588658822,0 94.99212454966371,21.05588046220713,0 94.99189720297568,21.05630733368534,0 94.99163977056557,21.05663571147726,0 94.99138607722347,21.0569296378351,0 94.99137443144009,21.0569383745234,0 94.9910639985591,21.05715588608366,0 94.99087878674737,21.0572557862207,0 94.99059305214291,21.05739038224536,0 94.98847173381192,21.05823363856862,0 94.98773345679399,21.05857864740069,0 94.9872979963551,21.05890462980438,0 94.98692048164816,21.05929173630594,0 94.98643295519558,21.05995316487822,0 94.98564669848824,21.06094841730015,0 94.98554549778882,21.06113146225007,0 94.98455845392954,21.06309539534935,0 94.98445639161461,21.06334723290822,0 94.9842185031939,21.06419447336121,0 94.98410920099924,21.06468908393204,0 94.98401717100641,21.06537266211705,0 94.98384292745139,21.06679422762602,0 94.98366905604699,21.06809470043726,0 94.98357222881397,21.06845770842522,0 94.9832013930229,21.06958052651141,0 94.98279942424075,21.07078757106977,0 94.9825509037546,21.07147588266452,0 94.98224482039933,21.07237266655391,0 94.98199882097315,21.07298449248346,0 94.98160964975342,21.07390304338089,0 94.98117695881331,21.07477156831402,0 94.98077511745895,21.07548733107809,0 94.97967755296406,21.0773149154603,0 94.97845725441761,21.07934477979248,0 94.9778053065691,21.08024230320255,0 94.97735544513931,21.0807868334186,0 94.97694806011783,21.08127765859882,0 94.97647460793318,21.08175036905854,0 94.97576712968372,21.08245581779422,0 94.97542195290299,21.08282080725162,0 94.97513972852005,21.08312686217168,0 94.97494518724956,21.08334976345646,0 94.97472391035467,21.08368053239347,0 94.97444890931274,21.0841071074021,0 94.97418420054419,21.08457163661392,0 94.97402388942065,21.08486116671199,0 94.97362280732864,21.08577327116665,0 94.97309965805602,21.08717921841281,0 94.97294499790804,21.08761372694981,0 94.97134731565323,21.09194722948411,0 94.9712013489595,21.09235280256005,0 94.9709993239413,21.09290722146746,0 94.97082233265448,21.09320807092786,0 94.97055225430552,21.09361569910363,0 94.9702555286252,21.09390352952545,0 94.96991816291173,21.09415656615309,0 94.96990594597986,21.09416764434338,0 94.96947260151906,21.09440429292221,0 94.96889813598207,21.09467557802498,0 94.96555420749306,21.09627857584339,0 94.96515784352697,21.09652828672346,0 94.96486543116184,21.09676043277494,0 94.96454818376957,21.09705161675748,0 94.96360624060218,21.0981527409049,0 94.96279296006375,21.09905885536954,0 94.96256660110186,21.09933286029263,0 94.96239703795769,21.09961460848598,0 94.96224157163938,21.09990973872637,0 94.96216247729487,21.10025729839608,0 94.96210240937495,21.1006881395315,0 94.96191513718615,21.10220409614624,0 94.96180843701421,21.10301558283596,0 94.96171590853818,21.10330821168901,0 94.96170921964067,21.10332036437049,0 94.96158278230327,21.1036399290787,0 94.96141025168531,21.10399794975176,0 94.96117302985097,21.10436886389363,0 94.95948527773196,21.1069406260685,0 94.95911420670014,21.10754045544288,0 94.95898416723782,21.10783209508428,0 94.95888700576107,21.1081630990824,0 94.95876073257368,21.10858494056014,0 94.95868461539976,21.10899496111267,0 94.95868670334357,21.10900698726711,0 94.95863583970716,21.10951606866631,0 94.95845288633494,21.11089420213061,0 94.95828364827845,21.11189235578386,0 94.95814127881384,21.11246593324701,0 94.95800348419576,21.11296599705971,0 94.95777293645914,21.11363081811538,0 94.95661820304869,21.11641468854825,0 94.95609124658294,21.11760341072419,0 94.9558795260472,21.11802565084487,0 94.95554536311384,21.11856297605483,0 94.95527910989009,21.11885592318269,0 94.95459312286299,21.11952282029399,0 94.95375477397268,21.12020847469545,0 94.95349560948868,21.12050754399631,0 94.95328519811292,21.12073984694145,0 94.95301375684042,21.12111503968824,0 94.9528032541678,21.12142146042507,0 94.95266820200112,21.12162780360669,0 94.95115225218581,21.12450979847128,0 94.94843737134831,21.1297042165684,0 94.94822384157835,21.1300698982052,0 94.94808329751828,21.13040001934613,0 94.94799956281231,21.13074499480351,0 94.94792029703797,21.13115772742137,0 94.9478736758027,21.13163249690657,0 94.94786258541441,21.13258520182082,0 94.94784239114208,21.13492212927774,0 94.94785442436434,21.13532173665849,0 94.94780812440919,21.13560223857502,0 94.94777312300349,21.13588476581424,0 94.94765365389344,21.13623901956695,0 94.94753954332853,21.13658894030423,0 94.94730304119713,21.13701359499643,0 94.9470210077626,21.13740754825276,0 94.94650594363857,21.13801771613024,0 94.9423080303888,21.14290715238567,0 94.94167699061069,21.14360525288694,0 94.94140818618736,21.14396769100954,0 94.94117199676263,21.144328441504,0 94.94095155461098,21.14470847628404,0 94.94078490435865,21.14518035792109,0 94.93970599435248,21.14822587416855,0 94.93948631273958,21.14876262049631,0 94.93927932464699,21.14915884843211,0 94.93900380773746,21.14959787862426,0 94.93801497352072,21.15099384148799,0 94.93511025359157,21.15501353568157,0 94.9340525123278,21.15650380382802,0 94.9334860168276,21.15735850652815,0 94.93326912853229,21.15784462551835,0 94.93315480826686,21.15825440236323,0 94.93317069422422,21.15867269687191,0 94.9331897515055,21.15914910974085,0 94.93337210058117,21.15967741854312,0 94.93368732974651,21.16046632028835,0 94.93587047340091,21.16496274387648,0 94.9366393783862,21.16650085150007,0 94.93696186422895,21.16695434272713,0 94.94031647843949,21.17123796504888,0 94.94902827371574,21.18258811066442,0 94.95286032352145,21.18755854265282,0 94.95349299623271,21.18831721069632,0 94.95398572264294,21.18871528932012,0 94.95456240627611,21.18911721467325,0 94.96504059872309,21.19620988851944,0 94.97636714921838,21.20378235497361,0 94.9846277449363,21.2092538328106,0 94.98548902354867,21.20982908432981,0 94.98625018497958,21.21047695904775,0 94.98809534851159,21.21205176573697,0 94.99497625087281,21.21776628532753,0 95.00419315592806,21.22527292032758,0 95.01318280442582,21.23276795612003,0 95.02159680428196,21.23956873781739,0 95.02219104008124,21.23988322151199,0 95.0229958854181,21.24019926639551,0 95.03297421990254,21.24373346443894,0 95.04355024565926,21.24760352835343,0 95.04591443818445,21.24835891035586,0 95.04728154444013,21.24887086991271,0 95.04847561466588,21.24934482104551,0 95.04937004537577,21.24979314527937,0 95.0497920863768,21.25007124035684,0 95.05016953580906,21.25039526017755,0 
			</coordinates>
		</LineString>
	</Placemark>
</Document>
</kml>
