stop_id,arrival_time,departure_time,stop_sequence
STR00848,1700,1700,1
STR00846,1725,1730,2
STR00844,1747,1750,3
STR00842,1813,1818,4
STR00841A,1833,1835,5
STR00841,1849,1851,6
STR00840,1905,1915,7
STR00838,1945,1950,8
STR00837,2005,2007,9
STR00836,2017,2117,10
STR00835,2132,2134,11
STR00834,2151,2201,12
STR00832,2221,2226,13
STR00831,2243,2245,14
STR00830,2300,2300,15
