route_id,service_id,trip_id,trip_headsign,trip_short_name,direction_id,block_id,shape_id,wheelchair_accessible,bikes_allowed
RR0001,daily,TR0001Up,Mandalay,,,,,,
RR0002,daily,TR0002Dn,Yangon,,,,,,
RR0003,daily,TR0003Up,Mandalay,,,,,,
RR0004,daily,TR0004Dn,Yangon,,,,,,
RR0005,daily,TR0005Up,Mandalay,,,,,,
RR0006,daily,TR0006Dn,Yangon,,,,,,
RR0007,daily,TR0007Up,Nay Pyi Taw,,,,,,
RR0008,daily,TR0008Dn,Yangon,,,,,,
RR0009,daily,TR0009Up,Thazi,,,,,,
RR0010,daily,TR0010Dn,Yangon,,,,,,
RR0011,daily,TR0011Up,Mandalay,,,,,,
RR0012,daily,TR0012Dn,Yangon,,,,,,
RR0013,daily,TR0013Up,Bago,,,,,,
RR0014,daily,TR0014Dn,Yangon,,,,,,
RR0019,daily,TR0019Up,Thazi,,,,,,
RR0020,daily,TR0020Dn,Thingangyun,,,,,,
RR0021,daily,TR0021Up,Thazi,,,,,,
RR0022,daily,TR0022Dn,Taungoo,,,,,,
RR0023,daily,TR0023Up,Myohaun,,,,,,
RR0024,daily,TR0024Dn,Thazi,,,,,,
RR0031,daily,TR0031Up,Nay Pyi Taw,,,,,,
RR0032,daily,TR0032Dn,Yangon,,,,,,
RR0033,daily,TR0033Up,Myitkyina,,,,,,
RR0034,daily,TR0034Dn,Mandalay,,,,,,
RR0035,daily,TR0035Up,Mawlamyine,,,,,,
RR0036,daily,TR0036Dn,Yangon,,,,,,
RR0037,daily,TR0037Up,Myitkyina,,,,,,
RR0038,daily,TR0038Dn,Mandalay,,,,,,
RR0043,daily,TR0043Up,Myitkyina,,,,,,
RR0044,daily,TR0044Dn,Mandalay,,,,,,
RR0055,daily,TR0055Up,Myitkyina,,,,,,
RR0056,daily,TR0056Dn,Mandalay,,,,,,
RR0057,daily,TR0057Up,Myitkyina,,,,,,
RR0058,daily,TR0058Dn,Mandalay,,,,,,
RR0061,daily,TR0061Up,Pakokku,,,,,,
RR0062,daily,TR0062Dn,Yangon,,,,,,
RR0063,daily,TR0063Up,Pyay,,,,,,
RR0064,daily,TR0064Dn,Kemmedine,,,,,,
RR0069,daily,TR0069Up,Thayawor,,,,,,
RR0070,daily,TR0070Dn,Kemmedine,,,,,,
RR0071,daily,TR0071Up,Pyay,,,,,,
RR0072,daily,TR0072Dn,Yangon,,,,,,
RR0085,daily,TR0085Up,Bago,,,,,,
RR0086,daily,TR0086Dn,Mawlamyine,,,,,,
RR0089,daily,TR0089Dn,Mawlamyine,,,,,,
RR0090,daily,TR0090Up,Yangon,,,,,,
RR0119,daily,TR0119Up,Mandalay,,,,,,
RR0120,daily,TR0120Dn,Bagan,,,,,,
RR0123,daily,TR0123Up,Monywa,,,,,,
RR0124,daily,TR0124Dn,Mandalay,,,,,,
RR0131,daily,TR0131Up,Lashio,,,,,,
RR0132,daily,TR0132Dn,Mandalay,,,,,,
RR0135,daily,TR0135Up,Pakokku,,,,,,
RR0136,daily,TR0136Dn,Mandalay,,,,,,
RR0142,daily,TR0142Dn,Thazi,,,,,,
RR0143,daily,TR0143Up,Yauksauk,,,,,,
RR0171,daily,TR0171Up,Ye,,,,,,
RR0172,daily,TR0172Dn,Mawlamyine,,,,,,
RR0173,daily,TR0173Up,Ye,,,,,,
RR0174,daily,TR0174Dn,Mawlamyine,,,,,,
RR0175,daily,TR0175Up,Dawei,,,,,,
RR0176,daily,TR0176Dn,Yangon,,,,,,
