trip_id,arrival_time,departure_time,stop_id,stop_sequence
TR0019_19 Up,08:35:00,08:35:00,STR00004_RTGK,1
TR0019_19 Up,08:48:00,08:50:00,STR00005_RTTK,2
TR0019_19 Up,09:13:00,09:15:00,STR00006_RYTG,3
TR0019_19 Up,09:27:00,09:29:00,STR00007_RLDK,4
TR0019_19 Up,09:53:00,09:55:00,STR00008_RDAP,5
TR0019_19 Up,10:10:00,10:11:00,STR00058_RKOR,6
TR0019_19 Up,10:26:00,10:28:00,STR00009_RHTG,7
TR0019_19 Up,10:42:00,10:44:00,STR00010_RKYT,8
TR0019_19 Up,10:58:00,11:00:00,STR00011_RTWA,9
TR0019_19 Up,11:15:00,11:17:00,STR00012_RPTS,10
TR0019_19 Up,11:32:00,11:42:00,STR00013_RBGO,11
TR0019_19 Up,12:02:00,12:04:00,STR00059_RSHW,12
TR0019_19 Up,12:23:00,12:25:00,STR00060_RPYG,13
TR0019_19 Up,12:55:00,12:57:00,STR00014_RPPG,14
TR0019_19 Up,13:21:00,13:23:00,STR00061_RKDO,15
TR0019_19 Up,13:39:00,13:41:00,STR00015_RHTT,16
TR0019_19 Up,13:52:00,13:54:00,STR00062_RAKL,17
TR0019_19 Up,14:04:00,14:09:00,STR00016_RDIU,18
TR0019_19 Up,14:28:00,15:40:00,STR00017_RPTH,19
TR0019_19 Up,16:04:00,16:09:00,STR00018_RNLP,20
TR0019_19 Up,16:27:00,16:29:00,STR00063_TWI,21
TR0019_19 Up,16:44:00,16:46:00,STR00019_RPZL,22
TR0019_19 Up,17:01:00,17:03:00,STR00064_RTHK,23
TR0019_19 Up,17:13:00,17:18:00,STR00020_RKTG,24
TR0019_19 Up,17:40:00,17:45:00,STR00021_RPNG,25
TR0019_19 Up,18:02:00,18:04:00,STR00065_RTKI,26
TR0019_19 Up,18:21:00,18:23:00,STR00022_RKNK,27
TR0019_19 Up,18:40:00,18:42:00,STR00066_RNYP,28
TR0019_19 Up,19:02:00,19:07:00,STR00023_RPHU,29
TR0019_19 Up,19:25:00,20:10:00,STR00024_RZYW,30
TR0019_19 Up,20:27:00,20:29:00,STR00067_RNCH,31
TR0019_19 Up,20:50:00,20:52:00,STR00068_RKBW,32
TR0019_19 Up,21:04:00,21:06:00,STR00069_RBBK,33
TR0019_19 Up,21:26:00,21:28:00,STR00025_ROKT,34
TR0019_19 Up,21:40:00,21:42:00,STR00070_RTTK,35
TR0019_19 Up,22:00:00,22:00:00,STR00026_RTGO,36
