trip_id,arrival_time,departure_time,stop_id,stop_sequence
TR0021_21 Up,06:00:00,06:00:00,STR00026_RTGO,1
TR0021_21 Up,06:21:00,06:23:00,STR00071_RKTO,2
TR0021_21 Up,06:37:00,06:42:00,STR00072_RKYK,3
TR0021_21 Up,07:10:00,07:15:00,STR00027_RYTS,4
TR0021_21 Up,07:30:00,07:32:00,STR00073_RKOG,5
TR0021_21 Up,07:40:00,07:53:00,STR00028_RSWA,6
TR0021_21 Up,08:00:00,08:10:00,STR00074_RTGY,7
TR0021_21 Up,08:31:00,08:33:00,STR00029_RMHL,8
TR0021_21 Up,08:52:00,08:54:00,STR00030_RYAN,9
TR0021_21 Up,09:07:00,09:09:00,STR00031_RTWH,10
TR0021_21 Up,09:35:00,09:40:00,STR00032_RAYL,11
TR0021_21 Up,09:50:00,09:52:00,STR00075_RPYW,12
TR0021_21 Up,10:15:00,10:45:00,STR00033_RPMN,13
TR0021_21 Up,11:07:00,11:10:00,STR00076_RYDW,14
TR0021_21 Up,11:20:00,11:25:00,STR00034_RNPT,15
TR0021_21 Up,11:35:00,11:55:00,STR00035_RKDG,16
TR0021_21 Up,12:15:00,12:18:00,STR00077_RPKH,17
TR0021_21 Up,12:30:00,12:33:00,STR00078_RSPK,18
TR0021_21 Up,12:46:00,12:49:00,STR00079_RSMY,19
TR0021_21 Up,13:06:00,13:08:00,STR00080_RSIN,20
TR0021_21 Up,13:18:00,13:23:00,STR00036_RTKO,21
TR0021_21 Up,13:38:00,13:40:00,STR00081_RMKP,22
TR0021_21 Up,13:55:00,13:57:00,STR00082_RNYL,23
TR0021_21 Up,14:21:00,14:23:00,STR00083_RNGT,24
TR0021_21 Up,14:34:00,14:36:00,STR00084_RIKO,25
TR0021_21 Up,14:51:00,14:56:00,STR00037_RYMT,26
TR0021_21 Up,15:13:00,15:15:00,STR00085_RIKK,27
TR0021_21 Up,15:30:00,15:33:00,STR00057_RSHD,28
TR0021_21 Up,15:53:00,15:58:00,STR00038_RPBW,29
TR0021_21 Up,16:18:00,16:21:00,STR00086_RSHW,30
TR0021_21 Up,16:45:00,16:50:00,STR00039_RNYA,31
TR0021_21 Up,17:02:00,17:04:00,STR00087_RNGH,32
TR0021_21 Up,17:20:00,17:20:00,STR00040_RTHZ,33
