station,arrival_time,departure_time,stop_sequence
မႏၱၱေလး,1500,1500,1
ေက်ာက္ဆည္,1600,1602,2
သဲေတာ,1712,1714,3
သာစည္,1746,1749,4
တပ္ကုန္း,1942,1944,5
ေနျပည္ေတာ္,2033,2036,6
ပ်ဥ္းမနား,2100,2103,7
ေရတာရွည္,2228,2230,8
ေတာင္ငူ,2308,2318,9
ပဲခူး,0313,0316,10
ရန္ကုန္,0500,0500,11
